0, 0 2 4 5 7 9 11
1, 1 3 5 6 8 10 0
2, 2 4 6 7 9 11 1
3, 3 5 7 8 10 0 2
4, 4 6 8 9 11 1 3
5, 5 7 9 10 0 2 4
6, 6 8 10 11 1 3 5
7, 7 9 11 0 2 4 6
8, 8 10 0 1 3 5 7
9, 9 11 1 2 4 6 8
10, 10 0 2 3 5 7 9
11, 11 1 3 4 6 8 10