{
	"1" : "Macintosh HD:/Users/cella/12c/12c_sandbox/audio/drums/kicks/",
	"2" : "Macintosh HD:/Users/cella/12c/12c_sandbox/audio/drums/snares/",
	"3" : "Macintosh HD:/Users/cella/12c/12c_sandbox/audio/drums/hats/",
	"4" : "Macintosh HD:/Users/cella/12c/12c_sandbox/audio/drums/aux/"
}
