{
	"pattrstorage" : 	{
		"name" : "u505004712",
		"slots" : 		{
			"1" : 			{
				"id" : 1,
				"data" : 				{
					"_transport_bpm" : [ 5.0 ],
					"_delta::u169007335" : [ -1 ],
					"_delta" : [  ],
					"_delta::LFO1::Amplitude" : [ 1.0 ],
					"_delta::LFO1::High Ramp" : [ 0.0 ],
					"_delta::LFO1::Low Ramp" : [ 0.0 ],
					"_delta::LFO1::Modulation Amount" : [ 0.5 ],
					"_delta::LFO1::Waveform" : [ 0 ],
					"_delta::LFO1::Y-Offset" : [ 0.0 ],
					"_delta::LFO1::Rate::Channel" : [ 3 ],
					"_delta::LFO1::Rate::Range Slider" : [ 0.782052633713703, 2.0 ],
					"_delta::LFO1::Rate::Rate Limit Mode" : [ 0.0 ],
					"_delta::LFO1::Rate::Rate Speed" : [ 11 ],
					"_delta::LFO2::Amplitude" : [ 0.5 ],
					"_delta::LFO2::High Ramp" : [ 0.0 ],
					"_delta::LFO2::Low Ramp" : [ 0.0 ],
					"_delta::LFO2::Modulation Amount" : [ 0.5 ],
					"_delta::LFO2::Waveform" : [ 0 ],
					"_delta::LFO2::Y-Offset" : [ 0.0 ],
					"_delta::LFO2::Rate::Channel" : [ 0 ],
					"_delta::LFO2::Rate::Range Slider" : [ 0.0, 2.0 ],
					"_delta::LFO2::Rate::Rate Limit Mode" : [ 0.0 ],
					"_delta::LFO2::Rate::Rate Speed" : [ 11 ],
					"_delta::DeltaReceiveContainer::DeltaReceive1::Flip Output On/Off" : [ 0.0 ],
					"_delta::DeltaReceiveContainer::DeltaReceive1::Output Range" : [ 0.0, 2.0 ],
					"_delta::DeltaReceiveContainer::DeltaReceive1::delta_speedlim_toggle" : [ 0.0 ],
					"_delta::DeltaReceiveContainer::DeltaReceive1::modulation source select" : [ 0.0 ],
					"_delta::DeltaReceiveContainer::DeltaReceive1::offset" : [ -0.25 ],
					"_delta::DeltaReceiveContainer::DeltaReceive2::Flip Output On/Off" : [ 0.0 ],
					"_delta::DeltaReceiveContainer::DeltaReceive2::Output Range" : [ 0.0, 2.0 ],
					"_delta::DeltaReceiveContainer::DeltaReceive2::delta_speedlim_toggle" : [ 0.0 ],
					"_delta::DeltaReceiveContainer::DeltaReceive2::modulation source select" : [ 0.0 ],
					"_delta::DeltaReceiveContainer::DeltaReceive2::offset" : [ 0.0 ],
					"_delta::DeltaReceiveContainer::DeltaReceive3::Flip Output On/Off" : [ 0.0 ],
					"_delta::DeltaReceiveContainer::DeltaReceive3::Output Range" : [ 0.0, 2.0 ],
					"_delta::DeltaReceiveContainer::DeltaReceive3::delta_speedlim_toggle" : [ 0.0 ],
					"_delta::DeltaReceiveContainer::DeltaReceive3::modulation source select" : [ 0.0 ],
					"_delta::DeltaReceiveContainer::DeltaReceive3::offset" : [ 0.0 ],
					"_delta::DeltaReceiveContainer::DeltaReceive4::Flip Output On/Off" : [ 0.0 ],
					"_delta::DeltaReceiveContainer::DeltaReceive4::Output Range" : [ 0.0, 2.0 ],
					"_delta::DeltaReceiveContainer::DeltaReceive4::delta_speedlim_toggle" : [ 0.0 ],
					"_delta::DeltaReceiveContainer::DeltaReceive4::modulation source select" : [ 1.0 ],
					"_delta::DeltaReceiveContainer::DeltaReceive4::offset" : [ 0.25 ],
					"_delta::DeltaReceiveContainer::DeltaReceive5::Flip Output On/Off" : [ 0.0 ],
					"_delta::DeltaReceiveContainer::DeltaReceive5::Output Range" : [ 0.0, 2.0 ],
					"_delta::DeltaReceiveContainer::DeltaReceive5::delta_speedlim_toggle" : [ 0.0 ],
					"_delta::DeltaReceiveContainer::DeltaReceive5::modulation source select" : [ 0.0 ],
					"_delta::DeltaReceiveContainer::DeltaReceive5::offset" : [ 0.0 ],
					"_delta::DeltaReceiveContainer::DeltaReceive6::Flip Output On/Off" : [ 0.0 ],
					"_delta::DeltaReceiveContainer::DeltaReceive6::Output Range" : [ 0.003883180906996, 2.0 ],
					"_delta::DeltaReceiveContainer::DeltaReceive6::delta_speedlim_toggle" : [ 0.0 ],
					"_delta::DeltaReceiveContainer::DeltaReceive6::modulation source select" : [ 0.0 ],
					"_delta::DeltaReceiveContainer::DeltaReceive6::offset" : [ -0.030567470937967 ],
					"_delta::Mux1::Mixer" : [ 0.0, 0.0, 0.0, 0.0, 0.0, 0.0, 0.0, 0.0, 0.0, 0.0, 0.0, 0.0, 0.0, 0.0, 0.0, 0.0, 0.0, 0.0, 0.0, 0.0 ],
					"_delta::CC Audio2" : [  ],
					"_delta::CC Audio2::CC Audio Mixer::Mixer / Send UI" : [ 1.0, 1.0, 1.0, 1.0, 1.0, 1.0, 1.0, 1.0, 0.0, 0.0, 0.0, 0.0, 0.0, 0.0, 0.0, 0.0, 0.0, 0.0, 0.0, 0.0, 0.0, 0.0, 0.0 ],
					"_delta::delta self EG mod::LFO1 int::Channel" : [ 0 ],
					"_delta::delta self EG mod::LFO1 int::Range Slider" : [ 0.0, 2.0 ],
					"_delta::delta self EG mod::LFO1 int::Rate Limit Mode" : [ 0.0 ],
					"_delta::delta self EG mod::LFO1 int::Rate Speed" : [ 11 ],
					"_delta::delta self EG mod::LFO1 +/-::Channel" : [ 0 ],
					"_delta::delta self EG mod::LFO1 +/-::Range Slider" : [ 0.0, 2.0 ],
					"_delta::delta self EG mod::LFO1 +/-::Rate Limit Mode" : [ 0.0 ],
					"_delta::delta self EG mod::LFO1 +/-::Rate Speed" : [ 11 ],
					"_delta::delta self EG mod::LFO2 Int::Channel" : [ 0 ],
					"_delta::delta self EG mod::LFO2 Int::Range Slider" : [ 0.0, 2.0 ],
					"_delta::delta self EG mod::LFO2 Int::Rate Limit Mode" : [ 0.0 ],
					"_delta::delta self EG mod::LFO2 Int::Rate Speed" : [ 11 ],
					"_delta::delta self EG mod::LFO2 +/-::Channel" : [ 0 ],
					"_delta::delta self EG mod::LFO2 +/-::Range Slider" : [ 0.0, 2.0 ],
					"_delta::delta self EG mod::LFO2 +/-::Rate Limit Mode" : [ 0.0 ],
					"_delta::delta self EG mod::LFO2 +/-::Rate Speed" : [ 11 ],
					"_delta::delta self EG mod::ADSR Pos::Channel" : [ 0 ],
					"_delta::delta self EG mod::ADSR Pos::Range Slider" : [ 0.0, 2.0 ],
					"_delta::delta self EG mod::ADSR Pos::Rate Limit Mode" : [ 0.0 ],
					"_delta::delta self EG mod::ADSR Pos::Rate Speed" : [ 11 ],
					"_delta::delta self EG mod::ADSR Rate::Channel" : [ 0 ],
					"_delta::delta self EG mod::ADSR Rate::Range Slider" : [ 0.0, 2.0 ],
					"_delta::delta self EG mod::ADSR Rate::Rate Limit Mode" : [ 0.0 ],
					"_delta::delta self EG mod::ADSR Rate::Rate Speed" : [ 11 ],
					"_delta::delta self EG mod::Slider Rate::Channel" : [ 0 ],
					"_delta::delta self EG mod::Slider Rate::Range Slider" : [ 0.0, 2.0 ],
					"_delta::delta self EG mod::Slider Rate::Rate Limit Mode" : [ 0.0 ],
					"_delta::delta self EG mod::Slider Rate::Rate Speed" : [ 11 ],
					"_delta::delta self EG mod::Follow Gain::Channel" : [ 1 ],
					"_delta::delta self EG mod::Follow Gain::Range Slider" : [ 2.0, 2.0 ],
					"_delta::delta self EG mod::Follow Gain::Rate Limit Mode" : [ 0.0 ],
					"_delta::delta self EG mod::Follow Gain::Rate Speed" : [ 11 ],
					"_delta::delta self EG mod::Subdiv pos::Channel" : [ 0 ],
					"_delta::delta self EG mod::Subdiv pos::Range Slider" : [ 0.0, 2.0 ],
					"_delta::delta self EG mod::Subdiv pos::Rate Limit Mode" : [ 0.0 ],
					"_delta::delta self EG mod::Subdiv pos::Rate Speed" : [ 11 ],
					"_delta::delta self EG mod::Slider pos::Channel" : [ 0 ],
					"_delta::delta self EG mod::Slider pos::Range Slider" : [ 0.0, 2.0 ],
					"_delta::delta self EG mod::Slider pos::Rate Limit Mode" : [ 0.0 ],
					"_delta::delta self EG mod::Slider pos::Rate Speed" : [ 11 ],
					"_delta::delta self EG mod::Mix Gain::Channel" : [ 0 ],
					"_delta::delta self EG mod::Mix Gain::Range Slider" : [ 0.0, 2.0 ],
					"_delta::delta self EG mod::Mix Gain::Rate Limit Mode" : [ 0.0 ],
					"_delta::delta self EG mod::Mix Gain::Rate Speed" : [ 11 ],
					"_delta::delta self EG mod::Flip Gain::Channel" : [ 0 ],
					"_delta::delta self EG mod::Flip Gain::Range Slider" : [ 0.0, 2.0 ],
					"_delta::delta self EG mod::Flip Gain::Rate Limit Mode" : [ 0.0 ],
					"_delta::delta self EG mod::Flip Gain::Rate Speed" : [ 11 ],
					"_delta::Ramp1::Loop On/Off" : [ 1.0 ],
					"_delta::Ramp1::function" : [ 48000.0, 0.0, 1.0, 0.0, 0.0, 0, 2811.410156862915301, 0.830519020557404, 0, 13765.741753927266473, 0.17441900074482, 0, 47997.370986589019594, 0.0, 0, "linear" ],
					"_delta::waveshaper::Range Low::Channel" : [ 0 ],
					"_delta::waveshaper::Range Low::Range Slider" : [ 0.0, 2.0 ],
					"_delta::waveshaper::Range Low::Rate Limit Mode" : [ 0.0 ],
					"_delta::waveshaper::Range Low::Rate Speed" : [ 11 ],
					"_delta::waveshaper::Range High::Channel" : [ 0 ],
					"_delta::waveshaper::Range High::Range Slider" : [ 0.0, 2.0 ],
					"_delta::waveshaper::Range High::Rate Limit Mode" : [ 0.0 ],
					"_delta::waveshaper::Range High::Rate Speed" : [ 11 ],
					"_delta::Subdivide1::Gen New Bars Button" : [ 0.0 ],
					"_delta::Subdivide1::Jam Bars" : [ 4.0 ],
					"_delta::Subdivide1::Jam Bars Button" : [ 0.0 ],
					"_delta::Subdivide1::Jam Bars On/Off" : [ 1.0 ],
					"_delta::Subdivide1::Loop Controller" : [ 0.0, 105.0 ],
					"_delta::Subdivide1::Loop Jam Bars" : [ 1.0 ],
					"_delta::Subdivide1::Loop Jam Bars Button" : [ 0.0 ],
					"_delta::Subdivide1::Loop Jam On/Off" : [ 0.0 ],
					"_delta::Subdivide1::Loop On/Off" : [ 1.0 ],
					"_delta::Subdivide1::Number of Bars" : [ 8.0 ],
					"_delta::Subdivide1::Range Control" : [ 0.0, 1.0 ],
					"_delta::Subdivide1::Smooth Output" : [ 1.0 ],
					"_delta::Subdivide1::Values" : [ -0.88976377248764, -0.972440958023071, 0.094488188624382, -0.228346452116966, -0.830708682537079, -0.255905508995056, -0.287401556968689, -0.629921317100525, -0.366141736507416, 0.381889760494232, 0.275590538978577, 0.25984251499176, -0.492125988006592, 0.354330718517303, 0.20472440123558, -0.244094491004944, 0.633858263492584, 0.523622035980225, 0.003937005996704, 0.047244098037481, 0.472440958023071, -0.342519670724869, -0.047244101762772, 0.488188952207565, -0.330708682537079, 0.531496047973633, -0.586614191532135, 0.62992125749588, 0.720472455024719, -0.370078712701797, 0.043307095766068, 0.118110232055187, -0.043307088315487, 0.18503937125206, -0.681102395057678, 0.322834640741348, -0.523622035980225, -0.330708652734756, 0.318897604942322, -0.578740119934082, 0.0, 0.559055089950562, -0.354330718517303, -0.614173233509064, -0.342519670724869, -0.283464580774307, 0.145669296383858, -0.669291377067566, 0.429133892059326, 0.67322838306427, 0.381889760494232, 0.003937005996704, -0.326771676540375, 0.503937005996704, 0.562992095947266, -0.283464550971985, -0.688976347446442, 0.499999970197678, -0.897637844085693, -0.480314940214157, 0.165354326367378, -0.531496047973633, -0.440944850444794, 0.228346467018127, -0.059055119752884, 0.452755898237228, -0.480314970016479, -0.763779520988464, -0.114173233509064, -0.035433072596788, -0.047244101762772, 0.622047245502472, -0.657480299472809, -0.181102365255356, 0.275590538978577, 0.5, -0.803149580955505, -0.503937005996704, 0.91338586807251, 0.173228353261948, -0.248031497001648, 0.307086616754532, 0.877952754497528, 0.665354371070862, 0.066929131746292, -0.11023622751236, 0.515748023986816, 0.448818892240524, -0.362204730510712, 0.661417305469513, -0.807086586952209, -0.267716526985168, -0.649606347084045, 0.311023622751236, -0.342519670724869, -0.641732275485992, -0.838582694530487, -0.590551197528839, -0.570866167545319, -0.12992125749588, 0.149606302380562, 0.618110179901123, 0.440944880247116, 0.751968502998352, -0.507874011993408 ],
					"_delta::Slider1::Jam Bars" : [ 1.0 ],
					"_delta::Slider1::Jam On/Off" : [ 1.0 ],
					"_delta::Slider1::Range" : [ 0.304370332507014, 64.0 ],
					"_delta::Slider1::Slider Qty" : [ 64.0 ],
					"_delta::Slider1::Slider Values" : [ -0.21170000731945, 0.431100010871887, -0.239600002765656, 0.024599999189377, 0.850300014019012, -0.286900013685226, -0.442600011825562, 0.151600003242493, -0.391299992799759, -0.065200001001358, -0.491200000047684, 0.347799986600876, 0.375200003385544, 1.0, 0.655700027942657, 0.147499993443489, 0.0, 0.0, 0.0, -0.127864092588425, 0.291328966617584, 1.0, 0.459006190299988, -0.575003325939178, -0.882411599159241, -0.891726970672607, -0.901042401790619, 0.151597946882248, 0.123651750385761, -0.002106169704348, -0.127864092588425, -0.253621995449066, -0.37937992811203, -0.407326132059097, -0.239648893475533, 0.039813134819269, 0.291328966617584, 0.766414403915405, -0.159860089421272, -0.091633021831512, -0.023405957967043, 0.044821105897427, -0.183756500482559, 0.181275233626366, 0.249502301216125, 0.317729353904724, 0.385956436395645, 0.454183489084244, 0.522410571575165, -0.602949559688568, 0.658864676952362, 0.727091729640961, 0.795318782329559, 1.0, 0.931772947311401, 1.0, 0.0, -0.519110918045044, -0.491164743900299, -0.463218539953232, -0.602949559688568, 0.0, 0.0, 0.0 ],
					"_delta::Slider1::Smooth Output On/Off" : [ 0.0 ],
					"_drummatrix2::Aux Loop Record On/Off" : [ 0, 0, 0, 0 ],
					"_drummatrix2::Aux1 Record" : [ 0.0 ],
					"_drummatrix2::Aux2 Record" : [ 0.0 ],
					"_drummatrix2::Aux3 Record" : [ 0.0 ],
					"_drummatrix2::Aux4 Record" : [ 0.0 ],
					"_drummatrix2::Delta Trigger Note Volume" : [ 1.0, 1.0, 1.0, 1.0, 1.0, 1.0, 1.0, 1.0, 1.0, 1.0, 1.0, 1.0, 1.0, 1.0, 1.0, 1.0 ],
					"_drummatrix2::Delta Trigger Row" : [ 0, 0, 0, 1, 1, 1, 1, 0, 0, 0, 0, 1, 0, 0, 0, 1 ],
					"_drummatrix2::Jam On/Off" : [ 0.0 ],
					"_drummatrix2::Lock  Matrix" : [ 0, 0, 0, 0, 2, 2, 2, 2, 2, 2, 2, 2, 4, 4, 4, 4 ],
					"_drummatrix2::Mute Matrix" : [ 0, 0, 0 ],
					"_drummatrix2::Note Volume" : [ 1.0, 1.0, 1.0, 1.0, 1.0, 1.0, 1.0, 1.0, 1.0, 1.0, 1.0, 1.0, 1.0, 1.0, 1.0, 1.0 ],
					"_drummatrix2::Randomize Speed" : [ 0.0 ],
					"_drummatrix2::Reset Speed" : [ 0.0 ],
					"_drummatrix2::Sample Selector" : [ 0.102557145059109, 0.377952754497528, 0.220472440123558, 0.456692904233932, 0.532608985900879, 0.290436446666718, 0.388849407434464, 0.487262368202209, 0.585675299167633, 0.701981544494629, 0.728821456432343, 0.773554623126984, 0.227810010313988, 0.400778234004974, 0.573746502399445, 0.200970113277435 ],
					"_drummatrix2::Scramble Speed" : [ 0.0 ],
					"_drummatrix2::Sequential Mode On/Off" : [ 1.0 ],
					"_drummatrix2::Solo Matrix" : [ 0, 0, 0 ],
					"_drummatrix2::Speed Control" : [ 2.590746164321899, 1.888748407363892, 2.622655153274536, 2.941745042800903, 1.569658517837524, 3.133198976516724, 2.112111330032349, 2.399292230606079, 3.133198976516724, 1.876262664794922, 3.420380115509033, 1.824930429458618, 2.846018075942993, 3.45228910446167, 1.952566385269165, 2.016384363174438 ],
					"_drummatrix2::Speed Lock" : [ 0, 0, 0, 0, 0, 0, 0, 0, 0, 0, 0, 0, 0, 0, 0, 0 ],
					"_drummatrix2::Tempo" : [ 11.0 ],
					"_drummatrix2::aux1-4 receive notelength" : [ 2, 2, 2, 2 ],
					"_drummatrix2::cell_fill_likelihood" : [ 20.0 ],
					"_drummatrix2::jam_probabilities" : [ 8, 0, 8, 0 ],
					"_drummatrix2::markov_gen_density" : [ 9 ],
					"_drummatrix2::num_columns" : [ 8.0 ],
					"_drummatrix2::preset_pattern_gen" : [ 2.0 ],
					"_drummatrix2::preset_pattern_storage" : [ "0 0 0 1 0 0 2 0 1 3 0 0 4 0 0 5 0 1 6 0 0 7 0 0 8 0 0 9 0 0 10 0 0 11 0 0 12 0 0 13 0 0 14 0 0 15 0 0 0 1 0 1 1 0 2 1 1 3 1 0 4 1 0 5 1 1 6 1 1 7 1 0 8 1 0 9 1 0 10 1 0 11 1 0 12 1 1 13 1 0 14 1 0 15 1 1 0 2 0 1 2 1 2 2 0 3 2 0 4 2 0 5 2 1 6 2 1 7 2 0 8 2 0 9 2 0 10 2 0 11 2 0 12 2 0 13 2 0 14 2 0 15 2 0 0 3 0 1 3 0 2 3 0 3 3 1 4 3 0 5 3 0 6 3 0 7 3 1 8 3 0 9 3 0 10 3 0 11 3 0 12 3 1 13 3 0 14 3 0 15 3 1 0 4 1 1 4 0 2 4 0 3 4 0 4 4 0 5 4 1 6 4 0 7 4 0 8 4 0 9 4 0 10 4 1 11 4 1 12 4 0 13 4 1 14 4 0 15 4 1 0 5 1 1 5 0 2 5 0 3 5 0 4 5 0 5 5 0 6 5 0 7 5 1 8 5 0 9 5 0 10 5 0 11 5 0 12 5 1 13 5 0 14 5 0 15 5 0 0 6 0 1 6 0 2 6 0 3 6 0 4 6 0 5 6 0 6 6 1 7 6 0 8 6 0 9 6 0 10 6 0 11 6 0 12 6 1 13 6 0 14 6 1 15 6 0 0 7 1 1 7 1 2 7 1 3 7 0 4 7 0 5 7 1 6 7 0 7 7 1 8 7 0 9 7 0 10 7 0 11 7 0 12 7 0 13 7 1 14 7 0 15 7 0 0 8 1 1 8 0 2 8 0 3 8 0 4 8 0 5 8 1 6 8 0 7 8 1 8 8 0 9 8 0 10 8 0 11 8 0 12 8 0 13 8 0 14 8 0 15 8 1 0 9 0 1 9 0 2 9 0 3 9 1 4 9 1 5 9 0 6 9 0 7 9 0 8 9 0 9 9 0 10 9 0 11 9 0 12 9 1 13 9 0 14 9 0 15 9 1 0 10 0 1 10 0 2 10 0 3 10 0 4 10 1 5 10 0 6 10 0 7 10 1 8 10 0 9 10 0 10 10 0 11 10 0 12 10 0 13 10 0 14 10 0 15 10 1 0 11 0 1 11 0 2 11 0 3 11 0 4 11 1 5 11 0 6 11 0 7 11 1 8 11 0 9 11 0 10 11 0 11 11 0 12 11 0 13 11 1 14 11 0 15 11 0 0 12 1 1 12 0 2 12 0 3 12 1 4 12 1 5 12 0 6 12 0 7 12 0 8 12 0 9 12 1 10 12 0 11 12 0 12 12 0 13 12 0 14 12 0 15 12 0 0 13 0 1 13 0 2 13 1 3 13 0 4 13 0 5 13 0 6 13 1 7 13 0 8 13 1 9 13 0 10 13 0 11 13 1 12 13 0 13 13 0 14 13 0 15 13 1 0 14 1 1 14 0 2 14 0 3 14 1 4 14 0 5 14 0 6 14 0 7 14 0 8 14 0 9 14 0 10 14 0 11 14 0 12 14 0 13 14 0 14 14 1 15 14 0 0 15 0 1 15 0 2 15 0 3 15 0 4 15 0 5 15 0 6 15 1 7 15 0 8 15 0 9 15 1 10 15 0 11 15 0 12 15 1 13 15 0 14 15 1 15 15 0", "\n" ],
					"_drummatrix2::preset_retrieve" : [ 2.0 ],
					"_drummatrix2::preset_save_number" : [ 2.0 ],
					"_drummatrix2::preset_toward" : [ 1.0 ],
					"_drummatrix2::randomize_z_index" : [ 4.0 ],
					"_drummatrix2::u896004901" : [ -1 ],
					"_drummatrix2::counter::Channel" : [ 3 ],
					"_drummatrix2::counter::Range Slider" : [ 0.9086803270846, 1.710655718433614 ],
					"_drummatrix2::counter::Rate Limit Mode" : [ 0.0 ],
					"_drummatrix2::counter::Rate Speed" : [ 10 ],
					"_preset_select::live.toggle" : [ 0.0 ],
					"_preset_select::live.toggle[1]" : [ 0.0 ],
					"_preset_select::live.toggle[2]" : [ 0.0 ],
					"_preset_select::live.toggle[3]" : [ 0.0 ],
					"_preset_select::live.toggle[4]" : [ 0.0 ],
					"_preset_select::live.toggle[5]" : [ 0.0 ],
					"_preset_select::live.toggle[6]" : [ 0.0 ],
					"_preset_select::live.toggle[7]" : [ 0.0 ],
					"_preset_select::live.toggle[8]" : [ 0.0 ],
					"_preset_select::live.toggle[9]" : [ 1.0 ],
					"_preset_select::multislider" : [ 29, 0, 0, 0, 0, 0, 0, 0, 0, 0 ],
					"_preset_select::pattrDuration" : [ 4.0 ],
					"_preset_select::pattrInterpolation" : [ 4.0 ],
					"_preset_select::transitionMatrix" : [ 29, 0, 0, 0, 0, 0, 0, 0, 0, 0 ],
					"_drummatrix_melody::ADSR" : [ 6000.0, 0.0, 1.0, 0.0, 0.01333300024271, 0, 0.0, 0.703503012657166, 0, 748.941137690596065, 0.438461989164352, 0, 6002.218808219884522, 0.01333300024271, 0, "linear" ],
					"_drummatrix_melody::Delta Trigger Note Volume" : [ 1.0, 1.0, 1.0, 1.0, 1.0, 1.0, 1.0, 1.0, 1.0, 1.0, 1.0, 1.0, 1.0, 1.0, 1.0, 1.0 ],
					"_drummatrix_melody::Delta Trigger Row" : [ 1, 1, 1, 1, 1, 1, 1, 1, 1, 1, 1, 1, 1, 1, 1, 1 ],
					"_drummatrix_melody::Jam On/Off" : [ 0.0 ],
					"_drummatrix_melody::Lock  Matrix" : [ 0, 0, 0, 1, 1, 1, 1, 1, 1, 1, 1, 1, 1, 1, 1, 1 ],
					"_drummatrix_melody::Mute Matrix" : [ 0, 0, 0 ],
					"_drummatrix_melody::Note Number" : [ 0, 22, 24, 26, 28, 29, 31, 33, 35, 37, 39, 41, 42, 44, 46, 48 ],
					"_drummatrix_melody::Note Volume" : [ 1.0, 1.0, 1.0, 1.0, 1.0, 1.0, 1.0, 1.0, 1.0, 1.0, 1.0, 1.0, 1.0, 1.0, 1.0, 1.0 ],
					"_drummatrix_melody::Quantized Rate" : [ 5.0 ],
					"_drummatrix_melody::Randomize Speed[1]" : [ 0.0 ],
					"_drummatrix_melody::Reset Speed" : [ 0.0 ],
					"_drummatrix_melody::Scramble Speed" : [ 0.0 ],
					"_drummatrix_melody::Sequential Mode On/Off[1]" : [ 0.0 ],
					"_drummatrix_melody::Solo Matrix" : [ 0, 0, 0 ],
					"_drummatrix_melody::Tempo" : [ 10.0 ],
					"_drummatrix_melody::cell_fill_likelihood" : [ 20.0 ],
					"_drummatrix_melody::jam_probabilities" : [ 3, 0, 7, 0 ],
					"_drummatrix_melody::markov_gen_density" : [ 2 ],
					"_drummatrix_melody::min_scale_length" : [ 5.0 ],
					"_drummatrix_melody::new_notes_allowed" : [ 1.0 ],
					"_drummatrix_melody::num_columns" : [ 16.0 ],
					"_drummatrix_melody::preset_pattern_gen" : [ 1.0 ],
					"_drummatrix_melody::preset_pattern_storage" : [ "0 0 1 1 0 0 2 0 0 3 0 0 4 0 0 5 0 0 6 0 0 7 0 0 8 0 0 9 0 0 10 0 0 11 0 0 12 0 0 13 0 0 14 0 0 15 0 0 0 1 0 1 1 0 2 1 0 3 1 0 4 1 0 5 1 0 6 1 0 7 1 0 8 1 0 9 1 0 10 1 0 11 1 0 12 1 0 13 1 0 14 1 0 15 1 0 0 2 0 1 2 0 2 2 0 3 2 0 4 2 0 5 2 0 6 2 0 7 2 0 8 2 0 9 2 0 10 2 0 11 2 0 12 2 0 13 2 0 14 2 0 15 2 0 0 3 0 1 3 0 2 3 0 3 3 0 4 3 0 5 3 0 6 3 0 7 3 0 8 3 0 9 3 0 10 3 0 11 3 0 12 3 0 13 3 0 14 3 0 15 3 0 0 4 0 1 4 0 2 4 1 3 4 0 4 4 0 5 4 0 6 4 0 7 4 0 8 4 0 9 4 0 10 4 0 11 4 0 12 4 0 13 4 0 14 4 0 15 4 0 0 5 0 1 5 0 2 5 0 3 5 0 4 5 0 5 5 0 6 5 0 7 5 0 8 5 0 9 5 0 10 5 0 11 5 0 12 5 0 13 5 0 14 5 0 15 5 0 0 6 0 1 6 0 2 6 0 3 6 0 4 6 0 5 6 0 6 6 0 7 6 0 8 6 0 9 6 0 10 6 0 11 6 0 12 6 0 13 6 0 14 6 0 15 6 1 0 7 0 1 7 0 2 7 0 3 7 0 4 7 0 5 7 0 6 7 0 7 7 0 8 7 0 9 7 0 10 7 0 11 7 0 12 7 0 13 7 0 14 7 0 15 7 0 0 8 0 1 8 0 2 8 0 3 8 0 4 8 0 5 8 1 6 8 0 7 8 0 8 8 0 9 8 0 10 8 0 11 8 0 12 8 0 13 8 0 14 8 0 15 8 0 0 9 0 1 9 0 2 9 0 3 9 0 4 9 0 5 9 0 6 9 1 7 9 0 8 9 0 9 9 0 10 9 0 11 9 0 12 9 0 13 9 0 14 9 0 15 9 0 0 10 0 1 10 0 2 10 0 3 10 0 4 10 0 5 10 0 6 10 0 7 10 1 8 10 0 9 10 0 10 10 0 11 10 0 12 10 0 13 10 0 14 10 0 15 10 0 0 11 0 1 11 0 2 11 0 3 11 0 4 11 0 5 11 0 6 11 0 7 11 0 8 11 0 9 11 0 10 11 0 11 11 1 12 11 0 13 11 0 14 11 0 15 11 0 0 12 0 1 12 0 2 12 0 3 12 0 4 12 0 5 12 0 6 12 0 7 12 0 8 12 0 9 12 0 10 12 0 11 12 0 12 12 0 13 12 0 14 12 0 15 12 0 0 13 0 1 13 0 2 13 0 3 13 0 4 13 0 5 13 0 6 13 0 7 13 0 8 13 0 9 13 0 10 13 0 11 13 0 12 13 0 13 13 1 14 13 0 15 13 0 0 14 0 1 14 0 2 14 0 3 14 0 4 14 0 5 14 0 6 14 0 7 14 0 8 14 0 9 14 0 10 14 0 11 14 0 12 14 0 13 14 0 14 14 0 15 14 0 0 15 0 1 15 0 2 15 0 3 15 0 4 15 0 5 15 0 6 15 0 7 15 0 8 15 0 9 15 0 10 15 0 11 15 0 12 15 0 13 15 0 14 15 0 15 15 0", "\n" ],
					"_drummatrix_melody::preset_retrieve" : [ 1.0 ],
					"_drummatrix_melody::preset_save_number" : [ 1.0 ],
					"_drummatrix_melody::preset_toward" : [ 1.0 ],
					"_drummatrix_melody::randomize_z_index" : [ 5.0 ],
					"_drummatrix_melody::scale" : [ 1 ],
					"_drummatrix_melody::scale_visualization" : [ 0, 0, 0, 1, 0, 0, 0, 0, 0, 1, 0, 1 ],
					"_drummatrix_melody::u717003035" : [ -1 ],
					"_drummatrix_melody::ADSR Time::Channel" : [ 0 ],
					"_drummatrix_melody::ADSR Time::Range Slider" : [ 0.0, 2.0 ],
					"_drummatrix_melody::ADSR Time::Rate Limit Mode" : [ 0.0 ],
					"_drummatrix_melody::ADSR Time::Rate Speed" : [ 8 ],
					"_drummatrix_melody::counter::Channel" : [ 3 ],
					"_drummatrix_melody::counter::Range Slider" : [ 0.0, 2.0 ],
					"_drummatrix_melody::counter::Rate Limit Mode" : [ 0.0 ],
					"_drummatrix_melody::counter::Rate Speed" : [ 10 ],
					"_drummatrix_melody::Key::Channel" : [ 0 ],
					"_drummatrix_melody::Key::Range Slider" : [ 0.0, 2.0 ],
					"_drummatrix_melody::Key::Rate Limit Mode" : [ 0.0 ],
					"_drummatrix_melody::Key::Rate Speed" : [ 2 ],
					"_sandbox_modular::erbeverb_mixer::Mixer / Send UI" : [ 0.0, 0.0, 0.0, 0.0, 0.0, 0.0, 0.0, 0.0, 0.0, 0.0, 0.0, 0.0, 0.0, 0.0, 0.0, 0.0, 0.0, 0.0, 0.0, 0.0, 0.0, 0.0, 0.0 ],
					"_sandbox_modular::delay_mixer::Mixer / Send UI" : [ 0.0, 0.0, 0.0, 0.0, 0.0, 0.0, 0.0, 0.0, 0.0, 0.0, 0.0, 0.0, 0.0, 0.0, 0.0, 0.0, 0.0, 0.0, 0.0, 0.0, 0.0, 0.0, 0.0 ],
					"_mixer::u239002063" : [ -1 ],
					"_mixer" : [  ],
					"_mixer::main_mixer::Mixer / Send UI" : [ 0.974217116832733, 0.974217116832733, 0.974217116832733, 0.954137027263641, 1.0, 1.0, 1.0, 1.0, 0.492294251918793, 0.492294251918793, 0.492294251918793, 0.492294251918793, 1.0, 1.0, 1.0, 1.0, 1.0, 1.0, 0.512374401092529, 0.411973774433136, 0.893896639347076, 0.893896639347076, 0.0 ],
					"_mixer::stutter_mixer::Mixer / Send UI" : [ 0.833656311035156, 0.81357616186142, 0.81357616186142, 0.793496072292328, 0.793496072292328, 0.793496072292328, 0.793496072292328, 0.773415923118591, 0.7533358335495, 0.713175594806671, 0.693095445632935, 0.693095445632935, 0.693095445632935, 0.713175594806671, 0.733255684375763, 0.7533358335495, 0.0, 0.0, 0.974217116832733, 0.0, 0.974217116832733, 0.0, 0.0 ],
					"_mixer::stutter::Buffer Size" : [ 3.0 ],
					"_mixer::stutter::Repeat Rate Adjust" : [ 0.552385568618774 ],
					"_mixer::stutter::Sample Playback Pitch" : [ 3.567935911158313 ],
					"_mixer::stutter::_subdivide::Gen New Bars Button" : [ 0.0 ],
					"_mixer::stutter::_subdivide::Jam Bars" : [ 4.0 ],
					"_mixer::stutter::_subdivide::Jam Bars Button" : [ 0.0 ],
					"_mixer::stutter::_subdivide::Jam Bars On/Off" : [ 1.0 ],
					"_mixer::stutter::_subdivide::Loop Controller" : [ 0.0, 99.0 ],
					"_mixer::stutter::_subdivide::Loop Jam Bars" : [ 1.0 ],
					"_mixer::stutter::_subdivide::Loop Jam Bars Button" : [ 0.0 ],
					"_mixer::stutter::_subdivide::Loop Jam On/Off" : [ 0.0 ],
					"_mixer::stutter::_subdivide::Loop On/Off" : [ 1.0 ],
					"_mixer::stutter::_subdivide::Number of Bars" : [ 8.0 ],
					"_mixer::stutter::_subdivide::Range Control" : [ 0.0, 1.0 ],
					"_mixer::stutter::_subdivide::Smooth Output" : [ 1.0 ],
					"_mixer::stutter::_subdivide::Values" : [ 0.362204730510712, -0.472440928220749, -0.248031497001648, -0.814960598945618, -0.287401556968689, 0.75984251499176, 0.685039401054382, -0.484251976013184, 0.011811017990112, 0.137795269489288, 0.169291317462921, -0.547244071960449, -0.539370059967041, -0.125984251499176, 0.12992125749588, -0.066929131746292, 0.523622035980225, 0.062992118299007, -0.401574790477753, 0.023622035980225, -0.374015748500824, 0.547244071960449, -0.519685029983521, -0.141732290387154, -0.094488173723221, 0.547244071960449, 0.657480299472809, 0.019685044884682, 0.354330718517303, 0.559055089950562, -0.590551137924194, 0.358267694711685, -0.67322838306427, 0.334645658731461, -0.515748023986816, -0.499999970197678, 0.755905508995056, -0.570866107940674, -0.484251976013184, 0.031496047973633, -0.543307065963745, -0.122047245502472, -0.468503952026367, 0.748031497001648, 0.791338562965393, -0.594488143920898, 0.625984251499176, 0.330708652734756, 0.452755898237228, -0.24015748500824, 0.618110239505768, 0.240157470107079, 0.078740149736404, 0.094488188624382, 0.12992125749588, -0.035433061420918, 0.212598413228989, 0.145669281482697, 0.122047230601311, 0.468503922224045, 0.106299206614494, 0.133858263492584, 0.31496062874794, -0.751968502998352, 0.5, 0.169291347265244, -0.015748023986816, -0.177165359258652, -0.236220464110374, -0.188976377248764, 0.035433068871498, -0.330708682537079, 0.0748031437397, 0.263779520988464, -0.877952754497528, -0.200787410140038, 0.114173218607903, 0.318897634744644, 0.535433053970337, -0.10236220061779, 0.818897604942322, 0.267716526985168, -0.417322814464569, -0.448818892240524, -0.614173233509064, -0.23228345811367, 0.267716526985168, -0.177165359258652, 0.503937005996704, 0.090551197528839, 0.307086616754532, 0.015748027712107, 0.216535419225693, 0.468503952026367, -0.066929131746292, 0.437007904052734, 0.413385808467865, -0.586614191532135, -0.464566916227341, 0.452755898237228, 0.094488203525543, -0.618110179901123, 0.228346452116966, -0.523622035980225, 0.712598443031311 ],
					"_mixer::Stutter Pitch::Channel" : [ 6 ],
					"_mixer::Stutter Pitch::Range Slider" : [ 1.204144944950026, 2.0 ],
					"_mixer::Stutter Pitch::Rate Limit Mode" : [ 0.0 ],
					"_mixer::Stutter Pitch::Rate Speed" : [ 11 ],
					"_mixer::Stutter Rate::Channel" : [ 0 ],
					"_mixer::Stutter Rate::Range Slider" : [ 0.079437769949436, 1.653303861618042 ],
					"_mixer::Stutter Rate::Rate Limit Mode" : [ 0.0 ],
					"_mixer::Stutter Rate::Rate Speed" : [ 11 ],
					"_mixer::delay_mixer::Mixer / Send UI" : [ 1.0, 0.893896639347076, 0.853736400604248, 0.0, 0.0, 0.0, 0.0, 0.0, 0.0, 0.0, 0.0, 0.0, 0.0, 0.0, 0.0, 0.954137027263641, 1.0, 0.0, 0.0, 0.0, 0.0, 0.0, 0.0 ],
					"_mixer::Delay Feed::Channel" : [ 3 ],
					"_mixer::Delay Feed::Range Slider" : [ 1.921701874051775, 2.0 ],
					"_mixer::Delay Feed::Rate Limit Mode" : [ 0.0 ],
					"_mixer::Delay Feed::Rate Speed" : [ 11 ],
					"_mixer::aux_mixer::Mixer / Send UI" : [ 0.0, 0.0, 0.0, 0.0, 0.0, 0.0, 0.0, 0.0, 0.833656311035156, 0.81357616186142, 0.81357616186142, 0.81357616186142, 0.0, 0.0, 0.0, 0.0, 0.0, 0.0, 0.0, 0.0, 0.0, 0.0, 0.0 ],
					"_mixer::Delay Pitch::Channel" : [ 5 ],
					"_mixer::Delay Pitch::Range Slider" : [ 0.022286473488321, 0.73984340259007 ],
					"_mixer::Delay Pitch::Rate Limit Mode" : [ 0.0 ],
					"_mixer::Delay Pitch::Rate Speed" : [ 11 ],
					"_mixer::Delay AM::Channel" : [ 4 ],
					"_mixer::Delay AM::Range Slider" : [ 0.0, 0.782052633713703 ],
					"_mixer::Delay AM::Rate Limit Mode" : [ 0.0 ],
					"_mixer::Delay AM::Rate Speed" : [ 11 ],
					"_mixer::Stutter AM::Channel" : [ 1 ],
					"_mixer::Stutter AM::Range Slider" : [ 0.0, 2.0 ],
					"_mixer::Stutter AM::Rate Limit Mode" : [ 0.0 ],
					"_mixer::Stutter AM::Rate Speed" : [ 11 ],
					"_mixer::Submix AM::Channel" : [ 0 ],
					"_mixer::Submix AM::Range Slider" : [ 0.0, 2.0 ],
					"_mixer::Submix AM::Rate Limit Mode" : [ 0.0 ],
					"_mixer::Submix AM::Rate Speed" : [ 11 ],
					"_mixer::overdrive_mixer::Mixer / Send UI" : [ 0.0, 0.0, 0.0, 0.271412938833237, 0.452134013175964, 0.532454490661621, 0.552534639835358, 0.203394040465355, 0.0, 0.0, 0.0, 0.0, 0.0, 0.0, 0.0, 0.0, 0.0, 0.0, 0.0, 0.0, 0.0, 0.0, 0.0 ],
					"_mixer::Overdrv AM::Channel" : [ 0 ],
					"_mixer::Overdrv AM::Range Slider" : [ 0.0, 2.0 ],
					"_mixer::Overdrv AM::Rate Limit Mode" : [ 0.0 ],
					"_mixer::Overdrv AM::Rate Speed" : [ 11 ],
					"_mixer::reverb_mixer::Mixer / Send UI" : [ 0.673015356063843, 0.0, 0.0, 0.0, 0.0, 0.0, 0.0, 0.0, 0.203394040465355, 0.552534639835358, 0.592694878578186, 0.0, 0.0, 0.0, 0.0, 0.0, 0.0, 0.0, 0.632855117321014, 0.0, 0.0, 0.0, 0.0 ],
					"_mixer::Verb AM::Channel" : [ 1 ],
					"_mixer::Verb AM::Range Slider" : [ 0.0, 0.697634171466438 ],
					"_mixer::Verb AM::Rate Limit Mode" : [ 0.0 ],
					"_mixer::Verb AM::Rate Speed" : [ 11 ],
					"_mixer::fm_mixer::Mixer / Send UI" : [ 1.0, 0.984712362289429, 0.969424664974213, 0.954137027263641, 1.0, 1.0, 1.0, 1.0, 0.0, 0.0, 0.0, 0.0, 0.0, 0.0, 0.0, 0.0, 0.0, 0.974217116832733, 0.0, 0.793496072292328, 0.0, 0.0, 0.0 ],
					"_mixer::FM strength::Channel" : [ 1 ],
					"_mixer::FM strength::Range Slider" : [ 1.879492642928143, 1.879492642928143 ],
					"_mixer::FM strength::Rate Limit Mode" : [ 0.0 ],
					"_mixer::FM strength::Rate Speed" : [ 11 ],
					"_mixer::saffire6_mixer::Mixer / Send UI" : [ 0.0, 0.0, 0.0, 0.0, 0.0, 0.0, 0.0, 0.0, 1.0, 0.916828155517578, 0.833656311035156, 0.873816549777985, 0.954137027263641, 0.974217116832733, 0.974217116832733, 0.913976788520813, 0.0, 0.0, 0.0, 1.0, 0.0, 0.0, 0.0 ],
					"_mixer::Filter AM::Channel" : [ 0 ],
					"_mixer::Filter AM::Range Slider" : [ 0.0, 2.0 ],
					"_mixer::Filter AM::Rate Limit Mode" : [ 0.0 ],
					"_mixer::Filter AM::Rate Speed" : [ 11 ],
					"_mixer::Stutter Buff::Channel" : [ 4 ],
					"_mixer::Stutter Buff::Range Slider" : [ 0.0, 0.73984340259007 ],
					"_mixer::Stutter Buff::Rate Limit Mode" : [ 0.0 ],
					"_mixer::Stutter Buff::Rate Speed" : [ 11 ],
					"_mixer::Overdrv Amt::Channel" : [ 0 ],
					"_mixer::Overdrv Amt::Range Slider" : [ 0.0, 2.0 ],
					"_mixer::Overdrv Amt::Rate Limit Mode" : [ 0.0 ],
					"_mixer::Overdrv Amt::Rate Speed" : [ 11 ],
					"_mixer::Verb Room::Channel" : [ 1 ],
					"_mixer::Verb Room::Range Slider" : [ 0.290483921766281, 1.896007061004639 ],
					"_mixer::Verb Room::Rate Limit Mode" : [ 0.0 ],
					"_mixer::Verb Room::Rate Speed" : [ 10 ],
					"_mixer::Verb Time::Channel" : [ 1 ],
					"_mixer::Verb Time::Range Slider" : [ 0.322140842676163, 2.0 ],
					"_mixer::Verb Time::Rate Limit Mode" : [ 0.0 ],
					"_mixer::Verb Time::Rate Speed" : [ 11 ],
					"_mixer::Verb Damp::Channel" : [ 0 ],
					"_mixer::Verb Damp::Range Slider" : [ 0.37490239739418, 2.0 ],
					"_mixer::Verb Damp::Rate Limit Mode" : [ 0.0 ],
					"_mixer::Verb Damp::Rate Speed" : [ 11 ],
					"_mixer::Verb Tail::Channel" : [ 1 ],
					"_mixer::Verb Tail::Range Slider" : [ 0.037228543311357, 1.621647000312805 ],
					"_mixer::Verb Tail::Rate Limit Mode" : [ 0.0 ],
					"_mixer::Verb Tail::Rate Speed" : [ 10 ],
					"_mixer::FM pitch::Channel" : [ 5 ],
					"_mixer::FM pitch::Range Slider" : [ 0.950889558208232, 1.668446487309981 ],
					"_mixer::FM pitch::Rate Limit Mode" : [ 0.0 ],
					"_mixer::FM pitch::Rate Speed" : [ 11 ],
					"_mixer::Filter Freq::Channel" : [ 4 ],
					"_mixer::Filter Freq::Range Slider" : [ 0.0, 0.317751091353747 ],
					"_mixer::Filter Freq::Rate Limit Mode" : [ 0.0 ],
					"_mixer::Filter Freq::Rate Speed" : [ 11 ],
					"_mixer::Filter Q::Channel" : [ 2 ],
					"_mixer::Filter Q::Range Slider" : [ 0.993098789331864, 1.752864949557246 ],
					"_mixer::Filter Q::Rate Limit Mode" : [ 0.0 ],
					"_mixer::Filter Q::Rate Speed" : [ 11 ],
					"_delta_midi::MIDInote::Channel" : [ 4 ],
					"_delta_midi::MIDInote::Range Slider" : [ 0.064495704611953, 2.0 ],
					"_delta_midi::MIDInote::Rate Limit Mode" : [ 1.0 ],
					"_delta_midi::MIDInote::Rate Speed" : [ 9 ],
					"_delta_midi::Sampler::Channel" : [ 1 ],
					"_delta_midi::Sampler::Range Slider" : [ 0.655424940342806, 1.45740033169182 ],
					"_delta_midi::Sampler::Rate Limit Mode" : [ 0.0 ],
					"_delta_midi::Sampler::Rate Speed" : [ 5 ]
				}

			}
,
			"11" : 			{
				"id" : 11,
				"data" : 				{
					"_transport_bpm" : [ 74.0 ],
					"_delta::u169007335" : [ -1 ],
					"_delta" : [  ],
					"_delta::LFO1::Amplitude" : [ 0.5 ],
					"_delta::LFO1::High Ramp" : [ 0.0 ],
					"_delta::LFO1::Low Ramp" : [ 0.0 ],
					"_delta::LFO1::Modulation Amount" : [ 0.5 ],
					"_delta::LFO1::Waveform" : [ 0 ],
					"_delta::LFO1::Y-Offset" : [ 0.0 ],
					"_delta::LFO1::Rate::Channel" : [ 0 ],
					"_delta::LFO1::Rate::Range Slider" : [ 0.0, 2.0 ],
					"_delta::LFO1::Rate::Rate Limit Mode" : [ 0.0 ],
					"_delta::LFO1::Rate::Rate Speed" : [ 11 ],
					"_delta::LFO2::Amplitude" : [ 0.5 ],
					"_delta::LFO2::High Ramp" : [ 0.0 ],
					"_delta::LFO2::Low Ramp" : [ 0.0 ],
					"_delta::LFO2::Modulation Amount" : [ 0.5 ],
					"_delta::LFO2::Waveform" : [ 0 ],
					"_delta::LFO2::Y-Offset" : [ 0.0 ],
					"_delta::LFO2::Rate::Channel" : [ 0 ],
					"_delta::LFO2::Rate::Range Slider" : [ 0.0, 2.0 ],
					"_delta::LFO2::Rate::Rate Limit Mode" : [ 0.0 ],
					"_delta::LFO2::Rate::Rate Speed" : [ 11 ],
					"_delta::DeltaReceiveContainer::DeltaReceive1::Flip Output On/Off" : [ 0.0 ],
					"_delta::DeltaReceiveContainer::DeltaReceive1::Output Range" : [ 0.0, 2.0 ],
					"_delta::DeltaReceiveContainer::DeltaReceive1::delta_speedlim_toggle" : [ 0.0 ],
					"_delta::DeltaReceiveContainer::DeltaReceive1::modulation source select" : [ 0.0 ],
					"_delta::DeltaReceiveContainer::DeltaReceive1::offset" : [ 0.0 ],
					"_delta::DeltaReceiveContainer::DeltaReceive2::Flip Output On/Off" : [ 0.0 ],
					"_delta::DeltaReceiveContainer::DeltaReceive2::Output Range" : [ 0.0, 2.0 ],
					"_delta::DeltaReceiveContainer::DeltaReceive2::delta_speedlim_toggle" : [ 0.0 ],
					"_delta::DeltaReceiveContainer::DeltaReceive2::modulation source select" : [ 0.0 ],
					"_delta::DeltaReceiveContainer::DeltaReceive2::offset" : [ 0.0 ],
					"_delta::DeltaReceiveContainer::DeltaReceive3::Flip Output On/Off" : [ 0.0 ],
					"_delta::DeltaReceiveContainer::DeltaReceive3::Output Range" : [ 0.0, 2.0 ],
					"_delta::DeltaReceiveContainer::DeltaReceive3::delta_speedlim_toggle" : [ 0.0 ],
					"_delta::DeltaReceiveContainer::DeltaReceive3::modulation source select" : [ 0.0 ],
					"_delta::DeltaReceiveContainer::DeltaReceive3::offset" : [ 0.0 ],
					"_delta::DeltaReceiveContainer::DeltaReceive4::Flip Output On/Off" : [ 0.0 ],
					"_delta::DeltaReceiveContainer::DeltaReceive4::Output Range" : [ 0.0, 2.0 ],
					"_delta::DeltaReceiveContainer::DeltaReceive4::delta_speedlim_toggle" : [ 0.0 ],
					"_delta::DeltaReceiveContainer::DeltaReceive4::modulation source select" : [ 0.0 ],
					"_delta::DeltaReceiveContainer::DeltaReceive4::offset" : [ 0.0 ],
					"_delta::DeltaReceiveContainer::DeltaReceive5::Flip Output On/Off" : [ 0.0 ],
					"_delta::DeltaReceiveContainer::DeltaReceive5::Output Range" : [ 0.0, 2.0 ],
					"_delta::DeltaReceiveContainer::DeltaReceive5::delta_speedlim_toggle" : [ 0.0 ],
					"_delta::DeltaReceiveContainer::DeltaReceive5::modulation source select" : [ 0.0 ],
					"_delta::DeltaReceiveContainer::DeltaReceive5::offset" : [ 0.0 ],
					"_delta::DeltaReceiveContainer::DeltaReceive6::Flip Output On/Off" : [ 0.0 ],
					"_delta::DeltaReceiveContainer::DeltaReceive6::Output Range" : [ 0.0, 2.0 ],
					"_delta::DeltaReceiveContainer::DeltaReceive6::delta_speedlim_toggle" : [ 0.0 ],
					"_delta::DeltaReceiveContainer::DeltaReceive6::modulation source select" : [ 0.0 ],
					"_delta::DeltaReceiveContainer::DeltaReceive6::offset" : [ 0.0 ],
					"_delta::Mux1::Mixer" : [ 0.0, 0.0, 0.0, 0.0, 0.0, 0.0, 0.0, 0.0, 0.0, 0.0, 0.0, 0.0, 0.0, 0.0, 0.0, 0.0, 0.0, 0.0, 0.0, 0.0 ],
					"_delta::CC Audio2" : [  ],
					"_delta::CC Audio2::CC Audio Mixer::Mixer / Send UI" : [ 0.0, 0.0, 0.0, 0.0, 0.0, 0.0, 0.0, 0.0, 0.0, 0.0, 0.0, 0.0, 0.0, 0.0, 0.0, 0.0, 0.0, 0.0, 0.0, 0.0, 0.0, 0.0, 0.0 ],
					"_delta::delta self EG mod::LFO1 int::Channel" : [ 0 ],
					"_delta::delta self EG mod::LFO1 int::Range Slider" : [ 0.0, 2.0 ],
					"_delta::delta self EG mod::LFO1 int::Rate Limit Mode" : [ 0.0 ],
					"_delta::delta self EG mod::LFO1 int::Rate Speed" : [ 11 ],
					"_delta::delta self EG mod::LFO1 +/-::Channel" : [ 0 ],
					"_delta::delta self EG mod::LFO1 +/-::Range Slider" : [ 0.0, 2.0 ],
					"_delta::delta self EG mod::LFO1 +/-::Rate Limit Mode" : [ 0.0 ],
					"_delta::delta self EG mod::LFO1 +/-::Rate Speed" : [ 11 ],
					"_delta::delta self EG mod::LFO2 Int::Channel" : [ 0 ],
					"_delta::delta self EG mod::LFO2 Int::Range Slider" : [ 0.0, 2.0 ],
					"_delta::delta self EG mod::LFO2 Int::Rate Limit Mode" : [ 0.0 ],
					"_delta::delta self EG mod::LFO2 Int::Rate Speed" : [ 11 ],
					"_delta::delta self EG mod::LFO2 +/-::Channel" : [ 0 ],
					"_delta::delta self EG mod::LFO2 +/-::Range Slider" : [ 0.0, 2.0 ],
					"_delta::delta self EG mod::LFO2 +/-::Rate Limit Mode" : [ 0.0 ],
					"_delta::delta self EG mod::LFO2 +/-::Rate Speed" : [ 11 ],
					"_delta::delta self EG mod::ADSR Pos::Channel" : [ 0 ],
					"_delta::delta self EG mod::ADSR Pos::Range Slider" : [ 0.0, 2.0 ],
					"_delta::delta self EG mod::ADSR Pos::Rate Limit Mode" : [ 0.0 ],
					"_delta::delta self EG mod::ADSR Pos::Rate Speed" : [ 11 ],
					"_delta::delta self EG mod::ADSR Rate::Channel" : [ 0 ],
					"_delta::delta self EG mod::ADSR Rate::Range Slider" : [ 0.0, 2.0 ],
					"_delta::delta self EG mod::ADSR Rate::Rate Limit Mode" : [ 0.0 ],
					"_delta::delta self EG mod::ADSR Rate::Rate Speed" : [ 11 ],
					"_delta::delta self EG mod::Slider Rate::Channel" : [ 0 ],
					"_delta::delta self EG mod::Slider Rate::Range Slider" : [ 0.0, 2.0 ],
					"_delta::delta self EG mod::Slider Rate::Rate Limit Mode" : [ 0.0 ],
					"_delta::delta self EG mod::Slider Rate::Rate Speed" : [ 11 ],
					"_delta::delta self EG mod::Follow Gain::Channel" : [ 0 ],
					"_delta::delta self EG mod::Follow Gain::Range Slider" : [ 0.0, 2.0 ],
					"_delta::delta self EG mod::Follow Gain::Rate Limit Mode" : [ 0.0 ],
					"_delta::delta self EG mod::Follow Gain::Rate Speed" : [ 11 ],
					"_delta::delta self EG mod::Subdiv pos::Channel" : [ 0 ],
					"_delta::delta self EG mod::Subdiv pos::Range Slider" : [ 0.0, 2.0 ],
					"_delta::delta self EG mod::Subdiv pos::Rate Limit Mode" : [ 0.0 ],
					"_delta::delta self EG mod::Subdiv pos::Rate Speed" : [ 11 ],
					"_delta::delta self EG mod::Slider pos::Channel" : [ 0 ],
					"_delta::delta self EG mod::Slider pos::Range Slider" : [ 0.0, 2.0 ],
					"_delta::delta self EG mod::Slider pos::Rate Limit Mode" : [ 0.0 ],
					"_delta::delta self EG mod::Slider pos::Rate Speed" : [ 11 ],
					"_delta::delta self EG mod::Mix Gain::Channel" : [ 0 ],
					"_delta::delta self EG mod::Mix Gain::Range Slider" : [ 0.0, 2.0 ],
					"_delta::delta self EG mod::Mix Gain::Rate Limit Mode" : [ 0.0 ],
					"_delta::delta self EG mod::Mix Gain::Rate Speed" : [ 11 ],
					"_delta::delta self EG mod::Flip Gain::Channel" : [ 0 ],
					"_delta::delta self EG mod::Flip Gain::Range Slider" : [ 0.0, 2.0 ],
					"_delta::delta self EG mod::Flip Gain::Rate Limit Mode" : [ 0.0 ],
					"_delta::delta self EG mod::Flip Gain::Rate Speed" : [ 11 ],
					"_delta::Ramp1::Loop On/Off" : [ 1.0 ],
					"_delta::Ramp1::function" : [ 3243.2431640625, 0.0, 1.0, 0.0, 0.0, 0, 189.960092620117194, 0.830519, 0, 930.117509829099049, 0.174419, 0, 3243.064733731551769, 0.0, 0, "linear" ],
					"_delta::waveshaper::Range Low::Channel" : [ 0 ],
					"_delta::waveshaper::Range Low::Range Slider" : [ 0.0, 2.0 ],
					"_delta::waveshaper::Range Low::Rate Limit Mode" : [ 0.0 ],
					"_delta::waveshaper::Range Low::Rate Speed" : [ 11 ],
					"_delta::waveshaper::Range High::Channel" : [ 0 ],
					"_delta::waveshaper::Range High::Range Slider" : [ 0.0, 2.0 ],
					"_delta::waveshaper::Range High::Rate Limit Mode" : [ 0.0 ],
					"_delta::waveshaper::Range High::Rate Speed" : [ 11 ],
					"_delta::Subdivide1::Gen New Bars Button" : [ 0.0 ],
					"_delta::Subdivide1::Jam Bars" : [ 4.0 ],
					"_delta::Subdivide1::Jam Bars Button" : [ 0.0 ],
					"_delta::Subdivide1::Jam Bars On/Off" : [ 1.0 ],
					"_delta::Subdivide1::Loop Controller" : [ 0.0, 105.0 ],
					"_delta::Subdivide1::Loop Jam Bars" : [ 1.0 ],
					"_delta::Subdivide1::Loop Jam Bars Button" : [ 0.0 ],
					"_delta::Subdivide1::Loop Jam On/Off" : [ 0.0 ],
					"_delta::Subdivide1::Loop On/Off" : [ 1.0 ],
					"_delta::Subdivide1::Number of Bars" : [ 8.0 ],
					"_delta::Subdivide1::Range Control" : [ 0.0, 1.0 ],
					"_delta::Subdivide1::Smooth Output" : [ 1.0 ],
					"_delta::Subdivide1::Values" : [ -0.858267724514008, -1.0, 0.118110239505768, -0.322834640741348, -0.842519700527191, -0.118110239505768, -0.433070868253708, -0.952755928039551, -0.354330718517303, 0.448818892240524, 0.070866145193577, 0.307086616754532, -0.952755928039551, 0.21259842813015, 0.133858263492584, -0.070866145193577, 0.527559041976929, 0.496062994003296, -0.118110239505768, -0.039370078593493, 0.622047245502472, -0.669291317462921, -0.244094491004944, 0.464566916227341, -0.244094491004944, 0.93700784444809, -0.590551197528839, 0.511811017990112, 0.88976377248764, -0.559055089950562, -0.25984251499176, 0.165354326367378, -0.070866145193577, 0.21259842813015, -0.842519700527191, 0.338582664728165, -0.700787425041199, -0.637795269489288, 0.685039341449738, -0.653543293476105, -0.086614176630974, 0.779527544975281, -0.307086616754532, -0.826771676540375, -0.543307065963745, -0.574803173542023, 0.149606302380562, -0.952755928039551, 0.574803173542023, 0.590551197528839, 0.338582664728165, -0.25984251499176, -0.244094491004944, 0.826771676540375, 0.637795269489288, -0.511811017990112, -0.685039341449738, 0.811023592948914, -0.952755928039551, -0.464566916227341, 0.275590538978577, -0.93700784444809, -0.685039341449738, 0.291338592767715, 0.181102365255356, 0.527559041976929, -0.496062994003296, -0.811023592948914, 0.086614176630974, -0.023622047156096, -0.181102365255356, 0.905511796474457, -0.653543293476105, -0.05511811003089, 0.275590538978577, 0.448818892240524, -0.984251976013184, -0.732283473014832, 0.968503952026367, 0.023622047156096, -0.590551197528839, 0.511811017990112, 0.968503952026367, 0.968503952026367, 0.228346452116966, 0.181102365255356, 0.574803173542023, 0.763779520988464, -0.779527544975281, 0.637795269489288, -0.905511796474457, -0.637795269489288, -0.968503952026367, 0.606299221515656, -0.464566916227341, -0.93700784444809, -0.842519700527191, -0.590551197528839, -0.606299221515656, -0.433070868253708, -0.007874015718699, 0.559055089950562, 0.322834640741348, 0.811023592948914, -0.574803173542023 ],
					"_delta::Slider1::Jam Bars" : [ 1.0 ],
					"_delta::Slider1::Jam On/Off" : [ 0.0 ],
					"_delta::Slider1::Range" : [ 0.0, 15.0 ],
					"_delta::Slider1::Slider Qty" : [ 16.0 ],
					"_delta::Slider1::Slider Values" : [ 0.0, 0.0, 0.180299997329712, 0.024599999189377, -0.131099998950958, -0.286900013685226, -0.442600011825562, -0.391299992799759, -0.391299992799759, -0.065200001001358, 0.326099991798401, 0.347799986600876, -0.695699989795685, 1.0, 0.655700027942657, 0.147499993443489 ],
					"_delta::Slider1::Smooth Output On/Off" : [ 1.0 ],
					"_drummatrix2::Aux Loop Record On/Off" : [ 0, 0, 0, 0 ],
					"_drummatrix2::Aux1 Record" : [ 0.0 ],
					"_drummatrix2::Aux2 Record" : [ 0.0 ],
					"_drummatrix2::Aux3 Record" : [ 0.0 ],
					"_drummatrix2::Aux4 Record" : [ 0.0 ],
					"_drummatrix2::Delta Trigger Note Volume" : [ 1.0, 1.0, 1.0, 1.0, 1.0, 1.0, 1.0, 1.0, 1.0, 1.0, 1.0, 1.0, 1.0, 1.0, 1.0, 1.0 ],
					"_drummatrix2::Delta Trigger Row" : [ 0, 0, 0, 0, 0, 0, 0, 0, 0, 0, 0, 0, 0, 0, 0, 0 ],
					"_drummatrix2::Jam On/Off" : [ 1.0 ],
					"_drummatrix2::Lock  Matrix" : [ 2, 2, 2, 2, 2, 2, 2, 2, 2, 2, 2, 2, 2, 2, 2, 2 ],
					"_drummatrix2::Mute Matrix" : [ 0, 0, 0 ],
					"_drummatrix2::Note Volume" : [ 1.0, 1.0, 1.0, 1.0, 1.0, 1.0, 1.0, 1.0, 1.0, 1.0, 1.0, 1.0, 1.0, 1.0, 1.0, 1.0 ],
					"_drummatrix2::Randomize Speed" : [ 0.0 ],
					"_drummatrix2::Reset Speed" : [ 0.0 ],
					"_drummatrix2::Sample Selector" : [ 0.204724416136742, 0.377952754497528, 0.220472440123558, 0.456692904233932, 0.532608985900879, 0.539129972457886, 0.557609021663666, 0.577174007892609, 0.582608997821808, 0.613043010234833, 0.618478000164032, 0.614130020141602, 0.64673900604248, 0.641304016113281, 0.658695995807648, 0.647826015949249 ],
					"_drummatrix2::Scramble Speed" : [ 0.0 ],
					"_drummatrix2::Sequential Mode On/Off" : [ 1.0 ],
					"_drummatrix2::Solo Matrix" : [ 0, 0, 0 ],
					"_drummatrix2::Speed Control" : [ 1.0, 1.0, 1.0, 1.0, 1.0, 1.0, 1.0, 1.0, 1.0, 1.0, 1.0, 1.0, 1.0, 1.0, 1.0, 1.0 ],
					"_drummatrix2::Speed Lock" : [ 0, 0, 0, 0, 0, 0, 0, 0, 0, 0, 0, 0, 0, 0, 0, 0 ],
					"_drummatrix2::Tempo" : [ 7.0 ],
					"_drummatrix2::aux1-4 receive notelength" : [ 2, 2, 2, 2 ],
					"_drummatrix2::cell_fill_likelihood" : [ 20.0 ],
					"_drummatrix2::jam_probabilities" : [ 8, 0, 8, 0 ],
					"_drummatrix2::markov_gen_density" : [ 9 ],
					"_drummatrix2::num_columns" : [ 16.0 ],
					"_drummatrix2::preset_pattern_gen" : [ 1.0 ],
					"_drummatrix2::preset_pattern_storage" : [ "<empty>" ],
					"_drummatrix2::preset_retrieve" : [ 1.0 ],
					"_drummatrix2::preset_save_number" : [ 2.0 ],
					"_drummatrix2::preset_toward" : [ 1.0 ],
					"_drummatrix2::randomize_z_index" : [ 2.0 ],
					"_drummatrix2::u896004901" : [ -1 ],
					"_drummatrix2::counter::Channel" : [ 0 ],
					"_drummatrix2::counter::Range Slider" : [ 0.0, 2.0 ],
					"_drummatrix2::counter::Rate Limit Mode" : [ 0.0 ],
					"_drummatrix2::counter::Rate Speed" : [ 10 ],
					"_preset_select::live.toggle" : [ 0.0 ],
					"_preset_select::live.toggle[1]" : [ 0.0 ],
					"_preset_select::live.toggle[2]" : [ 0.0 ],
					"_preset_select::live.toggle[3]" : [ 0.0 ],
					"_preset_select::live.toggle[4]" : [ 0.0 ],
					"_preset_select::live.toggle[5]" : [ 0.0 ],
					"_preset_select::live.toggle[6]" : [ 0.0 ],
					"_preset_select::live.toggle[7]" : [ 0.0 ],
					"_preset_select::live.toggle[8]" : [ 0.0 ],
					"_preset_select::live.toggle[9]" : [ 1.0 ],
					"_preset_select::multislider" : [ 29, 0, 0, 0, 0, 0, 0, 0, 0, 0 ],
					"_preset_select::pattrDuration" : [ 4.0 ],
					"_preset_select::pattrInterpolation" : [ 4.0 ],
					"_preset_select::transitionMatrix" : [ 29, 0, 0, 0, 0, 0, 0, 0, 0, 0 ],
					"_drummatrix_melody::ADSR" : [ 202.70269775390625, 0.0, 1.0, 0.0, 0.013333, 0, 0.0, 0.703503, 0, 25.302063101084734, 0.438462, 0, 202.777628824393162, 0.013333, 0, "linear" ],
					"_drummatrix_melody::Delta Trigger Note Volume" : [ 1.0, 1.0, 1.0, 1.0, 1.0, 1.0, 1.0, 1.0, 1.0, 1.0, 1.0, 1.0, 1.0, 1.0, 1.0, 1.0 ],
					"_drummatrix_melody::Delta Trigger Row" : [ 0, 0, 0, 0, 0, 0, 0, 0, 0, 0, 0, 0, 0, 0, 0, 0 ],
					"_drummatrix_melody::Jam On/Off" : [ 1.0 ],
					"_drummatrix_melody::Lock  Matrix" : [ 0, 0, 0, 0, 0, 0, 0, 0, 0, 0, 0, 0, 0, 0, 0, 0 ],
					"_drummatrix_melody::Mute Matrix" : [ 0, 0, 0 ],
					"_drummatrix_melody::Note Number" : [ 36, 37, 38, 39, 40, 41, 42, 43, 44, 45, 46, 47, 48, 49, 50, 51 ],
					"_drummatrix_melody::Note Volume" : [ 1.0, 1.0, 1.0, 1.0, 1.0, 1.0, 1.0, 1.0, 1.0, 1.0, 1.0, 1.0, 1.0, 1.0, 1.0, 1.0 ],
					"_drummatrix_melody::Quantized Rate" : [ 5.0 ],
					"_drummatrix_melody::Randomize Speed[1]" : [ 0.0 ],
					"_drummatrix_melody::Reset Speed" : [ 0.0 ],
					"_drummatrix_melody::Scramble Speed" : [ 0.0 ],
					"_drummatrix_melody::Sequential Mode On/Off[1]" : [ 1.0 ],
					"_drummatrix_melody::Solo Matrix" : [ 0, 0, 0 ],
					"_drummatrix_melody::Tempo" : [ 7.0 ],
					"_drummatrix_melody::cell_fill_likelihood" : [ 20.0 ],
					"_drummatrix_melody::jam_probabilities" : [ 3, 0, 0, 0 ],
					"_drummatrix_melody::markov_gen_density" : [ 2 ],
					"_drummatrix_melody::min_scale_length" : [ 5.0 ],
					"_drummatrix_melody::new_notes_allowed" : [ 1.0 ],
					"_drummatrix_melody::num_columns" : [ 16.0 ],
					"_drummatrix_melody::preset_pattern_gen" : [ 1.0 ],
					"_drummatrix_melody::preset_pattern_storage" : [ "<empty>" ],
					"_drummatrix_melody::preset_retrieve" : [ 1.0 ],
					"_drummatrix_melody::preset_save_number" : [ 1.0 ],
					"_drummatrix_melody::preset_toward" : [ 1.0 ],
					"_drummatrix_melody::randomize_z_index" : [ 5.0 ],
					"_drummatrix_melody::scale" : [ 1 ],
					"_drummatrix_melody::scale_visualization" : [ 0, 0, 0, 1, 0, 0, 0, 0, 0, 1, 0, 1 ],
					"_drummatrix_melody::u717003035" : [ -1 ],
					"_drummatrix_melody::ADSR Time::Channel" : [ 0 ],
					"_drummatrix_melody::ADSR Time::Range Slider" : [ 0.0, 2.0 ],
					"_drummatrix_melody::ADSR Time::Rate Limit Mode" : [ 0.0 ],
					"_drummatrix_melody::ADSR Time::Rate Speed" : [ 8 ],
					"_drummatrix_melody::counter::Channel" : [ 0 ],
					"_drummatrix_melody::counter::Range Slider" : [ 0.0, 2.0 ],
					"_drummatrix_melody::counter::Rate Limit Mode" : [ 0.0 ],
					"_drummatrix_melody::counter::Rate Speed" : [ 10 ],
					"_drummatrix_melody::Key::Channel" : [ 0 ],
					"_drummatrix_melody::Key::Range Slider" : [ 0.0, 2.0 ],
					"_drummatrix_melody::Key::Rate Limit Mode" : [ 0.0 ],
					"_drummatrix_melody::Key::Rate Speed" : [ 2 ],
					"_sandbox_modular::erbeverb_mixer::Mixer / Send UI" : [ 0.0, 0.0, 0.0, 0.0, 0.0, 0.0, 0.0, 0.0, 0.0, 0.0, 0.0, 0.0, 0.0, 0.0, 0.0, 0.0, 0.0, 0.0, 0.0, 0.0, 0.0, 0.0, 0.0 ],
					"_sandbox_modular::delay_mixer::Mixer / Send UI" : [ 0.0, 0.0, 0.0, 0.0, 0.0, 0.0, 0.0, 0.0, 0.0, 0.0, 0.0, 0.0, 0.0, 0.0, 0.0, 0.0, 0.0, 0.0, 0.0, 0.0, 0.0, 0.0, 0.0 ],
					"_mixer::u239002063" : [ -1 ],
					"_mixer" : [  ],
					"_mixer::main_mixer::Mixer / Send UI" : [ 1.0, 1.0, 1.0, 1.0, 1.0, 1.0, 1.0, 1.0, 1.0, 1.0, 1.0, 1.0, 1.0, 1.0, 1.0, 1.0, 1.0, 1.0, 1.0, 1.0, 1.0, 1.0, 1.0 ],
					"_mixer::stutter_mixer::Mixer / Send UI" : [ 0.0, 0.0, 0.0, 0.0, 0.0, 0.0, 0.0, 0.0, 0.0, 0.0, 0.0, 0.0, 0.0, 0.0, 0.0, 0.0, 0.0, 0.0, 0.0, 0.0, 0.0, 0.0, 0.0 ],
					"_mixer::stutter::Buffer Size" : [ 7.0 ],
					"_mixer::stutter::Repeat Rate Adjust" : [ 0.574094 ],
					"_mixer::stutter::Sample Playback Pitch" : [ 1.235443 ],
					"_mixer::stutter::_subdivide::Gen New Bars Button" : [ 0.0 ],
					"_mixer::stutter::_subdivide::Jam Bars" : [ 4.0 ],
					"_mixer::stutter::_subdivide::Jam Bars Button" : [ 0.0 ],
					"_mixer::stutter::_subdivide::Jam Bars On/Off" : [ 1.0 ],
					"_mixer::stutter::_subdivide::Loop Controller" : [ 0.0, 97.0 ],
					"_mixer::stutter::_subdivide::Loop Jam Bars" : [ 1.0 ],
					"_mixer::stutter::_subdivide::Loop Jam Bars Button" : [ 0.0 ],
					"_mixer::stutter::_subdivide::Loop Jam On/Off" : [ 0.0 ],
					"_mixer::stutter::_subdivide::Loop On/Off" : [ 1.0 ],
					"_mixer::stutter::_subdivide::Number of Bars" : [ 8.0 ],
					"_mixer::stutter::_subdivide::Range Control" : [ 0.0, 1.0 ],
					"_mixer::stutter::_subdivide::Smooth Output" : [ 1.0 ],
					"_mixer::stutter::_subdivide::Values" : [ 0.433070868253708, -0.338582664728165, -0.574803173542023, -0.905511796474457, -0.133858263492584, 0.984251976013184, 0.968503952026367, -0.590551197528839, 0.196850389242172, 0.496062994003296, 0.527559041976929, -0.921259820461273, -0.93700784444809, -0.196850389242172, 0.023622047156096, -0.25984251499176, 0.984251976013184, -0.102362208068371, -0.464566916227341, 0.322834640741348, -0.464566916227341, 0.921259820461273, -0.779527544975281, -0.149606302380562, 0.05511811003089, 0.858267724514008, 0.653543293476105, 0.149606302380562, 0.732283473014832, 0.622047245502472, -0.811023592948914, 0.685039341449738, -1.0, 0.401574790477753, -0.88976377248764, -0.811023592948914, 0.826771676540375, -0.779527544975281, -0.637795269489288, -0.244094491004944, -0.779527544975281, -0.37007874250412, -0.385826766490936, 0.905511796474457, 0.795275568962097, -0.811023592948914, 0.748031497001648, 0.25984251499176, 0.338582664728165, -0.086614176630974, 0.685039341449738, 0.275590538978577, 0.401574790477753, 0.102362208068371, 0.039370078593493, 0.102362208068371, 0.338582664728165, 0.007874015718699, -0.023622047156096, 0.763779520988464, -0.149606302380562, 0.307086616754532, 0.275590538978577, -0.795275568962097, 0.385826766490936, 0.307086616754532, 0.25984251499176, -0.149606302380562, -0.385826766490936, 0.070866145193577, -0.165354326367378, -0.480314970016479, -0.007874015718699, 0.322834640741348, -0.874015748500824, -0.023622047156096, 0.039370078593493, 0.37007874250412, 0.763779520988464, 0.007874015718699, 0.763779520988464, 0.228346452116966, -0.543307065963745, -0.905511796474457, -0.590551197528839, -0.385826766490936, 0.622047245502472, -0.25984251499176, 0.637795269489288, 0.385826766490936, 0.21259842813015, -0.05511811003089, 0.322834640741348, 0.716535449028015, 0.244094491004944, 0.700787425041199, 0.669291317462921, -0.574803173542023, -0.653543293476105, 0.905511796474457, -0.196850389242172, -0.559055089950562, 0.228346452116966, -0.637795269489288, 0.669291317462921, 0.685039341449738, 0.133858263492584, 0.496062994003296, -0.433070868253708, -0.732283473014832 ],
					"_mixer::Stutter Pitch::Channel" : [ 0 ],
					"_mixer::Stutter Pitch::Range Slider" : [ 0.0, 2.0 ],
					"_mixer::Stutter Pitch::Rate Limit Mode" : [ 0.0 ],
					"_mixer::Stutter Pitch::Rate Speed" : [ 11 ],
					"_mixer::Stutter Rate::Channel" : [ 0 ],
					"_mixer::Stutter Rate::Range Slider" : [ 0.0, 2.0 ],
					"_mixer::Stutter Rate::Rate Limit Mode" : [ 0.0 ],
					"_mixer::Stutter Rate::Rate Speed" : [ 11 ],
					"_mixer::delay_mixer::Mixer / Send UI" : [ 0.0, 0.0, 0.0, 0.0, 0.0, 0.0, 0.0, 0.0, 0.0, 0.0, 0.0, 0.0, 0.0, 0.0, 0.0, 0.0, 0.0, 0.0, 0.0, 0.0, 0.0, 0.0, 0.0 ],
					"_mixer::Delay Feed::Channel" : [ 0 ],
					"_mixer::Delay Feed::Range Slider" : [ 0.0, 2.0 ],
					"_mixer::Delay Feed::Rate Limit Mode" : [ 0.0 ],
					"_mixer::Delay Feed::Rate Speed" : [ 11 ],
					"_mixer::aux_mixer::Mixer / Send UI" : [ 0.0, 0.0, 0.0, 0.0, 0.0, 0.0, 0.0, 0.0, 0.0, 0.0, 0.0, 0.0, 0.0, 0.0, 0.0, 0.0, 0.0, 0.0, 0.0, 0.0, 0.0, 0.0, 0.0 ],
					"_mixer::Delay Pitch::Channel" : [ 0 ],
					"_mixer::Delay Pitch::Range Slider" : [ 0.0, 2.0 ],
					"_mixer::Delay Pitch::Rate Limit Mode" : [ 0.0 ],
					"_mixer::Delay Pitch::Rate Speed" : [ 11 ],
					"_mixer::Delay AM::Channel" : [ 0 ],
					"_mixer::Delay AM::Range Slider" : [ 0.0, 2.0 ],
					"_mixer::Delay AM::Rate Limit Mode" : [ 0.0 ],
					"_mixer::Delay AM::Rate Speed" : [ 11 ],
					"_mixer::Stutter AM::Channel" : [ 0 ],
					"_mixer::Stutter AM::Range Slider" : [ 0.0, 2.0 ],
					"_mixer::Stutter AM::Rate Limit Mode" : [ 0.0 ],
					"_mixer::Stutter AM::Rate Speed" : [ 11 ],
					"_mixer::Submix AM::Channel" : [ 0 ],
					"_mixer::Submix AM::Range Slider" : [ 0.0, 2.0 ],
					"_mixer::Submix AM::Rate Limit Mode" : [ 0.0 ],
					"_mixer::Submix AM::Rate Speed" : [ 11 ],
					"_mixer::overdrive_mixer::Mixer / Send UI" : [ 0.0, 0.0, 0.0, 0.0, 0.0, 0.0, 0.0, 0.0, 0.0, 0.0, 0.0, 0.0, 0.0, 0.0, 0.0, 0.0, 0.0, 0.0, 0.0, 0.0, 0.0, 0.0, 0.0 ],
					"_mixer::Overdrv AM::Channel" : [ 0 ],
					"_mixer::Overdrv AM::Range Slider" : [ 0.0, 2.0 ],
					"_mixer::Overdrv AM::Rate Limit Mode" : [ 0.0 ],
					"_mixer::Overdrv AM::Rate Speed" : [ 11 ],
					"_mixer::reverb_mixer::Mixer / Send UI" : [ 0.0, 0.0, 0.0, 0.0, 0.0, 0.0, 0.0, 0.0, 0.0, 0.0, 0.0, 0.0, 0.0, 0.0, 0.0, 0.0, 0.0, 0.0, 0.0, 0.0, 0.0, 0.0, 0.0 ],
					"_mixer::Verb AM::Channel" : [ 0 ],
					"_mixer::Verb AM::Range Slider" : [ 0.0, 2.0 ],
					"_mixer::Verb AM::Rate Limit Mode" : [ 0.0 ],
					"_mixer::Verb AM::Rate Speed" : [ 11 ],
					"_mixer::fm_mixer::Mixer / Send UI" : [ 0.0, 0.0, 0.0, 0.0, 0.0, 0.0, 0.0, 0.0, 0.0, 0.0, 0.0, 0.0, 0.0, 0.0, 0.0, 0.0, 0.0, 0.0, 0.0, 0.0, 0.0, 0.0, 0.0 ],
					"_mixer::FM strength::Channel" : [ 0 ],
					"_mixer::FM strength::Range Slider" : [ 0.0, 2.0 ],
					"_mixer::FM strength::Rate Limit Mode" : [ 0.0 ],
					"_mixer::FM strength::Rate Speed" : [ 11 ],
					"_mixer::saffire6_mixer::Mixer / Send UI" : [ 0.0, 0.0, 0.0, 0.0, 0.0, 0.0, 0.0, 0.0, 0.0, 0.0, 0.0, 0.0, 0.0, 0.0, 0.0, 0.0, 0.0, 0.0, 0.0, 0.0, 0.0, 0.0, 0.0 ],
					"_mixer::Filter AM::Channel" : [ 0 ],
					"_mixer::Filter AM::Range Slider" : [ 0.0, 2.0 ],
					"_mixer::Filter AM::Rate Limit Mode" : [ 0.0 ],
					"_mixer::Filter AM::Rate Speed" : [ 11 ],
					"_mixer::Stutter Buff::Channel" : [ 0 ],
					"_mixer::Stutter Buff::Range Slider" : [ 0.0, 2.0 ],
					"_mixer::Stutter Buff::Rate Limit Mode" : [ 0.0 ],
					"_mixer::Stutter Buff::Rate Speed" : [ 11 ],
					"_mixer::Overdrv Amt::Channel" : [ 0 ],
					"_mixer::Overdrv Amt::Range Slider" : [ 0.0, 2.0 ],
					"_mixer::Overdrv Amt::Rate Limit Mode" : [ 0.0 ],
					"_mixer::Overdrv Amt::Rate Speed" : [ 11 ],
					"_mixer::Verb Room::Channel" : [ 0 ],
					"_mixer::Verb Room::Range Slider" : [ 0.0, 2.0 ],
					"_mixer::Verb Room::Rate Limit Mode" : [ 0.0 ],
					"_mixer::Verb Room::Rate Speed" : [ 11 ],
					"_mixer::Verb Time::Channel" : [ 0 ],
					"_mixer::Verb Time::Range Slider" : [ 0.0, 2.0 ],
					"_mixer::Verb Time::Rate Limit Mode" : [ 0.0 ],
					"_mixer::Verb Time::Rate Speed" : [ 11 ],
					"_mixer::Verb Damp::Channel" : [ 0 ],
					"_mixer::Verb Damp::Range Slider" : [ 0.0, 2.0 ],
					"_mixer::Verb Damp::Rate Limit Mode" : [ 0.0 ],
					"_mixer::Verb Damp::Rate Speed" : [ 11 ],
					"_mixer::Verb Tail::Channel" : [ 0 ],
					"_mixer::Verb Tail::Range Slider" : [ 0.0, 2.0 ],
					"_mixer::Verb Tail::Rate Limit Mode" : [ 0.0 ],
					"_mixer::Verb Tail::Rate Speed" : [ 11 ],
					"_mixer::FM pitch::Channel" : [ 0 ],
					"_mixer::FM pitch::Range Slider" : [ 0.0, 2.0 ],
					"_mixer::FM pitch::Rate Limit Mode" : [ 0.0 ],
					"_mixer::FM pitch::Rate Speed" : [ 11 ],
					"_mixer::Filter Freq::Channel" : [ 0 ],
					"_mixer::Filter Freq::Range Slider" : [ 0.0, 2.0 ],
					"_mixer::Filter Freq::Rate Limit Mode" : [ 0.0 ],
					"_mixer::Filter Freq::Rate Speed" : [ 11 ],
					"_mixer::Filter Q::Channel" : [ 0 ],
					"_mixer::Filter Q::Range Slider" : [ 0.0, 2.0 ],
					"_mixer::Filter Q::Rate Limit Mode" : [ 0.0 ],
					"_mixer::Filter Q::Rate Speed" : [ 11 ],
					"_delta_midi::MIDInote::Channel" : [ 0 ],
					"_delta_midi::MIDInote::Range Slider" : [ 0.0, 2.0 ],
					"_delta_midi::MIDInote::Rate Limit Mode" : [ 0.0 ],
					"_delta_midi::MIDInote::Rate Speed" : [ 11 ],
					"_delta_midi::Sampler::Channel" : [ 0 ],
					"_delta_midi::Sampler::Range Slider" : [ 0.0, 2.0 ],
					"_delta_midi::Sampler::Rate Limit Mode" : [ 0.0 ],
					"_delta_midi::Sampler::Rate Speed" : [ 11 ]
				}

			}

		}

	}

}
