{
	"pattrstorage" : 	{
		"name" : "mixer_patterns",
		"slots" : 		{
			"1" : 			{
				"id" : 1,
				"data" : 				{
					"fader32::send4" : [ -71.0 ],
					"fader32::send3" : [ -71.0 ],
					"fader32::send2" : [ -71.0 ],
					"fader32::send1" : [ -71.0 ],
					"fader32::level" : [ 0.0 ],
					"fader32::pan" : [ 0.0 ],
					"fader32::solo" : [ 0.0 ],
					"fader32::mute" : [ 1.0 ],
					"fader31::send4" : [ -71.0 ],
					"fader31::send3" : [ -71.0 ],
					"fader31::send2" : [ -71.0 ],
					"fader31::send1" : [ -71.0 ],
					"fader31::level" : [ 0.0 ],
					"fader31::pan" : [ 0.0 ],
					"fader31::solo" : [ 0.0 ],
					"fader31::mute" : [ 1.0 ],
					"fader30::send4" : [ -71.0 ],
					"fader30::send3" : [ -71.0 ],
					"fader30::send2" : [ -71.0 ],
					"fader30::send1" : [ -71.0 ],
					"fader30::level" : [ 0.0 ],
					"fader30::pan" : [ 0.0 ],
					"fader30::solo" : [ 0.0 ],
					"fader30::mute" : [ 1.0 ],
					"fader29::send4" : [ -71.0 ],
					"fader29::send3" : [ -71.0 ],
					"fader29::send2" : [ -71.0 ],
					"fader29::send1" : [ -71.0 ],
					"fader29::level" : [ 0.0 ],
					"fader29::pan" : [ 0.0 ],
					"fader29::solo" : [ 0.0 ],
					"fader29::mute" : [ 1.0 ],
					"fader28::send4" : [ -71.0 ],
					"fader28::send3" : [ -71.0 ],
					"fader28::send2" : [ -71.0 ],
					"fader28::send1" : [ -71.0 ],
					"fader28::level" : [ 0.0 ],
					"fader28::pan" : [ 0.0 ],
					"fader28::solo" : [ 0.0 ],
					"fader28::mute" : [ 1.0 ],
					"fader27::send4" : [ -71.0 ],
					"fader27::send3" : [ -71.0 ],
					"fader27::send2" : [ -71.0 ],
					"fader27::send1" : [ -71.0 ],
					"fader27::level" : [ 0.0 ],
					"fader27::pan" : [ 0.0 ],
					"fader27::solo" : [ 0.0 ],
					"fader27::mute" : [ 1.0 ],
					"fader26::send4" : [ -71.0 ],
					"fader26::send3" : [ -71.0 ],
					"fader26::send2" : [ -71.0 ],
					"fader26::send1" : [ -71.0 ],
					"fader26::level" : [ 0.0 ],
					"fader26::pan" : [ 0.0 ],
					"fader26::solo" : [ 0.0 ],
					"fader26::mute" : [ 1.0 ],
					"fader25::send4" : [ -71.0 ],
					"fader25::send3" : [ -71.0 ],
					"fader25::send2" : [ -71.0 ],
					"fader25::send1" : [ -71.0 ],
					"fader25::level" : [ 0.0 ],
					"fader25::pan" : [ 0.0 ],
					"fader25::solo" : [ 0.0 ],
					"fader25::mute" : [ 1.0 ],
					"fader24::send4" : [ -71.0 ],
					"fader24::send3" : [ -71.0 ],
					"fader24::send2" : [ -71.0 ],
					"fader24::send1" : [ -71.0 ],
					"fader24::level" : [ 0.0 ],
					"fader24::pan" : [ 0.0 ],
					"fader24::solo" : [ 0.0 ],
					"fader24::mute" : [ 1.0 ],
					"fader23::send4" : [ -71.0 ],
					"fader23::send3" : [ -71.0 ],
					"fader23::send2" : [ -71.0 ],
					"fader23::send1" : [ -71.0 ],
					"fader23::level" : [ 0.0 ],
					"fader23::pan" : [ 0.0 ],
					"fader23::solo" : [ 0.0 ],
					"fader23::mute" : [ 1.0 ],
					"fader22::send4" : [ -71.0 ],
					"fader22::send3" : [ -71.0 ],
					"fader22::send2" : [ -71.0 ],
					"fader22::send1" : [ -71.0 ],
					"fader22::level" : [ 0.0 ],
					"fader22::pan" : [ 0.0 ],
					"fader22::solo" : [ 0.0 ],
					"fader22::mute" : [ 1.0 ],
					"fader21::send4" : [ -71.0 ],
					"fader21::send3" : [ -71.0 ],
					"fader21::send2" : [ -71.0 ],
					"fader21::send1" : [ -71.0 ],
					"fader21::level" : [ 0.0 ],
					"fader21::pan" : [ 0.0 ],
					"fader21::solo" : [ 0.0 ],
					"fader21::mute" : [ 1.0 ],
					"fader20::send4" : [ -71.0 ],
					"fader20::send3" : [ -71.0 ],
					"fader20::send2" : [ -71.0 ],
					"fader20::send1" : [ -71.0 ],
					"fader20::level" : [ 0.0 ],
					"fader20::pan" : [ 0.0 ],
					"fader20::solo" : [ 0.0 ],
					"fader20::mute" : [ 1.0 ],
					"fader19::send4" : [ -71.0 ],
					"fader19::send3" : [ -71.0 ],
					"fader19::send2" : [ -71.0 ],
					"fader19::send1" : [ -71.0 ],
					"fader19::level" : [ 0.0 ],
					"fader19::pan" : [ 0.0 ],
					"fader19::solo" : [ 0.0 ],
					"fader19::mute" : [ 1.0 ],
					"fader18::send4" : [ -71.0 ],
					"fader18::send3" : [ -71.0 ],
					"fader18::send2" : [ -71.0 ],
					"fader18::send1" : [ -71.0 ],
					"fader18::level" : [ 0.0 ],
					"fader18::pan" : [ 0.0 ],
					"fader18::solo" : [ 0.0 ],
					"fader18::mute" : [ 1.0 ],
					"fader17::send4" : [ -71.0 ],
					"fader17::send3" : [ -71.0 ],
					"fader17::send2" : [ -71.0 ],
					"fader17::send1" : [ -71.0 ],
					"fader17::level" : [ 0.0 ],
					"fader17::pan" : [ 0.0 ],
					"fader17::solo" : [ 0.0 ],
					"fader17::mute" : [ 1.0 ],
					"fader16::send4" : [ -71.0 ],
					"fader16::send3" : [ -71.0 ],
					"fader16::send2" : [ -71.0 ],
					"fader16::send1" : [ -71.0 ],
					"fader16::level" : [ 0.0 ],
					"fader16::pan" : [ 0.0 ],
					"fader16::solo" : [ 0.0 ],
					"fader16::mute" : [ 1.0 ],
					"fader15::send4" : [ -71.0 ],
					"fader15::send3" : [ -71.0 ],
					"fader15::send2" : [ -71.0 ],
					"fader15::send1" : [ -71.0 ],
					"fader15::level" : [ 0.0 ],
					"fader15::pan" : [ 0.0 ],
					"fader15::solo" : [ 0.0 ],
					"fader15::mute" : [ 1.0 ],
					"fader14::send4" : [ -71.0 ],
					"fader14::send3" : [ -71.0 ],
					"fader14::send2" : [ -71.0 ],
					"fader14::send1" : [ -71.0 ],
					"fader14::level" : [ 0.0 ],
					"fader14::pan" : [ 0.0 ],
					"fader14::solo" : [ 0.0 ],
					"fader14::mute" : [ 1.0 ],
					"fader13::send4" : [ -71.0 ],
					"fader13::send3" : [ -71.0 ],
					"fader13::send2" : [ -71.0 ],
					"fader13::send1" : [ -71.0 ],
					"fader13::level" : [ 0.0 ],
					"fader13::pan" : [ 0.0 ],
					"fader13::solo" : [ 0.0 ],
					"fader13::mute" : [ 1.0 ],
					"fader12::send4" : [ -71.0 ],
					"fader12::send3" : [ -71.0 ],
					"fader12::send2" : [ -71.0 ],
					"fader12::send1" : [ -71.0 ],
					"fader12::level" : [ 0.0 ],
					"fader12::pan" : [ 0.0 ],
					"fader12::solo" : [ 0.0 ],
					"fader12::mute" : [ 1.0 ],
					"fader11::send4" : [ -71.0 ],
					"fader11::send3" : [ -71.0 ],
					"fader11::send2" : [ -71.0 ],
					"fader11::send1" : [ -71.0 ],
					"fader11::level" : [ 0.0 ],
					"fader11::pan" : [ 0.0 ],
					"fader11::solo" : [ 0.0 ],
					"fader11::mute" : [ 1.0 ],
					"fader10::send4" : [ -71.0 ],
					"fader10::send3" : [ -71.0 ],
					"fader10::send2" : [ -71.0 ],
					"fader10::send1" : [ -71.0 ],
					"fader10::level" : [ 0.0 ],
					"fader10::pan" : [ 0.0 ],
					"fader10::solo" : [ 0.0 ],
					"fader10::mute" : [ 1.0 ],
					"fader9::send4" : [ -71.0 ],
					"fader9::send3" : [ -71.0 ],
					"fader9::send2" : [ -71.0 ],
					"fader9::send1" : [ -71.0 ],
					"fader9::level" : [ 0.0 ],
					"fader9::pan" : [ 0.0 ],
					"fader9::solo" : [ 0.0 ],
					"fader9::mute" : [ 1.0 ],
					"fader8::send4" : [ -71.0 ],
					"fader8::send3" : [ -71.0 ],
					"fader8::send2" : [ -71.0 ],
					"fader8::send1" : [ -71.0 ],
					"fader8::level" : [ 0.0 ],
					"fader8::pan" : [ 0.0 ],
					"fader8::solo" : [ 0.0 ],
					"fader8::mute" : [ 1.0 ],
					"fader7::send4" : [ -71.0 ],
					"fader7::send3" : [ -71.0 ],
					"fader7::send2" : [ -71.0 ],
					"fader7::send1" : [ -71.0 ],
					"fader7::level" : [ 0.0 ],
					"fader7::pan" : [ 0.0 ],
					"fader7::solo" : [ 0.0 ],
					"fader7::mute" : [ 1.0 ],
					"fader6::send4" : [ -71.0 ],
					"fader6::send3" : [ -71.0 ],
					"fader6::send2" : [ -71.0 ],
					"fader6::send1" : [ -71.0 ],
					"fader6::level" : [ 0.0 ],
					"fader6::pan" : [ 0.0 ],
					"fader6::solo" : [ 0.0 ],
					"fader6::mute" : [ 1.0 ],
					"fader5::send4" : [ -71.0 ],
					"fader5::send3" : [ -71.0 ],
					"fader5::send2" : [ -71.0 ],
					"fader5::send1" : [ -71.0 ],
					"fader5::level" : [ 0.0 ],
					"fader5::pan" : [ 0.0 ],
					"fader5::solo" : [ 0.0 ],
					"fader5::mute" : [ 1.0 ],
					"fader4::send4" : [ -71.0 ],
					"fader4::send3" : [ -71.0 ],
					"fader4::send2" : [ -71.0 ],
					"fader4::send1" : [ -71.0 ],
					"fader4::level" : [ 0.0 ],
					"fader4::pan" : [ 0.0 ],
					"fader4::solo" : [ 0.0 ],
					"fader4::mute" : [ 1.0 ],
					"fader3::send4" : [ -71.0 ],
					"fader3::send3" : [ -71.0 ],
					"fader3::send2" : [ -71.0 ],
					"fader3::send1" : [ -71.0 ],
					"fader3::level" : [ 0.0 ],
					"fader3::pan" : [ 0.0 ],
					"fader3::solo" : [ 0.0 ],
					"fader3::mute" : [ 1.0 ],
					"fader2::send4" : [ -71.0 ],
					"fader2::send3" : [ -71.0 ],
					"fader2::send2" : [ -71.0 ],
					"fader2::send1" : [ -71.0 ],
					"fader2::level" : [ 0.0 ],
					"fader2::pan" : [ -0.031496 ],
					"fader2::solo" : [ 0.0 ],
					"fader2::mute" : [ 1.0 ],
					"fader1::send4" : [ -71.0 ],
					"fader1::send3" : [ -71.0 ],
					"fader1::send2" : [ -71.0 ],
					"fader1::send1" : [ -71.0 ],
					"fader1::level" : [ 0.0 ],
					"fader1::pan" : [ 0.0 ],
					"fader1::solo" : [ 0.0 ],
					"fader1::mute" : [ 1.0 ],
					"master_fader::mute" : [ 1.0 ],
					"master_fader::level" : [ 0.0 ],
					"master_fader::pan" : [ 0.0 ]
				}

			}
,
			"2" : 			{
				"id" : 2,
				"data" : 				{
					"fader32::send4" : [ -71.0 ],
					"fader32::send3" : [ -71.0 ],
					"fader32::send2" : [ -71.0 ],
					"fader32::send1" : [ -71.0 ],
					"fader32::level" : [ 0.0 ],
					"fader32::pan" : [ 0.0 ],
					"fader32::solo" : [ 0.0 ],
					"fader32::mute" : [ 1.0 ],
					"fader31::send4" : [ -71.0 ],
					"fader31::send3" : [ -71.0 ],
					"fader31::send2" : [ -71.0 ],
					"fader31::send1" : [ -71.0 ],
					"fader31::level" : [ 0.0 ],
					"fader31::pan" : [ 0.0 ],
					"fader31::solo" : [ 0.0 ],
					"fader31::mute" : [ 1.0 ],
					"fader30::send4" : [ -71.0 ],
					"fader30::send3" : [ -71.0 ],
					"fader30::send2" : [ -71.0 ],
					"fader30::send1" : [ -71.0 ],
					"fader30::level" : [ 0.0 ],
					"fader30::pan" : [ 0.0 ],
					"fader30::solo" : [ 0.0 ],
					"fader30::mute" : [ 1.0 ],
					"fader29::send4" : [ -71.0 ],
					"fader29::send3" : [ -71.0 ],
					"fader29::send2" : [ -71.0 ],
					"fader29::send1" : [ -71.0 ],
					"fader29::level" : [ 0.0 ],
					"fader29::pan" : [ 0.0 ],
					"fader29::solo" : [ 0.0 ],
					"fader29::mute" : [ 1.0 ],
					"fader28::send4" : [ -71.0 ],
					"fader28::send3" : [ -71.0 ],
					"fader28::send2" : [ -71.0 ],
					"fader28::send1" : [ -71.0 ],
					"fader28::level" : [ 0.0 ],
					"fader28::pan" : [ 0.84252 ],
					"fader28::solo" : [ 0.0 ],
					"fader28::mute" : [ 1.0 ],
					"fader27::send4" : [ -71.0 ],
					"fader27::send3" : [ -71.0 ],
					"fader27::send2" : [ -71.0 ],
					"fader27::send1" : [ -71.0 ],
					"fader27::level" : [ 0.0 ],
					"fader27::pan" : [ 0.0 ],
					"fader27::solo" : [ 0.0 ],
					"fader27::mute" : [ 1.0 ],
					"fader26::send4" : [ -71.0 ],
					"fader26::send3" : [ -71.0 ],
					"fader26::send2" : [ -71.0 ],
					"fader26::send1" : [ -71.0 ],
					"fader26::level" : [ 0.0 ],
					"fader26::pan" : [ 0.0 ],
					"fader26::solo" : [ 0.0 ],
					"fader26::mute" : [ 1.0 ],
					"fader25::send4" : [ -71.0 ],
					"fader25::send3" : [ -71.0 ],
					"fader25::send2" : [ -71.0 ],
					"fader25::send1" : [ -71.0 ],
					"fader25::level" : [ 0.0 ],
					"fader25::pan" : [ 0.0 ],
					"fader25::solo" : [ 0.0 ],
					"fader25::mute" : [ 1.0 ],
					"fader24::send4" : [ -71.0 ],
					"fader24::send3" : [ -71.0 ],
					"fader24::send2" : [ -71.0 ],
					"fader24::send1" : [ 0.0 ],
					"fader24::level" : [ 0.0 ],
					"fader24::pan" : [ 0.0 ],
					"fader24::solo" : [ 0.0 ],
					"fader24::mute" : [ 1.0 ],
					"fader23::send4" : [ -71.0 ],
					"fader23::send3" : [ -71.0 ],
					"fader23::send2" : [ -71.0 ],
					"fader23::send1" : [ -71.0 ],
					"fader23::level" : [ 0.0 ],
					"fader23::pan" : [ 0.0 ],
					"fader23::solo" : [ 0.0 ],
					"fader23::mute" : [ 1.0 ],
					"fader22::send4" : [ -71.0 ],
					"fader22::send3" : [ -71.0 ],
					"fader22::send2" : [ -71.0 ],
					"fader22::send1" : [ -71.0 ],
					"fader22::level" : [ 0.0 ],
					"fader22::pan" : [ 0.0 ],
					"fader22::solo" : [ 0.0 ],
					"fader22::mute" : [ 1.0 ],
					"fader21::send4" : [ -71.0 ],
					"fader21::send3" : [ -71.0 ],
					"fader21::send2" : [ -71.0 ],
					"fader21::send1" : [ -71.0 ],
					"fader21::level" : [ 0.0 ],
					"fader21::pan" : [ 0.0 ],
					"fader21::solo" : [ 0.0 ],
					"fader21::mute" : [ 1.0 ],
					"fader20::send4" : [ -71.0 ],
					"fader20::send3" : [ -71.0 ],
					"fader20::send2" : [ -71.0 ],
					"fader20::send1" : [ -71.0 ],
					"fader20::level" : [ 0.0 ],
					"fader20::pan" : [ 0.0 ],
					"fader20::solo" : [ 0.0 ],
					"fader20::mute" : [ 1.0 ],
					"fader19::send4" : [ -71.0 ],
					"fader19::send3" : [ -71.0 ],
					"fader19::send2" : [ -71.0 ],
					"fader19::send1" : [ -71.0 ],
					"fader19::level" : [ 0.0 ],
					"fader19::pan" : [ 1.0 ],
					"fader19::solo" : [ 1.0 ],
					"fader19::mute" : [ 1.0 ],
					"fader18::send4" : [ -71.0 ],
					"fader18::send3" : [ -71.0 ],
					"fader18::send2" : [ -71.0 ],
					"fader18::send1" : [ -71.0 ],
					"fader18::level" : [ 0.0 ],
					"fader18::pan" : [ 1.0 ],
					"fader18::solo" : [ 1.0 ],
					"fader18::mute" : [ 1.0 ],
					"fader17::send4" : [ -71.0 ],
					"fader17::send3" : [ -71.0 ],
					"fader17::send2" : [ -71.0 ],
					"fader17::send1" : [ -71.0 ],
					"fader17::level" : [ 0.0 ],
					"fader17::pan" : [ -1.0 ],
					"fader17::solo" : [ 1.0 ],
					"fader17::mute" : [ 1.0 ],
					"fader16::send4" : [ -71.0 ],
					"fader16::send3" : [ -71.0 ],
					"fader16::send2" : [ -71.0 ],
					"fader16::send1" : [ -71.0 ],
					"fader16::level" : [ 0.0 ],
					"fader16::pan" : [ -1.0 ],
					"fader16::solo" : [ 0.0 ],
					"fader16::mute" : [ 1.0 ],
					"fader15::send4" : [ -71.0 ],
					"fader15::send3" : [ -71.0 ],
					"fader15::send2" : [ -71.0 ],
					"fader15::send1" : [ -71.0 ],
					"fader15::level" : [ 0.0 ],
					"fader15::pan" : [ 0.0 ],
					"fader15::solo" : [ 0.0 ],
					"fader15::mute" : [ 1.0 ],
					"fader14::send4" : [ -71.0 ],
					"fader14::send3" : [ -71.0 ],
					"fader14::send2" : [ -71.0 ],
					"fader14::send1" : [ -71.0 ],
					"fader14::level" : [ 0.0 ],
					"fader14::pan" : [ 0.0 ],
					"fader14::solo" : [ 0.0 ],
					"fader14::mute" : [ 1.0 ],
					"fader13::send4" : [ -71.0 ],
					"fader13::send3" : [ -71.0 ],
					"fader13::send2" : [ -71.0 ],
					"fader13::send1" : [ -71.0 ],
					"fader13::level" : [ 0.0 ],
					"fader13::pan" : [ -0.488189 ],
					"fader13::solo" : [ 0.0 ],
					"fader13::mute" : [ 1.0 ],
					"fader12::send4" : [ -71.0 ],
					"fader12::send3" : [ -71.0 ],
					"fader12::send2" : [ -71.0 ],
					"fader12::send1" : [ -71.0 ],
					"fader12::level" : [ 0.0 ],
					"fader12::pan" : [ -0.740157 ],
					"fader12::solo" : [ 0.0 ],
					"fader12::mute" : [ 1.0 ],
					"fader11::send4" : [ -71.0 ],
					"fader11::send3" : [ -71.0 ],
					"fader11::send2" : [ -71.0 ],
					"fader11::send1" : [ -71.0 ],
					"fader11::level" : [ 0.0 ],
					"fader11::pan" : [ 0.0 ],
					"fader11::solo" : [ 0.0 ],
					"fader11::mute" : [ 1.0 ],
					"fader10::send4" : [ -71.0 ],
					"fader10::send3" : [ -71.0 ],
					"fader10::send2" : [ -71.0 ],
					"fader10::send1" : [ -71.0 ],
					"fader10::level" : [ 0.0 ],
					"fader10::pan" : [ 0.0 ],
					"fader10::solo" : [ 0.0 ],
					"fader10::mute" : [ 1.0 ],
					"fader9::send4" : [ -71.0 ],
					"fader9::send3" : [ -71.0 ],
					"fader9::send2" : [ -55.90551 ],
					"fader9::send1" : [ -16.212599 ],
					"fader9::level" : [ 0.0 ],
					"fader9::pan" : [ 0.425197 ],
					"fader9::solo" : [ 0.0 ],
					"fader9::mute" : [ 1.0 ],
					"fader8::send4" : [ -71.0 ],
					"fader8::send3" : [ -71.0 ],
					"fader8::send2" : [ -35.220474 ],
					"fader8::send1" : [ -16.771654 ],
					"fader8::level" : [ 0.0 ],
					"fader8::pan" : [ -0.551181 ],
					"fader8::solo" : [ 0.0 ],
					"fader8::mute" : [ 1.0 ],
					"fader7::send4" : [ -71.0 ],
					"fader7::send3" : [ -71.0 ],
					"fader7::send2" : [ -71.0 ],
					"fader7::send1" : [ -71.0 ],
					"fader7::level" : [ 0.0 ],
					"fader7::pan" : [ 0.0 ],
					"fader7::solo" : [ 0.0 ],
					"fader7::mute" : [ 0.0 ],
					"fader6::send4" : [ -71.0 ],
					"fader6::send3" : [ -26.834646 ],
					"fader6::send2" : [ -71.0 ],
					"fader6::send1" : [ -71.0 ],
					"fader6::level" : [ 0.0 ],
					"fader6::pan" : [ 0.0 ],
					"fader6::solo" : [ 0.0 ],
					"fader6::mute" : [ 0.0 ],
					"fader5::send4" : [ -25.716536 ],
					"fader5::send3" : [ -71.0 ],
					"fader5::send2" : [ -71.0 ],
					"fader5::send1" : [ -71.0 ],
					"fader5::level" : [ 0.0 ],
					"fader5::pan" : [ 0.0 ],
					"fader5::solo" : [ 0.0 ],
					"fader5::mute" : [ 0.0 ],
					"fader4::send4" : [ -71.0 ],
					"fader4::send3" : [ -71.0 ],
					"fader4::send2" : [ -71.0 ],
					"fader4::send1" : [ -71.0 ],
					"fader4::level" : [ 0.0 ],
					"fader4::pan" : [ 0.0 ],
					"fader4::solo" : [ 0.0 ],
					"fader4::mute" : [ 0.0 ],
					"fader3::send4" : [ -71.0 ],
					"fader3::send3" : [ -9.503937 ],
					"fader3::send2" : [ -71.0 ],
					"fader3::send1" : [ -71.0 ],
					"fader3::level" : [ 0.0 ],
					"fader3::pan" : [ 0.0 ],
					"fader3::solo" : [ 0.0 ],
					"fader3::mute" : [ 0.0 ],
					"fader2::send4" : [ -71.0 ],
					"fader2::send3" : [ -71.0 ],
					"fader2::send2" : [ -71.0 ],
					"fader2::send1" : [ -71.0 ],
					"fader2::level" : [ 0.0 ],
					"fader2::pan" : [ 1.0 ],
					"fader2::solo" : [ 0.0 ],
					"fader2::mute" : [ 1.0 ],
					"fader1::send4" : [ -55.90551 ],
					"fader1::send3" : [ -55.90551 ],
					"fader1::send2" : [ -34.661419 ],
					"fader1::send1" : [ 0.0 ],
					"fader1::level" : [ 0.0 ],
					"fader1::pan" : [ 1.0 ],
					"fader1::solo" : [ 0.0 ],
					"fader1::mute" : [ 1.0 ],
					"master_fader::mute" : [ 1.0 ],
					"master_fader::level" : [ 0.0 ],
					"master_fader::pan" : [ 0.0 ]
				}

			}

		}

	}

}
