0, 49.214908599854;
1, 47.235889434814;
2, 45.51286315918;
3, 41.973037719727;
4, 37.054420471191;
5, 43.907371520996;
6, 44.696376800537;
7, 44.225925445557;
8, 43.605129241943;
9, 43.280178070068;
10, 49.200305938721;
11, 44.47093963623;
12, 42.088439941406;
13, 41.610530853271;
14, 40.339164733887;
15, 39.740493774414;
16, 40.161869049072;
17, 39.341938018799;
18, 39.557849884033;
19, 38.85754776001;
20, 38.612144470215;
21, 39.657012939453;
22, 40.515495300293;
23, 38.883201599121;
24, 38.247413635254;
25, 42.891609191895;
26, 37.985130310059;
27, 37.964069366455;
28, 38.80504989624;
29, 36.800182342529;
30, 33.592643737793;
31, 37.152633666992;
32, 40.521396636963;
33, 35.537014007568;
34, 35.775470733643;
35, 35.666091918945;
36, 36.462882995605;
37, 35.48067855835;
38, 36.380313873291;
39, 36.776168823242;
40, 34.863372802734;
41, 34.630477905273;
42, 34.262355804443;
43, 34.106105804443;
44, 34.143451690674;
45, 33.997562408447;
46, 36.982612609863;
47, 37.922611236572;
48, 33.724189758301;
49, 32.896926879883;
50, 32.752712249756;
51, 32.909553527832;
52, 33.168621063232;
53, 32.908180236816;
54, 34.841548919678;
55, 33.702487945557;
56, 33.826412200928;
57, 34.861618041992;
58, 36.900379180908;
59, 35.009006500244;
60, 34.859546661377;
61, 33.586212158203;
62, 34.273792266846;
63, 34.973857879639;
64, 37.496212005615;
65, 48.815795898438;
66, 36.76358795166;
67, 36.776268005371;
68, 59.776260375977;
69, 68.53441619873;
70, 55.772453308105;
71, 97.291435241699;
72, 142.41232299805;
73, 112.3918762207;
74, 115.62331390381;
75, 75.232666015625;
76, 49.164478302002;
77, 48.000667572021;
78, 46.635593414307;
79, 49.526386260986;
80, 61.082496643066;
81, 70.030052185059;
82, 50.863651275635;
83, 70.039756774902;
84, 63.590274810791;
85, 79.539627075195;
86, 106.61036682129;
87, 141.77336120605;
88, 217.5560760498;
89, 129.78225708008;
90, 91.201454162598;
91, 64.409225463867;
92, 70.92359161377;
93, 69.167320251465;
94, 76.176826477051;
95, 105.10592651367;
96, 131.4312286377;
97, 171.95108032227;
98, 142.46980285645;
99, 109.06317901611;
100, 130.17219543457;
101, 145.82348632812;
102, 152.61787414551;
103, 181.61430358887;
104, 208.01486206055;
105, 175.97732543945;
106, 208.08090209961;
107, 181.14837646484;
108, 180.5655670166;
109, 169.07640075684;
110, 169.68237304688;
111, 203.23411560059;
112, 214.33500671387;
113, 256.93502807617;
114, 313.72247314453;
115, 362.27737426758;
116, 402.45208740234;
117, 385.36758422852;
118, 314.20031738281;
119, 288.18444824219;
120, 304.39083862305;
121, 253.62072753906;
122, 222.71746826172;
123, 247.05421447754;
124, 207.80572509766;
125, 238.82681274414;
126, 245.31922912598;
127, 180.06604003906;
128, 129.82319641113;
129, 165.25953674316;
130, 215.15093994141;
131, 231.39462280273;
132, 170.68203735352;
133, 155.91386413574;
134, 107.47858428955;
135, 151.82362365723;
136, 161.48091125488;
137, 132.74276733398;
138, 229.50297546387;
139, 254.03977966309;
140, 160.90272521973;
141, 116.32791900635;
142, 83.655250549316;
143, 43.13765335083;
144, 22.999027252197;
145, 23.523777008057;
146, 22.322299957275;
147, 22.180778503418;
148, 23.385164260864;
149, 22.433588027954;
150, 31.685943603516;
151, 43.458057403564;
152, 31.963863372803;
153, 29.245794296265;
154, 28.939596176147;
155, 27.310096740723;
156, 32.219417572021;
157, 33.614151000977;
158, 29.993299484253;
159, 31.11837387085;
160, 36.719371795654;
161, 33.432346343994;
162, 29.333209991455;
163, 32.237579345703;
164, 59.242813110352;
165, 37.720966339111;
166, 47.592334747314;
167, 72.950042724609;
168, 105.36727142334;
169, 92.586685180664;
170, 116.50556182861;
171, 108.72199249268;
172, 158.82646179199;
173, 220.55923461914;
174, 274.76455688477;
175, 364.51516723633;
176, 410.73852539062;
177, 411.68264770508;
178, 346.48397827148;
179, 276.58865356445;
180, 268.88568115234;
181, 223.373046875;
182, 127.20217132568;
183, 70.708862304688;
184, 68.135833740234;
185, 100.83689117432;
186, 160.29733276367;
187, 242.85220336914;
188, 297.60760498047;
189, 345.0993347168;
190, 396.91076660156;
191, 423.87359619141;
192, 361.17095947266;
193, 362.88220214844;
194, 477.60205078125;
195, 445.69378662109;
196, 317.60681152344;
197, 173.50546264648;
198, 228.36042785645;
199, 313.16201782227;
200, 419.72177124023;
201, 515.80706787109;
202, 573.34588623047;
203, 631.08294677734;
204, 680.22766113281;
205, 752.16125488281;
206, 766.88153076172;
207, 779.27252197266;
208, 840.07586669922;
209, 747.63970947266;
210, 648.90454101562;
211, 645.65765380859;
212, 602.53820800781;
213, 604.25903320312;
214, 703.97637939453;
215, 754.42352294922;
216, 837.80993652344;
217, 772.04699707031;
218, 770.31976318359;
219, 671.24237060547;
220, 635.64642333984;
221, 595.83770751953;
222, 612.52001953125;
223, 586.10754394531;
224, 638.69097900391;
225, 584.09100341797;
226, 516.60272216797;
227, 455.05264282227;
228, 381.41735839844;
229, 291.9133605957;
230, 231.17353820801;
231, 291.64614868164;
232, 254.9669342041;
233, 304.68975830078;
234, 302.68280029297;
235, 376.1257019043;
236, 444.10189819336;
237, 517.79815673828;
238, 450.16387939453;
239, 469.18710327148;
240, 419.23797607422;
241, 368.99014282227;
242, 280.40182495117;
243, 119.22085571289;
244, 63.439712524414;
245, 63.927631378174;
246, 126.39844512939;
247, 281.5383605957;
248, 388.1008605957;
249, 335.38659667969;
250, 264.83401489258;
251, 323.46081542969;
252, 373.94201660156;
253, 395.90859985352;
254, 436.26455688477;
255, 422.99755859375;
256, 372.9499206543;
257, 379.27020263672;
258, 341.12521362305;
259, 256.62646484375;
260, 225.45747375488;
261, 294.01696777344;
262, 374.51461791992;
263, 450.73364257812;
264, 483.91516113281;
265, 499.49850463867;
266, 533.60382080078;
267, 507.86468505859;
268, 468.38241577148;
269, 606.59655761719;
270, 648.60235595703;
271, 582.27551269531;
272, 577.58898925781;
273, 477.60174560547;
274, 566.19714355469;
275, 547.7421875;
276, 535.29797363281;
277, 637.90838623047;
278, 732.57641601562;
279, 865.85308837891;
280, 934.46490478516;
281, 867.93115234375;
282, 808.27221679688;
283, 825.23724365234;
284, 834.59313964844;
285, 821.20184326172;
286, 951.39672851562;
287, 1001.1514892578;
288, 892.33288574219;
289, 820.91827392578;
290, 840.41937255859;
291, 859.97009277344;
292, 873.58660888672;
293, 921.11767578125;
294, 998.08422851562;
295, 1062.4359130859;
296, 1104.5710449219;
297, 1223.0731201172;
298, 1186.9221191406;
299, 946.13140869141;
300, 819.96960449219;
301, 689.94830322266;
302, 567.71124267578;
303, 474.06997680664;
304, 423.07015991211;
305, 358.04913330078;
306, 367.71078491211;
307, 418.39157104492;
308, 475.90640258789;
309, 356.03756713867;
310, 254.2329864502;
311, 217.7569732666;
312, 190.33639526367;
313, 190.09548950195;
314, 173.36463928223;
315, 204.27435302734;
316, 196.78706359863;
317, 172.61404418945;
318, 167.28813171387;
319, 226.13539123535;
320, 266.18008422852;
321, 152.72717285156;
322, 255.64401245117;
323, 429.39868164062;
324, 492.34439086914;
325, 568.12847900391;
326, 644.06939697266;
327, 699.96850585938;
328, 762.29742431641;
329, 648.10833740234;
330, 508.84353637695;
331, 444.86724853516;
332, 477.23391723633;
333, 452.06661987305;
334, 396.94683837891;
335, 282.40484619141;
336, 169.29412841797;
337, 257.07427978516;
338, 343.55026245117;
339, 446.68771362305;
340, 570.18426513672;
341, 750.3662109375;
342, 784.01885986328;
343, 742.15539550781;
344, 563.10772705078;
345, 382.06872558594;
346, 316.10366821289;
347, 220.04257202148;
348, 240.41882324219;
349, 238.22653198242;
350, 228.86204528809;
351, 310.64508056641;
352, 333.19497680664;
353, 306.63275146484;
354, 233.57820129395;
355, 198.4680480957;
356, 299.4006652832;
357, 237.68580627441;
358, 193.6128692627;
359, 103.76962280273;
360, 62.294246673584;
361, 75.409782409668;
362, 48.163040161133;
363, 46.513854980469;
364, 43.419403076172;
365, 37.31664276123;
366, 32.805046081543;
367, 33.096408843994;
368, 33.905780792236;
369, 32.327537536621;
370, 29.023151397705;
371, 28.88151550293;
372, 24.350109100342;
373, 21.920070648193;
374, 28.250728607178;
375, 58.043045043945;
376, 17.560012817383;
377, 11.497859954834;
378, 14.171560287476;
379, 10.500681877136;
380, 10.831225395203;
381, 13.190337181091;
382, 11.775203704834;
383, 12.362858772278;
384, 11.152298927307;
385, 12.520736694336;
386, 14.639678001404;
387, 12.545185089111;
388, 9.1904783248901;
389, 6.2651996612549;
390, 5.0098471641541;
391, 4.7745461463928;
392, 3.7238717079163;
393, 3.0667791366577;
394, 2.9555537700653;
395, 2.6812448501587;
396, 2.5210721492767;
397, 0.96764475107193;
398, 2.8758490085602;
399, 1.2876867055893;
400, 0.96792483329773;
401, 0.98644429445267;
402, 0.070300206542015;
403, 1.2475848197937;
404, 2.5685057640076;
405, 3.0104670524597;
406, 0.36482828855515;
407, 0.02190032415092;
408, 0;
409, 0.0075866798870265;
410, 0.10659767687321;
411, 0.48507302999496;
412, 0.82655477523804;
413, 2.9207487106323;
414, 0.31434124708176;
415, 2.9035832881927;
416, 3.0309929847717;
417, 2;
418, 6.4151563644409;
419, 67.834861755371;
420, 128.40756225586;
421, 183.56185913086;
422, 257.64291381836;
423, 317.09387207031;
424, 316.12832641602;
425, 349.83712768555;
426, 360.24612426758;
427, 332.72457885742;
428, 298.57662963867;
429, 331.73861694336;
430, 332.56564331055;
431, 262.57928466797;
432, 154.96385192871;
433, 125.53570556641;
434, 90.117805480957;
435, 58.342750549316;
436, 25.96607208252;
437, 25.839050292969;
438, 36.835338592529;
439, 26.956907272339;
440, 18.704090118408;
441, 29.67742729187;
442, 65.301040649414;
443, 91.673164367676;
444, 36.466461181641;
445, 22.784873962402;
446, 41.495429992676;
447, 51.5627784729;
448, 13.507283210754;
449, 22.436462402344;
450, 1.8499499559402;
451, 0;
452, 0;
453, 0;
454, 0;
455, 0;
456, 0;
457, 0;
458, 0;
459, 0;
460, 0;
461, 0;
462, 0;
463, 1.6633803844452;
464, 12.277628898621;
465, 8.1900682449341;
466, 5.0377235412598;
467, 5.6559710502625;
468, 10.024518013;
469, 15.527409553528;
470, 20.714223861694;
471, 58.916137695312;
472, 157.62390136719;
473, 216.56089782715;
474, 294.20880126953;
475, 369.82983398438;
476, 435.84509277344;
477, 515.36401367188;
478, 573.14196777344;
479, 536.89239501953;
480, 444.16592407227;
481, 385.49392700195;
482, 470.82815551758;
483, 484.52557373047;
484, 452.54434204102;
485, 488.33993530273;
486, 599.50665283203;
487, 685.82897949219;
488, 653.07720947266;
489, 583.59356689453;
490, 522.60504150391;
491, 502.94418334961;
492, 568.03527832031;
493, 611.791015625;
494, 559.05828857422;
495, 454.9069519043;
496, 503.00775146484;
497, 413.21536254883;
498, 324.75411987305;
499, 371.11679077148;
