0, -3720.6079101562;
1, -3897.9323730469;
2, -3963.3122558594;
3, -4027.9956054688;
4, -4153.724609375;
5, -4146.5327148438;
6, -4062.2312011719;
7, -4067.0776367188;
8, -4127.7998046875;
9, -4345.5390625;
10, -4043.3962402344;
11, -3904.1430664062;
12, -3739.828125;
13, -3934.3937988281;
14, -3737.0270996094;
15, -3753.1782226562;
16, -3721.0278320312;
17, -3721.6789550781;
18, -3503.0329589844;
19, -3635.3010253906;
20, -3640.826171875;
21, -3095.0173339844;
22, -3667.2080078125;
23, -3580.6413574219;
24, -2847.8649902344;
25, -3807.08984375;
26, -3378.8996582031;
27, -3379.4440917969;
28, -4007.3864746094;
29, -4414.2211914062;
30, -3641.3283691406;
31, -3451.94140625;
32, -3014.4189453125;
33, -3017.0512695312;
34, -2846.1611328125;
35, -3080.56640625;
36, -2592.0749511719;
37, -2889.958984375;
38, -2757.5786132812;
39, -2852.0424804688;
40, -2800.4506835938;
41, -3037.9809570312;
42, -3280.818359375;
43, -2925.6372070312;
44, -3183.6909179688;
45, -3378.0915527344;
46, -3158.9851074219;
47, -3018.8649902344;
48, -3020.8278808594;
49, -3170.5048828125;
50, -3198.8168945312;
51, -3186.7692871094;
52, -3065.5397949219;
53, -3026.0578613281;
54, -3255.43359375;
55, -3210.869140625;
56, -3196.3471679688;
57, -3179.8679199219;
58, -3444.2990722656;
59, -3442.9680175781;
60, -3733.4211425781;
61, -3408.8513183594;
62, -3659.2165527344;
63, -3588.0122070312;
64, -3756.1296386719;
65, -3549.4479980469;
66, -3581.7670898438;
67, -3715.5930175781;
68, -4182.677734375;
69, -3927.1557617188;
70, -4105.619140625;
71, -4249.9272460938;
72, -4439.1030273438;
73, -4632.5161132812;
74, -4605.0375976562;
75, -4132.9848632812;
76, -4219.98828125;
77, -4053.2119140625;
78, -4194.3330078125;
79, -4269.3247070312;
80, -4357.9599609375;
81, -4051.3469238281;
82, -3965.7670898438;
83, -4579.4931640625;
84, -4564.9501953125;
85, -4443.6918945312;
86, -4270.1328125;
87, -1628.8276367188;
88, -4359.7592773438;
89, -4510.35546875;
90, -4756.2055664062;
91, -4915.2749023438;
92, -4825.3911132812;
93, -5192.169921875;
94, -5043.0141601562;
95, -5235.2299804688;
96, -5123.625;
97, -4996.3784179688;
98, -5028.60546875;
99, -5025.5068359375;
100, -5099.1489257812;
101, -4950.1875;
102, -5164.3090820312;
103, -5145.6337890625;
104, -5253.4711914062;
105, -5207.2763671875;
106, -5360.7602539062;
107, -5454.5493164062;
108, -5421.5322265625;
109, -5330.5502929688;
110, -5232.1870117188;
111, -4900.0122070312;
112, -5364.3720703125;
113, -5333.490234375;
114, -5386.3208007812;
115, -5320.2646484375;
116, -5148.466796875;
117, -5496.6499023438;
118, -5633.8041992188;
119, -5624.3115234375;
120, -5564.1630859375;
121, -5550.3071289062;
122, -5385.3227539062;
123, -5332.1782226562;
124, -5225.8647460938;
125, -5511.1616210938;
126, -5011.6923828125;
127, -4946.3637695312;
128, -4940.2241210938;
129, -5240.2153320312;
130, -5074.4931640625;
131, -4834.3334960938;
132, -4719.5903320312;
133, -4583.2416992188;
134, -4870.2602539062;
135, -4800.4350585938;
136, -4430.6123046875;
137, -5115.3237304688;
138, -4971.2836914062;
139, -4935.5122070312;
140, -5008.3344726562;
141, -5086.9453125;
142, -4744.1518554688;
143, -4755.1020507812;
144, -4814.0180664062;
145, -4669.7236328125;
146, -4795.0161132812;
147, -4575.1240234375;
148, -4358.724609375;
149, -4538.9506835938;
150, -4364.1049804688;
151, -4299.7060546875;
152, -4045.7514648438;
153, -4297.0698242188;
154, -4212.2373046875;
155, -4306.1303710938;
156, -4276.3447265625;
157, -3701.6840820312;
158, -4255.5625;
159, -4327.9028320312;
160, -4394.1987304688;
161, -4332.1806640625;
162, -4291.6694335938;
163, -4379.3515625;
164, -4296.9765625;
165, -4301.6640625;
166, -4073.6430664062;
167, -4222.2133789062;
168, -4087.357421875;
169, -4102.2426757812;
170, -3526.9992675781;
171, -3949.1630859375;
172, -4370.8208007812;
173, -4345.0405273438;
174, -4093.7626953125;
175, -4351.642578125;
176, -4258.36328125;
177, -4232.15625;
178, -4259.0673828125;
179, -3966.345703125;
180, -3707.1157226562;
181, -3015.9748535156;
182, -3489.2143554688;
183, -1978.3408203125;
184, -4131.3618164062;
185, -4279.0146484375;
186, -3946.4829101562;
187, -3910.8208007812;
188, -4253.6298828125;
189, -3860.9404296875;
190, -3367.1823730469;
191, -3069.1623535156;
192, -2681.4255371094;
193, -2844.6838378906;
194, -3118.0729980469;
195, -3378.8168945312;
196, -3841.5903320312;
197, -4388.2514648438;
198, -4457.7939453125;
199, -4486.5024414062;
200, -4384.3891601562;
201, -4407.7915039062;
202, -4448.1098632812;
203, -4328.5375976562;
204, -3928.8825683594;
205, -4377.0795898438;
206, -4124.4877929688;
207, -4393.94140625;
208, -4297.5483398438;
209, -4314.4301757812;
210, -4377.9892578125;
211, -4344.8696289062;
212, -4352.5200195312;
213, -4383.6650390625;
214, -4261.95703125;
215, -4260.7104492188;
216, -4340.771484375;
217, -4093.4697265625;
218, -3963.8334960938;
219, -3534.7333984375;
220, -4493.2729492188;
221, -4376.8950195312;
222, -4450.9350585938;
223, -4487.3940429688;
224, -4493.7846679688;
225, -4562.7885742188;
226, -4567.775390625;
227, -4678.689453125;
228, -4624.7006835938;
229, -4599.5141601562;
230, -4669.7666015625;
231, -4528.4477539062;
232, -4599.935546875;
233, -4630.6845703125;
234, -4636.5688476562;
235, -4634.4228515625;
236, -4592.6215820312;
237, -4526.02734375;
238, -4631.7612304688;
239, -4695.6186523438;
240, -4595.845703125;
241, -4495.8745117188;
242, -4764.1831054688;
243, -4525.8657226562;
244, -4514.724609375;
245, -4574.7412109375;
246, -4380.8032226562;
247, -4345.0668945312;
248, -4369.3232421875;
249, -4332.4506835938;
250, -4442.9580078125;
251, -4444.98828125;
252, -4307.4189453125;
253, -4329.654296875;
254, -4309.8442382812;
255, -4370.9223632812;
256, -4411.7490234375;
257, -4401.6376953125;
258, -4372.2290039062;
259, -4344.3227539062;
260, -4214.8720703125;
261, -4265.5102539062;
262, -4331.2846679688;
263, -4309.7978515625;
264, -4181.38671875;
265, -4271.0830078125;
266, -4385.1474609375;
267, -4366.4853515625;
268, -4488.8271484375;
269, -4440.6694335938;
270, -4484.796875;
271, -4527.1284179688;
272, -4311.9306640625;
273, -4349.2197265625;
274, -3650.6196289062;
275, -4145.095703125;
276, -4158.2358398438;
277, -4204.8237304688;
278, -4404.2807617188;
279, -4247.7407226562;
280, -4641.515625;
281, -4767.7065429688;
282, -4996.10546875;
283, -5061.1254882812;
284, -4954.345703125;
285, -4972.578125;
286, -4868.2353515625;
287, -4841.3764648438;
288, -4826.2739257812;
289, -4840.1069335938;
290, -4791.576171875;
291, -4876.2099609375;
292, -4837.515625;
293, -4839.9604492188;
294, -4882.0668945312;
295, -4942.4389648438;
296, -4915.9921875;
297, -4868.7338867188;
298, -4874.5346679688;
299, -4802.171875;
300, -4790.37890625;
301, -4874.1494140625;
302, -4893.6484375;
303, -4867.8217773438;
304, -4806.1728515625;
305, -4710.1533203125;
306, -4927.3125;
307, -4943.009765625;
308, -4954.7387695312;
309, -4945.9204101562;
310, -4870.0263671875;
311, -4848.2783203125;
312, -4938.6918945312;
313, -4282.669921875;
314, -4460.2358398438;
315, -4926.4658203125;
316, -4785.1606445312;
317, -4831.5751953125;
318, -4836.7485351562;
319, -4760.451171875;
320, -4842.2846679688;
321, -4723.3159179688;
322, -4795.669921875;
323, -4782.1826171875;
324, -4879.9311523438;
325, -4645.3818359375;
326, -4780.779296875;
327, -4636.2880859375;
328, -4373.19140625;
329, -4621.9814453125;
330, -4585.6630859375;
331, -4430.3623046875;
332, -4425.6259765625;
333, -4120.3872070312;
334, -4099.0336914062;
335, -4076.2263183594;
336, -4375.677734375;
337, -3672.9470214844;
338, -4153.1215820312;
339, -4420.0805664062;
340, -4516.130859375;
341, -4594.8935546875;
342, -4546.5122070312;
343, -4612.0727539062;
344, -4429.2451171875;
345, -4132.0991210938;
346, -4330.744140625;
347, -4383.6923828125;
348, -4296.1918945312;
349, -3960.8625488281;
350, -4347.1572265625;
351, -4503.7348632812;
352, -4242.970703125;
353, -4054.0107421875;
354, -3491.4133300781;
355, -4419.2319335938;
356, -4404.5415039062;
357, -4372.5693359375;
358, -4410.67578125;
359, -4461.4521484375;
360, -4196.640625;
361, -4250.0180664062;
362, -4143.927734375;
363, -4208.5283203125;
364, -3973.0617675781;
365, -4229.4072265625;
366, -4187.2275390625;
367, -4252.8100585938;
368, -4417.1323242188;
369, -4517.8662109375;
370, -4310.6967773438;
371, -4175.421875;
372, -4661.3754882812;
373, -4447.5166015625;
374, -4391.8828125;
375, -4250.5288085938;
376, -4129.7939453125;
377, -4033.8168945312;
378, -3821.8520507812;
379, -3679.4475097656;
380, -3518.4262695312;
381, -3508.9985351562;
382, -3331.1540527344;
383, -2258.8864746094;
384, -907.40289306641;
385, -90.474609375;
386, -46.922840118408;
387, 123.2384185791;
388, 320.52767944336;
389, 370.75012207031;
390, 652.12524414062;
391, 111.15203857422;
392, 55.44799041748;
393, 64.748405456543;
394, 300.82196044922;
395, 957.3994140625;
396, 1535.5267333984;
397, 1105.3721923828;
398, 1219.1931152344;
399, 1540.1541748047;
400, 1253.4478759766;
401, 1535.1571044922;
402, 1398.3869628906;
403, 1646.4460449219;
404, 1320.8929443359;
405, 1396.5537109375;
406, 1501.7172851562;
407, 1385.0014648438;
408, 1295.4510498047;
409, 1547.2841796875;
410, 1102.9736328125;
411, 1103.0003662109;
412, 631.71807861328;
413, 283.60562133789;
414, 115.56838226318;
415, 368.59588623047;
416, 139.04565429688;
417, 341.70422363281;
418, 372.64114379883;
419, 480.54156494141;
420, 634.61175537109;
421, 580.11163330078;
422, 1020.922668457;
423, 1053.2667236328;
424, 1275.7958984375;
425, 1386.3428955078;
426, 1220.3791503906;
427, 1635.4846191406;
428, 2038.5545654297;
429, 1394.978515625;
430, 2296.7685546875;
431, 1555.9174804688;
432, 2472.3840332031;
433, 1494.0859375;
434, 2332.6936035156;
435, 2604.8322753906;
436, 2002.0266113281;
437, 1356.3782958984;
438, 1214.0080566406;
439, 1089.6240234375;
440, 949.86285400391;
441, 861.37774658203;
442, 806.14044189453;
443, 755.10717773438;
444, 687.51434326172;
445, 764.26348876953;
446, 708.01489257812;
447, 622.52172851562;
448, 792.17474365234;
449, 613.10107421875;
450, 581.34832763672;
451, 579.58538818359;
452, 540.517578125;
453, 507.5964050293;
454, 545.24560546875;
455, 760.52258300781;
456, 734.140625;
457, 629.69720458984;
458, 234.21308898926;
459, 210.45262145996;
460, 210.77630615234;
461, 210.54556274414;
462, 227.79112243652;
463, 291.39315795898;
464, 292.60171508789;
465, 333.9211730957;
466, 340.02819824219;
467, 342.69549560547;
468, 394.09930419922;
469, 409.2116394043;
470, 379.03085327148;
471, 341.89370727539;
472, 418.68423461914;
473, 420.46978759766;
474, 377.21292114258;
475, 417.32678222656;
476, 406.07666015625;
477, 387.60842895508;
478, 380.74020385742;
479, 387.07592773438;
480, 374.30755615234;
481, 347.6315612793;
482, 339.97015380859;
483, 251.0891418457;
484, 210.90045166016;
485, 273.85360717773;
486, 257.38244628906;
487, 221.10153198242;
488, 214.13806152344;
489, 195.83071899414;
490, 156.12747192383;
491, 128.36296081543;
492, 88.083885192871;
493, 53.616939544678;
494, 20.32036781311;
495, -25.483636856079;
496, -30.978960037231;
497, -7.7344975471497;
498, -22.601734161377;
499, 10.670471191406;
