0, 344.54022216797;
1, 282.80239868164;
2, 345.46112060547;
3, 396.48052978516;
4, 358.90322875977;
5, 369.74786376953;
6, 326.5341796875;
7, 382.74676513672;
8, 398.62222290039;
9, 483.68811035156;
10, 523.61779785156;
11, 563.55383300781;
12, 540.30084228516;
13, 502.9225769043;
14, 419.55624389648;
15, 493.45831298828;
16, 429.43505859375;
17, 276.74990844727;
18, 499.76525878906;
19, 568.60296630859;
20, 559.51916503906;
21, 547.49572753906;
22, 588.1396484375;
23, 542.05120849609;
24, 555.37731933594;
25, 564.44714355469;
26, 539.23077392578;
27, 505.27783203125;
28, 508.80755615234;
29, 539.93115234375;
30, 738.64703369141;
31, 590.66418457031;
32, 684.53295898438;
33, 611.97271728516;
34, 617.54876708984;
35, 589.54693603516;
36, 594.19128417969;
37, 564.48828125;
38, 541.734375;
39, 542.44012451172;
40, 568.14862060547;
41, 590.90356445312;
42, 526.86346435547;
43, 661.71716308594;
44, 573.03204345703;
45, 622.79766845703;
46, 630.27459716797;
47, 595.43591308594;
48, 682.53295898438;
49, 657.02258300781;
50, 700.43121337891;
51, 659.1708984375;
52, 631.10113525391;
53, 679.48657226562;
54, 647.66125488281;
55, 629.89001464844;
56, 734.10418701172;
57, 644.39727783203;
58, 591.40600585938;
59, 595.78430175781;
60, 577.61560058594;
61, 603.37963867188;
62, 613.16558837891;
63, 562.62438964844;
64, 552.20935058594;
65, 561.25335693359;
66, 586.20391845703;
67, 567.42742919922;
68, 537.70855712891;
69, 515.21905517578;
70, 506.41189575195;
71, 509.96987915039;
72, 471.16375732422;
73, 479.90435791016;
74, 537.08728027344;
75, 489.47808837891;
76, 478.54489135742;
77, 481.55081176758;
78, 475.56307983398;
79, 402.49383544922;
80, 386.966796875;
81, 386.78491210938;
82, 505.27734375;
83, 380.58624267578;
84, 395.82202148438;
85, 355.04718017578;
86, 359.78210449219;
87, 341.39291381836;
88, 301.55856323242;
89, 312.31091308594;
90, 253.73890686035;
91, 231.46569824219;
92, 286.93179321289;
93, 245.34526062012;
94, 224.73307800293;
95, 241.69757080078;
96, 219.96925354004;
97, 259.67980957031;
98, 230.91719055176;
99, 213.32406616211;
100, 143.15386962891;
101, 100.90942382812;
102, 125.9716796875;
103, 106.97270965576;
104, 84.122978210449;
105, 48.057006835938;
106, 48.835083007812;
107, 8.2973184585571;
108, 5.0310111045837;
109, -20.90763092041;
110, -11.922350883484;
111, -37.799701690674;
112, -38.083992004395;
113, -44.015838623047;
114, -55.506927490234;
115, -58.750965118408;
116, -30.864274978638;
117, -12.28937625885;
118, -9.8415098190308;
119, -7.9728908538818;
120, -9.2572031021118;
121, -10.555377006531;
122, -11.158860206604;
123, -13.871276855469;
124, -0.72346764802933;
125, 7.0533652305603;
126, 11.642688751221;
127, 15.776819229126;
128, 19.024057388306;
129, 24.20701789856;
130, 32.831844329834;
131, 47.124904632568;
132, 59.071895599365;
133, 62.663635253906;
134, 66.386184692383;
135, 76.337509155273;
136, 99.9169921875;
137, 124.12377166748;
138, 140.69706726074;
139, 145.56089782715;
140, 154.79051208496;
141, 156.81088256836;
142, 172.7113494873;
143, 170;
144, 177.68846130371;
145, 177.70314025879;
146, 181.77894592285;
147, 184.33662414551;
148, 184.36877441406;
149, 183.86938476562;
150, 185.90020751953;
151, 201.48834228516;
152, 219.81381225586;
153, 230.3233795166;
154, 235.46484375;
155, 232.54580688477;
156, 243.84671020508;
157, 247.81033325195;
158, 255.7381439209;
159, 260.30612182617;
160, 282.82333374023;
161, 275.40176391602;
162, 258.89428710938;
163, 302.77145385742;
164, 304.79150390625;
165, 318.07781982422;
166, 326.80490112305;
167, 335.0061340332;
168, 375.89489746094;
169, 367.19714355469;
170, 370.96408081055;
171, 388.67443847656;
172, 409.03979492188;
173, 375.08776855469;
174, 382.02703857422;
175, 403.19454956055;
176, 402.8063659668;
177, 400.72766113281;
178, 407.69998168945;
179, 412.19580078125;
180, 397.37042236328;
181, 411.47708129883;
182, 427.48321533203;
183, 446.26922607422;
184, 411.75659179688;
185, 414.626953125;
186, 412.20651245117;
187, 426.54287719727;
188, 415.24264526367;
189, 414.48837280273;
190, 409.69747924805;
191, 371.50445556641;
192, 408.34643554688;
193, 395.52737426758;
194, 383.68048095703;
195, 370.82608032227;
196, 347.07064819336;
197, 361.3410949707;
198, 360.65087890625;
199, 327.76525878906;
200, 329.59826660156;
201, 300.5139465332;
202, 260.66165161133;
203, 274.32485961914;
204, 249.23608398438;
205, 236.74487304688;
206, 217.99485778809;
207, 218;
208, 218;
209, 218;
210, 230.94302368164;
211, 253.08613586426;
212, 261.27188110352;
213, 274.04870605469;
214, 269.21578979492;
215, 261.00924682617;
216, 250.58448791504;
217, 248;
218, 248;
219, 247.1870880127;
220, 272.42266845703;
221, 264.11184692383;
222, 277.52966308594;
223, 307.57159423828;
224, 339.90469360352;
225, 410.47113037109;
226, 509.94689941406;
227, 556.58563232422;
228, 536.53167724609;
229, 530.69891357422;
230, 498.59103393555;
231, 486.62216186523;
232, 474.28964233398;
233, 391.15270996094;
234, 471.73782348633;
235, 495.76739501953;
236, 531.39916992188;
237, 573.78448486328;
238, 593.35473632812;
239, 632.57385253906;
240, 659.40155029297;
241, 660.52886962891;
242, 618.51281738281;
243, 602.82904052734;
244, 599.66052246094;
245, 598.52130126953;
246, 593.07818603516;
247, 595.85736083984;
248, 582.44720458984;
249, 572.244140625;
250, 584.29571533203;
251, 601.67425537109;
252, 633.81134033203;
253, 715.22180175781;
254, 720.21520996094;
255, 718.63787841797;
256, 689.17193603516;
257, 752.41442871094;
258, 695.32452392578;
259, 712.98181152344;
260, 809.55249023438;
261, 834.8515625;
262, 764.87335205078;
263, 812.42230224609;
264, 777.90191650391;
265, 873.48657226562;
266, 889.09887695312;
267, 896.40673828125;
268, 881.66223144531;
269, 832.81103515625;
270, 763.26354980469;
271, 643.56573486328;
272, 747.17895507812;
273, 765.79876708984;
274, 790.15979003906;
275, 735.19152832031;
276, 749.53002929688;
277, 735.20202636719;
278, 764.99548339844;
279, 823.79766845703;
280, 891.51190185547;
281, 1003.1430664062;
282, 1042.3220214844;
283, 960.79833984375;
284, 860.72131347656;
285, 921.74450683594;
286, 1006.2954711914;
287, 998.84484863281;
288, 1049.5406494141;
289, 883.10363769531;
290, 1050.3333740234;
291, 1105.2100830078;
292, 1097.8891601562;
293, 1208.5393066406;
294, 1279.837890625;
295, 1379.7719726562;
296, 1624.4071044922;
297, 1652.8641357422;
298, 2166.6821289062;
299, 1855.7802734375;
300, 1638.0974121094;
301, 1464.9139404297;
302, 1768.6538085938;
303, 1764.861328125;
304, 1358.4212646484;
305, 1116.6741943359;
306, 1189.8803710938;
307, 1422.0793457031;
308, 1787.5592041016;
309, 1950.1375732422;
310, 1485.9530029297;
311, 1471.8446044922;
312, 2077.4926757812;
313, 2554.9370117188;
314, 2216.5900878906;
315, 1974.2576904297;
316, 1883.0888671875;
317, 2273.6176757812;
318, 1958.5843505859;
319, 1603.1441650391;
320, 1518.9093017578;
321, 1884.9294433594;
322, 1742.5720214844;
323, 1955.2487792969;
324, 2202.552734375;
325, 1839.9951171875;
326, 2272.4013671875;
327, 1850.3957519531;
328, 1958.5294189453;
329, 2021.7684326172;
330, 1892.5347900391;
331, 2049.6149902344;
332, 2277.0295410156;
333, 2116.0712890625;
334, 2184.9682617188;
335, 2256.7512207031;
336, 1194.0909423828;
337, 1264.2395019531;
338, 1137.9963378906;
339, 1891.2642822266;
340, 1678.4727783203;
341, 1625.1865234375;
342, 1153.3094482422;
343, 1045.7572021484;
344, 944.34661865234;
345, 1130.9542236328;
346, 1099.2462158203;
347, 1322.6965332031;
348, 1265.4050292969;
349, 1563.6070556641;
350, 1563.1082763672;
351, 1519.9598388672;
352, 1705.2060546875;
353, 1447.6005859375;
354, 1318.2674560547;
355, 1634.2476806641;
356, 1797.0461425781;
357, 1391.2673339844;
358, 1463.6162109375;
359, 1546.744140625;
360, 1320.0629882812;
361, 1350.4765625;
362, 1347.8800048828;
363, 1437.296875;
364, 1524.5274658203;
365, 1347.8303222656;
366, 1417.7901611328;
367, 1453.763671875;
368, 1578.5531005859;
369, 1682.0922851562;
370, 1267.9951171875;
371, 1680.4232177734;
372, 1758.5740966797;
373, 1583.9295654297;
374, 1586.7526855469;
375, 1455.8862304688;
376, 1452.3975830078;
377, 1355.9210205078;
378, 1728.4208984375;
379, 1305.2674560547;
380, 1452.3107910156;
381, 1246.2120361328;
382, 1294.7581787109;
383, 1153.8590087891;
384, 884.9765625;
385, 883.99371337891;
386, 1047.0670166016;
387, 907.31170654297;
388, 1109.4162597656;
389, 1164.3858642578;
390, 1543.0085449219;
391, 1534.5511474609;
392, 1365.6557617188;
393, 827.98657226562;
394, 888.46569824219;
395, 605.13421630859;
396, 473.71899414062;
397, 619.24291992188;
398, 226.4994354248;
399, -64.027137756348;
400, -145.68835449219;
401, -432.54718017578;
402, -615.23052978516;
403, -1040.8758544922;
404, -1915.3265380859;
405, -2622.43359375;
406, -2705.5522460938;
407, -2601.1984863281;
408, -2597.0490722656;
409, -1641.26171875;
410, -2188.6687011719;
411, -2899.1640625;
412, -3279.8374023438;
413, -3758.0422363281;
414, -3777.419921875;
415, -3944.9177246094;
416, -4163.228515625;
417, -4130.8920898438;
418, -4168.7924804688;
419, -4166.7797851562;
420, -4216.1435546875;
421, -4244.7807617188;
422, -4276.3515625;
423, -4344.1870117188;
424, -4355.84375;
425, -4368.6176757812;
426, -4370.1567382812;
427, -4359.4389648438;
428, -4269.0546875;
429, -4267.4301757812;
430, -4309.2104492188;
431, -4379.7827148438;
432, -4234.0859375;
433, -4548.8466796875;
434, -4675.7412109375;
435, -4653.916015625;
436, -4737.603515625;
437, -4749.8569335938;
438, -4648.4580078125;
439, -4708.2172851562;
440, -4768.8359375;
441, -4767.2241210938;
442, -4787.880859375;
443, -4797.9873046875;
444, -4828.2719726562;
445, -4795.5532226562;
446, -4798.927734375;
447, -4726.1655273438;
448, -4792.1850585938;
449, -4820.470703125;
450, -4872.2055664062;
451, -4976.51953125;
452, -5023.6684570312;
453, -5047.384765625;
454, -5040.8237304688;
455, -5035.9599609375;
456, -4916.8090820312;
457, -4930.3198242188;
458, -5049.7846679688;
459, -4905.2041015625;
460, -5059.4956054688;
461, -4875.7436523438;
462, -4984.4702148438;
463, -4936.9672851562;
464, -4839.0766601562;
465, -4892.7353515625;
466, -4886.2846679688;
467, -5029.2709960938;
468, -5067.3881835938;
469, -4996.171875;
470, -4963.8383789062;
471, -4957.2475585938;
472, -5104.9682617188;
473, -5061.4990234375;
474, -5057.51171875;
475, -4989.5571289062;
476, -5017.6694335938;
477, -5038.6635742188;
478, -4994.4599609375;
479, -5046.5747070312;
480, -5167.2885742188;
481, -5220.8349609375;
482, -5088.4848632812;
483, -5207.1787109375;
484, -5071.5126953125;
485, -5103.6528320312;
486, -5150.5361328125;
487, -5269.9204101562;
488, -5379.9331054688;
489, -5210.427734375;
490, -5172.6635742188;
491, -5175.8432617188;
492, -5173.2465820312;
493, -5118.8334960938;
494, -5144.1342773438;
495, -5030.3383789062;
496, -5062.6284179688;
497, -5041.3500976562;
498, -4995.3774414062;
499, -5034.9594726562;
