0, -5149.0380859375;
1, -5153.1997070312;
2, -5153.5239257812;
3, -5142.931640625;
4, -5128.8911132812;
5, -5100.7924804688;
6, -5100.0400390625;
7, -5095.0092773438;
8, -5088.0541992188;
9, -5069.11328125;
10, -5052.21484375;
11, -5007.8076171875;
12, -4998.8110351562;
13, -5011.2143554688;
14, -5029.9384765625;
15, -5055.5625;
16, -5009.4975585938;
17, -4946.94921875;
18, -4976.9702148438;
19, -4926.4584960938;
20, -4979.0239257812;
21, -4924.5986328125;
22, -4926.9541015625;
23, -4888.9228515625;
24, -4876.6245117188;
25, -4853.7465820312;
26, -4901.927734375;
27, -4807.8022460938;
28, -4890.3022460938;
29, -4895.1801757812;
30, -4888.3642578125;
31, -4847.3447265625;
32, -4826.8486328125;
33, -4816.5541992188;
34, -4695.5678710938;
35, -4778.5615234375;
36, -4832.31640625;
37, -4863.9711914062;
38, -4875.986328125;
39, -4876.0654296875;
40, -4899.638671875;
41, -4746.7006835938;
42, -4797.2670898438;
43, -4925.6533203125;
44, -4930.9555664062;
45, -4826.8081054688;
46, -4798.7421875;
47, -4825.0107421875;
48, -4850.8291015625;
49, -4811.6064453125;
50, -4791.3662109375;
51, -4842.056640625;
52, -4893.0771484375;
53, -4856.7788085938;
54, -4892.3618164062;
55, -4828.4272460938;
56, -4882.025390625;
57, -4981.5634765625;
58, -4928.6796875;
59, -4836.2939453125;
60, -4790.1708984375;
61, -4764.4438476562;
62, -4657.1669921875;
63, -4675.7065429688;
64, -4600.6909179688;
65, -4600.4116210938;
66, -4624.9379882812;
67, -5292.736328125;
68, -5314.3813476562;
69, -5288.8784179688;
70, -5320.689453125;
71, -5320.1181640625;
72, -4947.6572265625;
73, -5082.7270507812;
74, -4884.873046875;
75, -4946.5200195312;
76, -4875.560546875;
77, -4910.3305664062;
78, -5040.6791992188;
79, -5105.755859375;
80, -5110.8413085938;
81, -4997.052734375;
82, -4985.3051757812;
83, -4995.5219726562;
84, -5314.8115234375;
85, -5362.2934570312;
86, -5259.53515625;
87, -5091.259765625;
88, -4929.328125;
89, -4957.8413085938;
90, -5398.8647460938;
91, -5302.9858398438;
92, -5700.9428710938;
93, -5260.3706054688;
94, -5356.9663085938;
95, -5647.8896484375;
96, -5673.5751953125;
97, -5647.5522460938;
98, -5756.6723632812;
99, -5566.435546875;
100, -5229.0341796875;
101, -5198.1259765625;
102, -5374.8159179688;
103, -5695.9506835938;
104, -5429.1884765625;
105, -5628.7797851562;
106, -5666.4780273438;
107, -5730.1245117188;
108, -5840.4555664062;
109, -5812.6733398438;
110, -5844.810546875;
111, -5569.2250976562;
112, -5815.2705078125;
113, -5758.2583007812;
114, -5742.1821289062;
115, -5843.2177734375;
116, -5840.21875;
117, -5291.6279296875;
118, -5734.8188476562;
119, -5696.0307617188;
120, -5639.9956054688;
121, -5783.5336914062;
122, -5905.9526367188;
123, -5880.77734375;
124, -5886.2983398438;
125, -6056.5634765625;
126, -5965.6767578125;
127, -5613.2055664062;
128, -5534.6215820312;
129, -5747.55078125;
130, -6074.2016601562;
131, -5790.2299804688;
132, -5382.6879882812;
133, -5411.1455078125;
134, -5662.3149414062;
135, -5665.396484375;
136, -5707.81640625;
137, -5840.5205078125;
138, -5785.5517578125;
139, -5842.8774414062;
140, -5834.3735351562;
141, -5925.7260742188;
142, -5803.2333984375;
143, -5894.4521484375;
144, -5946.7255859375;
145, -5753.5932617188;
146, -5441.0224609375;
147, -5817.8081054688;
148, -5573.0405273438;
149, -5991.0112304688;
150, -5966.0087890625;
151, -5829.0244140625;
152, -5599.353515625;
153, -5541.9384765625;
154, -5626.8193359375;
155, -5828.1635742188;
156, -5824.2846679688;
157, -5375.5419921875;
158, -5780.9545898438;
159, -5961.7143554688;
160, -6043.5444335938;
161, -5577.9877929688;
162, -5870.318359375;
163, -5513.619140625;
164, -5966.3798828125;
165, -5938.0834960938;
166, -5789.0776367188;
167, -5678.3334960938;
168, -5724.7944335938;
169, -5467.9658203125;
170, -5491.3618164062;
171, -5735.8662109375;
172, -5666.5556640625;
173, -5892.541015625;
174, -5337.552734375;
175, -5015.0473632812;
176, -5253.1127929688;
177, -5446.14453125;
178, -5349.1655273438;
179, -5799.6650390625;
180, -5636.8662109375;
181, -5527.353515625;
182, -5734.60546875;
183, -5619.0390625;
184, -5541.771484375;
185, -5632.86328125;
186, -5150.9086914062;
187, -5309.9584960938;
188, -5663.771484375;
189, -5598.724609375;
190, -5153.8740234375;
191, -4740.1040039062;
192, -5873.3471679688;
193, -5726.3422851562;
194, -5417.5483398438;
195, -5693.74609375;
196, -6161.9599609375;
197, -5533.25390625;
198, -5204.419921875;
199, -5599.0625;
200, -5569.9467773438;
201, -5681.4223632812;
202, -5066.2446289062;
203, -5176.3837890625;
204, -5595.9692382812;
205, -5739.9267578125;
206, -5227.4404296875;
207, -5019.2377929688;
208, -4924.8115234375;
209, -5459.658203125;
210, -5287.5209960938;
211, -5317.5078125;
212, -5438.4926757812;
213, -5628.6938476562;
214, -5050.634765625;
215, -5595.80078125;
216, -5540.57421875;
217, -5114.1782226562;
218, -5322.1479492188;
219, -5380.1557617188;
220, -5115.1494140625;
221, -4909.9487304688;
222, -5783.7758789062;
223, -5357.8271484375;
224, -5677.6372070312;
225, -5468.9711914062;
226, -5245.9541015625;
227, -5164.3369140625;
228, -5193.259765625;
229, -5280.615234375;
230, -5450.3950195312;
231, -5354.591796875;
232, -5153.7407226562;
233, -5009.3818359375;
234, -5012.1484375;
235, -5026.0703125;
236, -4940.1962890625;
237, -4730.6704101562;
238, -4782.1743164062;
239, -4797.2329101562;
240, -5154.5717773438;
241, -4957.5048828125;
242, -5190.8837890625;
243, -5302.9619140625;
244, -5367.568359375;
245, -5306.2270507812;
246, -5182.087890625;
247, -4863.8232421875;
248, -4828.0341796875;
249, -4959.7470703125;
250, -4926.73046875;
251, -4914.7578125;
252, -4767.833984375;
253, -4905.2802734375;
254, -5173.4125976562;
255, -4841.19921875;
256, -4766.4970703125;
257, -5200.4130859375;
258, -4930.45703125;
259, -4086.8493652344;
260, -4628.8515625;
261, -4745.8212890625;
262, -4777.5834960938;
263, -4899.759765625;
264, -5003.728515625;
265, -5187.3212890625;
266, -5205.2841796875;
267, -5051.15234375;
268, -5016.7119140625;
269, -4194.267578125;
270, -4223.8754882812;
271, -4918.740234375;
272, -4562.9731445312;
273, -3655.3354492188;
274, -4435.0258789062;
275, -4306.7900390625;
276, -4257.8579101562;
277, -3871.3823242188;
278, -4996.2431640625;
279, -4702.041015625;
280, -4183.7578125;
281, -4041.0170898438;
282, -4142.3876953125;
283, -4584.7133789062;
284, -4058.8649902344;
285, -4047.4626464844;
286, -4271.3134765625;
287, -4300.6943359375;
288, -4228.2529296875;
289, -3952.3354492188;
290, -3877.1857910156;
291, -4144.5815429688;
292, -4376.1196289062;
293, -3863.5541992188;
294, -4082.6005859375;
295, -3799.9604492188;
296, -4431.4467773438;
297, -3873.3940429688;
298, -3888.8122558594;
299, -4243.3891601562;
300, -3892.96484375;
301, -4176.4580078125;
302, -4075.1335449219;
303, -3915.6364746094;
304, -3489.1352539062;
305, -3029.0073242188;
306, -3495.9636230469;
307, -3420.0249023438;
308, -3408.5852050781;
309, -3698.5720214844;
310, -3259.5053710938;
311, -3146.2351074219;
312, -3056.5541992188;
313, -3049.1433105469;
314, -2974.1965332031;
315, -2393.0087890625;
316, -2323.2836914062;
317, -2134.7766113281;
318, -2278.0825195312;
319, -3132.7243652344;
320, -3501.9455566406;
321, -3779.3081054688;
322, -3980.2839355469;
323, -3485.6359863281;
324, -3413.6762695312;
325, -3561.4721679688;
326, -3517.4523925781;
327, -3804.8388671875;
328, -3941.1467285156;
329, -3464.0949707031;
330, -3962.5251464844;
331, -3934.0212402344;
332, -3802.8937988281;
333, -3974.0104980469;
334, -3784.7414550781;
335, -4226.201171875;
336, -4155.6728515625;
337, -3958.0168457031;
338, -3967.0378417969;
339, -4326.833984375;
340, -4259.0434570312;
341, -4132.5546875;
342, -3927.7048339844;
343, -4136.1015625;
344, -4197.5991210938;
345, -3611.5063476562;
346, -4280.4790039062;
347, -4257.3203125;
348, -4093.3608398438;
349, -3838.5549316406;
350, -3289.7104492188;
351, -3465.5832519531;
352, -3910.0517578125;
353, -4144.7387695312;
354, -3926.0104980469;
355, -4427.8447265625;
356, -4547.9399414062;
357, -4317.693359375;
358, -4219.7729492188;
359, -4365.5522460938;
360, -4441.6772460938;
361, -4358.322265625;
362, -4167.0629882812;
363, -4124.7641601562;
364, -4316.6469726562;
365, -3911.7473144531;
366, -4408.2661132812;
367, -4754.7329101562;
368, -4232.5249023438;
369, -4310.1967773438;
370, -4708.80078125;
371, -4913.451171875;
372, -4466.7314453125;
373, -4968.8349609375;
374, -4714.2436523438;
375, -4477.6318359375;
376, -4731.3090820312;
377, -4661.5288085938;
378, -4753.3974609375;
379, -4716.052734375;
380, -4680.8037109375;
381, -4716.2529296875;
382, -4886.2758789062;
383, -4308.6235351562;
384, -3969.7028808594;
385, -4576.4243164062;
386, -4552.404296875;
387, -4396.4311523438;
388, -4668.71484375;
389, -5123.9067382812;
390, -5264.5029296875;
391, -4700.82421875;
392, -4456.0991210938;
393, -4309.880859375;
394, -4535.1157226562;
395, -5020.1958007812;
396, -4816.134765625;
397, -4844.1791992188;
398, -4895.5541992188;
399, -4663.6186523438;
400, -4495.5249023438;
401, -4740.294921875;
402, -4570.6762695312;
403, -4498.1381835938;
404, -4753.4799804688;
405, -5266.5307617188;
406, -5358.0590820312;
407, -5427.7006835938;
408, -5101.62890625;
409, -5286.87109375;
410, -5238.1440429688;
411, -4924.0947265625;
412, -5677.8852539062;
413, -5384.6303710938;
414, -5791.8520507812;
415, -5189.9682617188;
416, -4296.181640625;
417, -5247.3662109375;
418, -6425.3759765625;
419, -5950.0249023438;
420, -5030.2485351562;
421, -5082.2749023438;
422, -5227.7436523438;
423, -5094.2973632812;
424, -5223.1611328125;
425, -5300.0961914062;
426, -5232.1064453125;
427, -5511.1362304688;
428, -5551.2705078125;
429, -5304.869140625;
430, -5594.0815429688;
431, -5953.2407226562;
432, -5790.111328125;
433, -5685.7612304688;
434, -5723.4985351562;
435, -5801.3989257812;
436, -5734.0346679688;
437, -5897.0551757812;
438, -5348.638671875;
439, -5853.4794921875;
440, -5832.0424804688;
441, -5967.40625;
442, -5284.494140625;
443, -5278.5600585938;
444, -5391.4252929688;
445, -5034.4936523438;
446, -5520.6337890625;
447, -4975.8364257812;
448, -4222.755859375;
449, -5238.2836914062;
450, -6177.6552734375;
451, -6093.4965820312;
452, -5168.8461914062;
453, -5464.146484375;
454, -5412.3579101562;
455, -5037.96484375;
456, -5394.4711914062;
457, -5276.6279296875;
458, -5477.2817382812;
459, -5756.150390625;
460, -5641.853515625;
461, -5700.5263671875;
462, -5796.224609375;
463, -6301.3696289062;
464, -5757.9931640625;
465, -5854.041015625;
466, -5311.3452148438;
467, -5754.2299804688;
468, -5987.5234375;
469, -5618.6396484375;
470, -5451.021484375;
471, -5766.3916015625;
472, -5562.5615234375;
473, -5017.0825195312;
474, -5207.703125;
475, -5608.6557617188;
476, -5720.9790039062;
477, -5790.1987304688;
478, -5756.2338867188;
479, -5704.5463867188;
480, -5285.3935546875;
481, -4955.740234375;
482, -5668.3276367188;
483, -5833.1474609375;
484, -4964.6865234375;
485, -4243.9155273438;
486, -4188.2690429688;
487, -4556.5825195312;
488, -4611.681640625;
489, -4500.7421875;
490, -4574.46875;
491, -4898.1362304688;
492, -5282.6455078125;
493, -5046.6806640625;
494, -4900.9614257812;
495, -5125.3896484375;
496, -5573.8188476562;
497, -5366.2094726562;
498, -5024.3173828125;
499, -4711.607421875;
