0, -4868.2397460938;
1, -5140.0205078125;
2, -5177.4829101562;
3, -5311.1918945312;
4, -5330.2690429688;
5, -5145.3740234375;
6, -4897.330078125;
7, -3743.3718261719;
8, -2771.7712402344;
9, -3701.2531738281;
10, -4962.3681640625;
11, -5403.0654296875;
12, -5337.0390625;
13, -5286.80859375;
14, -5469.005859375;
15, -5188.9106445312;
16, -5293.3383789062;
17, -5346.896484375;
18, -5590.8056640625;
19, -5562.0678710938;
20, -5524.3247070312;
21, -5597.2255859375;
22, -5604.673828125;
23, -5495.259765625;
24, -5459.2568359375;
25, -5432.7709960938;
26, -5419.8803710938;
27, -5512.3754882812;
28, -5459.5903320312;
29, -5590.4721679688;
30, -5593.1684570312;
31, -5525.8999023438;
32, -5510.337890625;
33, -5532.23046875;
34, -5538.7255859375;
35, -5562.2978515625;
36, -5484.5209960938;
37, -5210.9321289062;
38, -5175.10546875;
39, -5381.1708984375;
40, -5486.1909179688;
41, -5364.8198242188;
42, -5332.685546875;
43, -5351.4716796875;
44, -5439.2553710938;
45, -5508.6528320312;
46, -5555.2275390625;
47, -5458.2797851562;
48, -5419.3442382812;
49, -5278.8627929688;
50, -5194.4575195312;
51, -5300.4741210938;
52, -5391.2729492188;
53, -5375.294921875;
54, -5383.2998046875;
55, -5329.580078125;
56, -5322.1455078125;
57, -5340.7729492188;
58, -5390.33984375;
59, -5248.9609375;
60, -5161.4096679688;
61, -5137.82421875;
62, -5160.5908203125;
63, -5145.6875;
64, -5099.49609375;
65, -5226.248046875;
66, -5245.072265625;
67, -5219.4169921875;
68, -5215.9892578125;
69, -5186.4008789062;
70, -5172.185546875;
71, -5140.2084960938;
72, -5090.3994140625;
73, -5169.1708984375;
74, -5161.0439453125;
75, -5092.9086914062;
76, -5059.6508789062;
77, -5020.2724609375;
78, -5109.7724609375;
79, -4946.7587890625;
80, -4927.0932617188;
81, -5124.1284179688;
82, -4983.6435546875;
83, -5031.7001953125;
84, -5022.2490234375;
85, -4880.4487304688;
86, -5206.0048828125;
87, -5335.6103515625;
88, -5021.2822265625;
89, -4989.4541015625;
90, -5032.8330078125;
91, -5065.9467773438;
92, -5149.7299804688;
93, -5183.228515625;
94, -4979.6713867188;
95, -5057.8647460938;
96, -5198.1899414062;
97, -5064.7177734375;
98, -4982.3564453125;
99, -4977.904296875;
100, -5039.8745117188;
101, -5062.501953125;
102, -5043.8374023438;
103, -4978.3662109375;
104, -5255.4736328125;
105, -4977.1040039062;
106, -5115.7817382812;
107, -5132.7197265625;
108, -5038.33203125;
109, -5045.2890625;
110, -5178.98828125;
111, -5016.9633789062;
112, -4958.9521484375;
113, -4970.525390625;
114, -4844.7353515625;
115, -4899.48046875;
116, -4950.318359375;
117, -4761.13671875;
118, -4649.4116210938;
119, -4610.2553710938;
120, -4647.5952148438;
121, -4791.6577148438;
122, -4804.294921875;
123, -4687.8896484375;
124, -4697.3754882812;
125, -4719.2294921875;
126, -4604.6005859375;
127, -4548.044921875;
128, -4611.099609375;
129, -4713.1513671875;
130, -4807.2094726562;
131, -4756.3544921875;
132, -4677.6870117188;
133, -4798.017578125;
134, -4793.763671875;
135, -4696.5;
136, -4701.5659179688;
137, -4758.884765625;
138, -4845.9150390625;
139, -4830.3754882812;
140, -4812.1655273438;
141, -4788.7055664062;
142, -4752.7338867188;
143, -4645.8500976562;
144, -4642.2358398438;
145, -4558.3984375;
146, -4672.3920898438;
147, -4719.1049804688;
148, -4726.1796875;
149, -4693.76953125;
150, -4530.5244140625;
151, -4694.2436523438;
152, -4707.4868164062;
153, -4429.7543945312;
154, -4203.849609375;
155, -4160.32421875;
156, -4476.3081054688;
157, -4567.041015625;
158, -4566.154296875;
159, -4684.5043945312;
160, -4710.6127929688;
161, -4552.5346679688;
162, -4511.837890625;
163, -4617.3334960938;
164, -4666.7880859375;
165, -4620.0634765625;
166, -4628.3579101562;
167, -4782.8237304688;
168, -4668.294921875;
169, -4772.611328125;
170, -4757.1293945312;
171, -4927.6655273438;
172, -4744.8666992188;
173, -4833.6396484375;
174, -4832.5444335938;
175, -4690.3569335938;
176, -4670.8974609375;
177, -4762.5913085938;
178, -4850.828125;
179, -4822.2470703125;
180, -4745.96484375;
181, -4824.5131835938;
182, -4882.5395507812;
183, -4856.1103515625;
184, -4868.3022460938;
185, -4748.8149414062;
186, -4619.1049804688;
187, -4793.4365234375;
188, -4778.751953125;
189, -4666.8256835938;
190, -4656.9702148438;
191, -4750.94140625;
192, -4854.486328125;
193, -4863.7495117188;
194, -4790.640625;
195, -4934.314453125;
196, -4996.7275390625;
197, -5030.099609375;
198, -5038.404296875;
199, -5090.3491210938;
200, -5045.31640625;
201, -4974.6303710938;
202, -4939.2094726562;
203, -4970.3491210938;
204, -4963.3969726562;
205, -4897.7768554688;
206, -4858.3452148438;
207, -4764.3872070312;
208, -4594.8559570312;
209, -4542.2314453125;
210, -3979.0310058594;
211, -3372.0349121094;
212, -2661.5747070312;
213, -3541.50390625;
214, -4212.6547851562;
215, -4377.677734375;
216, -4417.6762695312;
217, -4419.0004882812;
218, -4534.6997070312;
219, -4747.2358398438;
220, -4778.1162109375;
221, -4651.0483398438;
222, -4614.376953125;
223, -4706.7504882812;
224, -4742.8618164062;
225, -4765.4365234375;
226, -4849.5561523438;
227, -4794.833984375;
228, -4738.66015625;
229, -4785.8740234375;
230, -4756.6357421875;
231, -4673.7280273438;
232, -4714.38671875;
233, -4748.5380859375;
234, -4658.7958984375;
235, -4643.2104492188;
236, -4630.9462890625;
237, -4564.8950195312;
238, -4645.568359375;
239, -4687.0053710938;
240, -4668.78515625;
241, -4990.8969726562;
242, -4969.2573242188;
243, -4540.826171875;
244, -4610.4721679688;
245, -4489.3090820312;
246, -4330.2778320312;
247, -4812.4975585938;
248, -5177.7954101562;
249, -5045.8427734375;
250, -5047.279296875;
251, -4839.9775390625;
252, -4871.2543945312;
253, -4963.9858398438;
254, -4768.9223632812;
255, -4768.8950195312;
256, -4989.6298828125;
257, -5011.3232421875;
258, -4958.8911132812;
259, -4853.3950195312;
260, -4511.3051757812;
261, -4417.404296875;
262, -5333.2836914062;
263, -5362.9653320312;
264, -4927.1333007812;
265, -5377.1220703125;
266, -5426.560546875;
267, -4960.939453125;
268, -4972.9838867188;
269, -4822.0068359375;
270, -4774.5302734375;
271, -4478.7763671875;
272, -4820.7797851562;
273, -4740.8583984375;
274, -4993.5092773438;
275, -4889.619140625;
276, -4248.5927734375;
277, -4034.5732421875;
278, -4439.1411132812;
279, -4620.4536132812;
280, -4646.0537109375;
281, -4656.548828125;
282, -4748.6372070312;
283, -4406.0747070312;
284, -4111.9072265625;
285, -4493.49609375;
286, -4826.7822265625;
287, -4830.6430664062;
288, -4818.4428710938;
289, -4879.0478515625;
290, -4767.203125;
291, -4739.7182617188;
292, -4709.1962890625;
293, -4506.6586914062;
294, -4547.9697265625;
295, -4800.8330078125;
296, -4726.4760742188;
297, -4656.412109375;
298, -4475.30078125;
299, -4473.59765625;
300, -4790.4545898438;
301, -4828.4301757812;
302, -4540.0258789062;
303, -4626.4140625;
304, -4503.5073242188;
305, -3839.0686035156;
306, -3514.453125;
307, -4348.8745117188;
308, -4409.5361328125;
309, -4180.3471679688;
310, -4105.96875;
311, -4276.2758789062;
312, -4227.6069335938;
313, -4229.4697265625;
314, -4487.75;
315, -4302.9389648438;
316, -4239.7451171875;
317, -4012.3684082031;
318, -4577.8881835938;
319, -4421.6645507812;
320, -4507.4658203125;
321, -4460.939453125;
322, -4453.4140625;
323, -4638.5131835938;
324, -4651.8784179688;
325, -4548.6567382812;
326, -4601.3974609375;
327, -4619.0634765625;
328, -4535.6782226562;
329, -4623.87890625;
330, -4624.3984375;
331, -4689.3627929688;
332, -4864.3354492188;
333, -4901.3002929688;
334, -4751.7260742188;
335, -4692.0317382812;
336, -4794.1865234375;
337, -4888.8413085938;
338, -4838.0278320312;
339, -4916.0737304688;
340, -4882.5053710938;
341, -4817.3974609375;
342, -4825.0341796875;
343, -4745.859375;
344, -4707.8403320312;
345, -4779.0053710938;
346, -4781.1572265625;
347, -4712.763671875;
348, -4794.4389648438;
349, -4946.7729492188;
350, -4893.3955078125;
351, -4882.9926757812;
352, -4928.1733398438;
353, -4862.1103515625;
354, -4726.3061523438;
355, -4580.001953125;
356, -4547.1015625;
357, -4687.6884765625;
358, -4737.2646484375;
359, -4714.8818359375;
360, -4674.955078125;
361, -4646.6376953125;
362, -4734.9116210938;
363, -4723.3842773438;
364, -4735.9912109375;
365, -4741.6337890625;
366, -4607.0288085938;
367, -4355.40234375;
368, -4387.115234375;
369, -4537.5424804688;
370, -4556.3564453125;
371, -4676.8061523438;
372, -4807.9599609375;
373, -4799.072265625;
374, -4596.443359375;
375, -4488.345703125;
376, -4638.4741210938;
377, -4915.4267578125;
378, -4932.0668945312;
379, -4951.6284179688;
380, -4717.6557617188;
381, -4638.4921875;
382, -4819.5322265625;
383, -4848.9370117188;
384, -4754.0478515625;
385, -4842.4028320312;
386, -4957.3071289062;
387, -4905.8491210938;
388, -4899.1123046875;
389, -4899.4575195312;
390, -4858.0756835938;
391, -4741.0947265625;
392, -4736.4223632812;
393, -4820.5756835938;
394, -4725.2626953125;
395, -4664.2993164062;
396, -4659.4291992188;
397, -4839.6962890625;
398, -4756.94140625;
399, -4667.1518554688;
400, -4662.1020507812;
401, -4759.9794921875;
402, -4844.2626953125;
403, -5026.4921875;
404, -5069.2958984375;
405, -4765.6821289062;
406, -4835.2524414062;
407, -4774.0092773438;
408, -4691.048828125;
409, -4751.2978515625;
410, -4799.2670898438;
411, -4873.6977539062;
412, -4729.7060546875;
413, -4651.9399414062;
414, -4780.8276367188;
415, -4952.9262695312;
416, -5007.1069335938;
417, -5002.6220703125;
418, -4816.4501953125;
419, -4940.765625;
420, -4882.5698242188;
421, -4481.251953125;
422, -4643.0815429688;
423, -5049.9536132812;
424, -5071.9516601562;
425, -4946.0834960938;
426, -4942.501953125;
427, -4943.8203125;
428, -4963.3818359375;
429, -4901.1137695312;
430, -4781.6704101562;
431, -4780.8666992188;
432, -4755.3168945312;
433, -4795.0834960938;
434, -4850.4086914062;
435, -4855.708984375;
436, -4857.26953125;
437, -4796.966796875;
438, -4762.9428710938;
439, -4830.5126953125;
440, -4754.2211914062;
441, -4717.58203125;
442, -4698.7163085938;
443, -4495.583984375;
444, -4481.5727539062;
445, -4555.1791992188;
446, -4590.2939453125;
447, -4595.4389648438;
448, -4535.4067382812;
449, -4580.7998046875;
450, -4609.4697265625;
451, -4659.0546875;
452, -4629.2778320312;
453, -4584.6259765625;
454, -4678.5356445312;
455, -4732.9497070312;
456, -4762.5502929688;
457, -4783.0737304688;
458, -4690.8515625;
459, -4801.5268554688;
460, -4709.0092773438;
461, -4529.8198242188;
462, -4796.4643554688;
463, -4881.2802734375;
464, -4747.494140625;
465, -4691.1845703125;
466, -4635.720703125;
467, -4704.1162109375;
468, -4740.1684570312;
469, -4603.3022460938;
470, -4605.0893554688;
471, -4411.3969726562;
472, -4449.55859375;
473, -4520.619140625;
474, -4542.2338867188;
475, -4534.8618164062;
476, -4530.3232421875;
477, -4497.4125976562;
478, -4459.3359375;
479, -4401.2075195312;
480, -4512.0268554688;
481, -4527.8256835938;
482, -4546.0170898438;
483, -4622.0502929688;
484, -4632.50390625;
485, -4565.6235351562;
486, -4744.0444335938;
487, -4803.3046875;
488, -4757.3276367188;
489, -4709.255859375;
490, -4751.0522460938;
491, -4787.4370117188;
492, -4775.7993164062;
493, -4806.6665039062;
494, -4844.2729492188;
495, -4675.0717773438;
496, -4739.6181640625;
497, -4724.4965820312;
498, -4841.822265625;
499, -4896.9321289062;
