0, -3125.1032714844;
1, -3093.3129882812;
2, -3085.4274902344;
3, -2989.7136230469;
4, -2819.7553710938;
5, -3230.1677246094;
6, -3093.7670898438;
7, -3205.0207519531;
8, -3101.4995117188;
9, -3012.4282226562;
10, -3438.9497070312;
11, -3381.0285644531;
12, -2966.1943359375;
13, -3212.8688964844;
14, -3034.6999511719;
15, -3188.5703125;
16, -3149.8635253906;
17, -3264.0439453125;
18, -3270.2746582031;
19, -3119.2023925781;
20, -3009.1301269531;
21, -3033.5390625;
22, -2531.4626464844;
23, -3230.2697753906;
24, -2750.1203613281;
25, -2875.0009765625;
26, -3130.3571777344;
27, -2933.6535644531;
28, -3083.3579101562;
29, -3000.6325683594;
30, -3385.5476074219;
31, -3029.740234375;
32, -3265.494140625;
33, -3441.2155761719;
34, -3375.2854003906;
35, -3606.158203125;
36, -3615.3352050781;
37, -3494.9079589844;
38, -3243.8837890625;
39, -4018.8110351562;
40, -3818.7775878906;
41, -3727.0764160156;
42, -4102.1762695312;
43, -4314.7294921875;
44, -4157.8530273438;
45, -4035.4143066406;
46, -4212.623046875;
47, -4038.720703125;
48, -4050.4487304688;
49, -4268.7983398438;
50, -4235.6611328125;
51, -4407.5888671875;
52, -4288.4936523438;
53, -4253.8520507812;
54, -4392.6889648438;
55, -4641.3286132812;
56, -4344.3315429688;
57, -4198.7631835938;
58, -4203.4780273438;
59, -4445.1733398438;
60, -4356.2377929688;
61, -4393.9643554688;
62, -4451.7138671875;
63, -4418.8012695312;
64, -4797.8701171875;
65, -4464.7124023438;
66, -4603.0771484375;
67, -4237.6928710938;
68, -4352.34765625;
69, -4352.8828125;
70, -4585.0083007812;
71, -4777.5405273438;
72, -4722.5947265625;
73, -4733.4521484375;
74, -4839.91015625;
75, -4670.7309570312;
76, -4573.6713867188;
77, -4712.4536132812;
78, -4588.0864257812;
79, -4613.1879882812;
80, -4594.142578125;
81, -4881.9633789062;
82, -5060.4418945312;
83, -4353.86328125;
84, -3389.1088867188;
85, -3867.2622070312;
86, -5079.7221679688;
87, -5535.5620117188;
88, -5391.0483398438;
89, -5376.8022460938;
90, -5254.4770507812;
91, -5218.2836914062;
92, -5256.4282226562;
93, -5189.0395507812;
94, -5199.96484375;
95, -5204.2065429688;
96, -5099.8491210938;
97, -5153.328125;
98, -5018.4379882812;
99, -4967.490234375;
100, -4982.9497070312;
101, -4838.98046875;
102, -4632.2651367188;
103, -4705.9658203125;
104, -4509.3647460938;
105, -3523.8044433594;
106, -2195.447265625;
107, -4805.1015625;
108, -4902.9541015625;
109, -4902.6987304688;
110, -4865.8725585938;
111, -4831.0654296875;
112, -4589.8403320312;
113, -4506.3881835938;
114, -4576.013671875;
115, -4327.9951171875;
116, -4072.8359375;
117, -3898.1418457031;
118, -3740.9331054688;
119, -3612.5349121094;
120, -3612.0229492188;
121, -3670.3237304688;
122, -3698.2006835938;
123, -3728.6481933594;
124, -3751.2211914062;
125, -3756.0517578125;
126, -3756.9384765625;
127, -3787.7409667969;
128, -3681.0231933594;
129, -3256.6706542969;
130, -2745.9636230469;
131, -2476.8591308594;
132, -2232.701171875;
133, -2089.4455566406;
134, -2035.1107177734;
135, -1799.5229492188;
136, -1645.3985595703;
137, -1470.546875;
138, -2237.888671875;
139, -2183.8647460938;
140, -1322.5689697266;
141, -2585.8010253906;
142, -3587.6921386719;
143, -3784.77734375;
144, -3829.8620605469;
145, -3629.4802246094;
146, -3709.357421875;
147, -3492.978515625;
148, -3553.9116210938;
149, -3727.1743164062;
150, -4029.6811523438;
151, -3996.0817871094;
152, -4158.939453125;
153, -4148.3100585938;
154, -4737.6987304688;
155, -4627.7416992188;
156, -4274.66015625;
157, -3742.6135253906;
158, -3525.6000976562;
159, -4124.0092773438;
160, -4971.12890625;
161, -4191.8818359375;
162, -4319.8662109375;
163, -4140.4404296875;
164, -4077.5026855469;
165, -3947.3798828125;
166, -4179.8989257812;
167, -3973.8093261719;
168, -4008.0180664062;
169, -3788.8671875;
170, -3234.6179199219;
171, -3048.2575683594;
172, -2732.0417480469;
173, -3207.7145996094;
174, -3588.7482910156;
175, -3385.75390625;
176, -3687.4177246094;
177, -3912.4147949219;
178, -4078.1389160156;
179, -4010.2551269531;
180, -3762.6560058594;
181, -4257.7939453125;
182, -4423.0541992188;
183, -4080.5485839844;
184, -4027.3820800781;
185, -3833.9907226562;
186, -4070.9719238281;
187, -3990.2502441406;
188, -4049.5703125;
189, -4130.3481445312;
190, -4438.20703125;
191, -4245.3002929688;
192, -4108.6557617188;
193, -4141.4721679688;
194, -4053.3088378906;
195, -3971.5114746094;
196, -4012.8327636719;
197, -4022.1418457031;
198, -4096.2060546875;
199, -4173.5009765625;
200, -3979.2770996094;
201, -3916.5930175781;
202, -2424.3132324219;
203, -3875.3752441406;
204, -3742.646484375;
205, -3440.0837402344;
206, -1887.2852783203;
207, -982.66461181641;
208, -149.12838745117;
209, -118.29752349854;
210, -111.62894439697;
211, -122.14321899414;
212, -103.99336242676;
213, -107.45965576172;
214, -126.17604064941;
215, -147.70864868164;
216, -94.248161315918;
217, -250.47924804688;
218, -1868.2093505859;
219, -1906.4885253906;
220, -2006.4332275391;
221, -3860.0017089844;
222, -4423.5122070312;
223, -4363.107421875;
224, -4339.0185546875;
225, -4291.2060546875;
226, -4088.3466796875;
227, -4191.9111328125;
228, -4348.765625;
229, -4221.3549804688;
230, -4101.8627929688;
231, -4173.4907226562;
232, -4278.9213867188;
233, -4062.2919921875;
234, -4187.736328125;
235, -4073.8684082031;
236, -4119.7758789062;
237, -4360.0883789062;
238, -4539.4692382812;
239, -4463.837890625;
240, -4548.3256835938;
241, -4333.2880859375;
242, -4410.029296875;
243, -4292.3408203125;
244, -4536.6181640625;
245, -4142.0561523438;
246, -4649.37109375;
247, -4194.556640625;
248, -5004.85546875;
249, -5179.0483398438;
250, -4386.09375;
251, -4601.6611328125;
252, -5118.2250976562;
253, -5106.1079101562;
254, -4812.2163085938;
255, -4949.0795898438;
256, -5138.298828125;
257, -5211.8540039062;
258, -5118.8647460938;
259, -4868.2006835938;
260, -4945.732421875;
261, -4925.5405273438;
262, -5054.4296875;
263, -5199.6450195312;
264, -4526.0043945312;
265, -4676.4931640625;
266, -4716.4814453125;
267, -4956.7221679688;
268, -5083.869140625;
269, -5241.7553710938;
270, -4952.5400390625;
271, -5123.8173828125;
272, -4855.0131835938;
273, -4804.3647460938;
274, -4773.5112304688;
275, -4768.2250976562;
276, -4717.7583007812;
277, -4458.5756835938;
278, -4341.2475585938;
279, -4656.5654296875;
280, -4641.9833984375;
281, -4535.1606445312;
282, -4540.5385742188;
283, -4683.09375;
284, -4710.0708007812;
285, -4765.8471679688;
286, -4867.28125;
287, -4907.74609375;
288, -5040.939453125;
289, -4864.7700195312;
290, -4406.7856445312;
291, -5635.0913085938;
292, -5647.8388671875;
293, -4756.0419921875;
294, -4949.275390625;
295, -4736.26171875;
296, -4871.6567382812;
297, -4641.3935546875;
298, -4481.7680664062;
299, -4487.359375;
300, -4530.9189453125;
301, -4479.578125;
302, -4503.7075195312;
303, -4605.2739257812;
304, -4517.1840820312;
305, -4525.7788085938;
306, -4574.0961914062;
307, -4605.17578125;
308, -4483.5366210938;
309, -4498.431640625;
310, -4476.6215820312;
311, -4475.3115234375;
312, -4277.5546875;
313, -4369.2861328125;
314, -4426.705078125;
315, -4427.5380859375;
316, -4382.4013671875;
317, -4269.5112304688;
318, -4234.9521484375;
319, -4131.6713867188;
320, -4238.6591796875;
321, -3952.1420898438;
322, -3751.8125;
323, -4117.2583007812;
324, -4167.5659179688;
325, -4166.6645507812;
326, -4557.4155273438;
327, -4154.5590820312;
328, -3835.5439453125;
329, -3866.9201660156;
330, -4103.5141601562;
331, -4025.9204101562;
332, -3962.2277832031;
333, -3992.8210449219;
334, -3822.5170898438;
335, -3911.0434570312;
336, -3904.875;
337, -3767.9111328125;
338, -3767.1555175781;
339, -3873.0856933594;
340, -3835.7604980469;
341, -3708.2270507812;
342, -3770.6428222656;
343, -3528.4084472656;
344, -3568.8686523438;
345, -3425.4860839844;
346, -3481.5930175781;
347, -3363.0187988281;
348, -3289.3688964844;
349, -3218.18359375;
350, -3308.2329101562;
351, -3206.6806640625;
352, -3247.2307128906;
353, -3138.4777832031;
354, -3157.4152832031;
355, -3066.4899902344;
356, -3019.9934082031;
357, -2939.5725097656;
358, -2878.1818847656;
359, -2888.9597167969;
360, -2780.7097167969;
361, -2768.0151367188;
362, -2846.5756835938;
363, -2534.7919921875;
364, -2850.8503417969;
365, -2740.3552246094;
366, -2677.7338867188;
367, -2811.3872070312;
368, -2920.1481933594;
369, -2990.0483398438;
370, -2531.6081542969;
371, -3180.0771484375;
372, -3091.1469726562;
373, -3151.80859375;
374, -3376.7556152344;
375, -3095.0007324219;
376, -3281.4353027344;
377, -3332.251953125;
378, -3193.5700683594;
379, -3288.6721191406;
380, -3191.7065429688;
381, -3393.59375;
382, -3346.7924804688;
383, -3325.6252441406;
384, -3625.2958984375;
385, -3426.4931640625;
386, -3737.1826171875;
387, -3802.9919433594;
388, -3478.1174316406;
389, -3688.4423828125;
390, -3767.6435546875;
391, -3586.6091308594;
392, -3785.1220703125;
393, -3729.2690429688;
394, -3989.576171875;
395, -3243.0258789062;
396, -3661.1667480469;
397, -3680.619140625;
398, -3621.197265625;
399, -3690.8374023438;
400, -3029.4367675781;
401, -3795.07421875;
402, -3838.7355957031;
403, -3981.2292480469;
404, -4082.4880371094;
405, -4051.2922363281;
406, -4445.1767578125;
407, -4293.611328125;
408, -4365.7739257812;
409, -4352.8764648438;
410, -4416.8393554688;
411, -4290.0166015625;
412, -4245.4418945312;
413, -4261.3813476562;
414, -4306.5112304688;
415, -4180.783203125;
416, -4378.4111328125;
417, -4472.0288085938;
418, -4464.4228515625;
419, -4147.1259765625;
420, -4245.7670898438;
421, -4155.5053710938;
422, -4050.5151367188;
423, -4228.1547851562;
424, -4348.0375976562;
425, -4309.7583007812;
426, -4420.2099609375;
427, -4416.1440429688;
428, -4534.9287109375;
429, -4642.1044921875;
430, -4614.3579101562;
431, -4563.822265625;
432, -4630.271484375;
433, -4617.1577148438;
434, -4558.5834960938;
435, -4744.9375;
436, -5120.7353515625;
437, -4420.3081054688;
438, -4649.3686523438;
439, -4788.3452148438;
440, -4785.19921875;
441, -4630.5400390625;
442, -4655.12109375;
443, -4435.9169921875;
444, -4488.6713867188;
445, -4389.9565429688;
446, -4441.3291015625;
447, -4002.8566894531;
448, -2983.18359375;
449, -4292.1948242188;
450, -3688.0598144531;
451, -4571.5483398438;
452, -4450.6767578125;
453, -4468.7055664062;
454, -4525.7021484375;
455, -4137.1772460938;
456, -4253.0317382812;
457, -4184.8432617188;
458, -4027.7836914062;
459, -4086.7761230469;
460, -4189.09765625;
461, -4286.4184570312;
462, -3947.2937011719;
463, -2362.2307128906;
464, -3502.568359375;
465, -4186.990234375;
466, -4054.3852539062;
467, -3139.5922851562;
468, -4245.59375;
469, -4579.7026367188;
470, -4475.6704101562;
471, -4507.853515625;
472, -4605.0112304688;
473, -4710.2934570312;
474, -4623.8374023438;
475, -4570.4106445312;
476, -4544.9975585938;
477, -4423.7431640625;
478, -4576.6298828125;
479, -4348.732421875;
480, -4360.4975585938;
481, -4447.1840820312;
482, -3924.1057128906;
483, -4324.8876953125;
484, -4182.5141601562;
485, -4128.0825195312;
486, -4293.5859375;
487, -4268.1943359375;
488, -4203.6040039062;
489, -4251.62109375;
490, -4269.259765625;
491, -4186.1645507812;
492, -4007.0986328125;
493, -4221.4204101562;
494, -4004.5600585938;
495, -4224.2973632812;
496, -4180.7875976562;
497, -4107.4931640625;
498, -4284.4267578125;
499, -4212.1977539062;
