0, -5024.7104492188;
1, -5522.5141601562;
2, -5454.0102539062;
3, -5380.40234375;
4, -5781.8935546875;
5, -5412.5375976562;
6, -5206.9736328125;
7, -5407.6538085938;
8, -5312.412109375;
9, -5381.0205078125;
10, -5128.6665039062;
11, -5797.5200195312;
12, -5270.61328125;
13, -5056.4443359375;
14, -5334.8793945312;
15, -5529.2563476562;
16, -5497.13671875;
17, -5562.373046875;
18, -5546.0639648438;
19, -5538.9350585938;
20, -5235.5546875;
21, -5445.865234375;
22, -5340.04296875;
23, -5209.9169921875;
24, -5168.896484375;
25, -5375.7890625;
26, -5298.4477539062;
27, -5394.1958007812;
28, -5024.1958007812;
29, -5544.9028320312;
30, -5113.4106445312;
31, -5322.4794921875;
32, -5042.33203125;
33, -4994.806640625;
34, -5130.4111328125;
35, -5463.4208984375;
36, -5481.103515625;
37, -5397.2685546875;
38, -4933.2373046875;
39, -5673.9868164062;
40, -4933.8627929688;
41, -5338.658203125;
42, -4943.3295898438;
43, -5502.740234375;
44, -5280.5185546875;
45, -4879.1372070312;
46, -4683.0068359375;
47, -4939.4497070312;
48, -4864.5268554688;
49, -5147.9438476562;
50, -4970.5327148438;
51, -4653.3935546875;
52, -4800.701171875;
53, -4551.2197265625;
54, -4465.1147460938;
55, -4390.9287109375;
56, -4509.4750976562;
57, -4402.232421875;
58, -5151.6630859375;
59, -4316.8125;
60, -5256.6333007812;
61, -4369.5551757812;
62, -4654.7275390625;
63, -4619.625;
64, -4517.8139648438;
65, -4390.6005859375;
66, -4494.896484375;
67, -4472.6821289062;
68, -4611.5405273438;
69, -4299.5024414062;
70, -4310.376953125;
71, -4378.2358398438;
72, -4497.7690429688;
73, -4747.8837890625;
74, -3981.1218261719;
75, -4463.4379882812;
76, -4331.2778320312;
77, -4216.6430664062;
78, -4049.1242675781;
79, -3968.7731933594;
80, -4094.716796875;
81, -3921.6350097656;
82, -4078.4367675781;
83, -3888.1154785156;
84, -3896.2048339844;
85, -3840.0539550781;
86, -3595.7504882812;
87, -3991.9228515625;
88, -3653.8823242188;
89, -3769.9565429688;
90, -3582.0334472656;
91, -3938.8608398438;
92, -3813.6040039062;
93, -3542.5549316406;
94, -3532.3425292969;
95, -3901.0358886719;
96, -3622.9370117188;
97, -3318.7155761719;
98, -3329.619140625;
99, -3246.4938964844;
100, -3863.6872558594;
101, -3634.8862304688;
102, -2971.1232910156;
103, -3461.4067382812;
104, -2859.7294921875;
105, -2559.8688964844;
106, -2195.1833496094;
107, -2922.5849609375;
108, -2208.6650390625;
109, -2916.2890625;
110, -2812.8427734375;
111, -2606.7668457031;
112, -2692.017578125;
113, -2803.4973144531;
114, -2297.9367675781;
115, -1965.7080078125;
116, -1825.8852539062;
117, -3394.0639648438;
118, -3023.0817871094;
119, -2992.662109375;
120, -2548.5786132812;
121, -3478.2077636719;
122, -2842.2858886719;
123, -3146.0288085938;
124, -3126.8269042969;
125, -2977.1994628906;
126, -3104.162109375;
127, -2979.9514160156;
128, -3105.5744628906;
129, -3236.0107421875;
130, -3130.3349609375;
131, -3103.8498535156;
132, -3111.6357421875;
133, -3014.3024902344;
134, -3309.0336914062;
135, -3020.1628417969;
136, -2925.7678222656;
137, -3137.1838378906;
138, -3143.4611816406;
139, -3073.4963378906;
140, -3316.2365722656;
141, -3493.7028808594;
142, -3183.0908203125;
143, -3180.76171875;
144, -3055.9099121094;
145, -3419.4833984375;
146, -3508.6049804688;
147, -3116.2412109375;
148, -3187.5051269531;
149, -2813.9008789062;
150, -2921.3876953125;
151, -3178.5288085938;
152, -3048.6853027344;
153, -3252.9760742188;
154, -3074.56640625;
155, -2830.4084472656;
156, -2464.072265625;
157, -2314.0705566406;
158, -2216.1286621094;
159, -2379.8955078125;
160, -2471.1735839844;
161, -2798.9645996094;
162, -2464.8513183594;
163, -3033.4692382812;
164, -3529.478515625;
165, -4061.0480957031;
166, -3535.7705078125;
167, -3227.2973632812;
168, -2892.91796875;
169, -3097.59765625;
170, -3343.8820800781;
171, -2895.7978515625;
172, -3012.9797363281;
173, -2886.7458496094;
174, -2913.6589355469;
175, -2830.4174804688;
176, -2682.1499023438;
177, -2663.5756835938;
178, -2470.4565429688;
179, -2614.3698730469;
180, -2622.7019042969;
181, -2732.6794433594;
182, -3046.3425292969;
183, -2275.6604003906;
184, -2955.6506347656;
185, -2810.3374023438;
186, -2516.1179199219;
187, -2449.2653808594;
188, -3062.2221679688;
189, -3142.2568359375;
190, -2621.4619140625;
191, -1862.9915771484;
192, -2608.2736816406;
193, -2531.0322265625;
194, -2716.7624511719;
195, -3063.6030273438;
196, -3245.056640625;
197, -2227.2890625;
198, -4971.919921875;
199, -2265.6589355469;
200, -3128.8171386719;
201, -3320.9821777344;
202, -3382.3444824219;
203, -3196.6140136719;
204, -3499.7670898438;
205, -4004.9748535156;
206, -3637.0400390625;
207, -3909.8930664062;
208, -3620.1872558594;
209, -3791.5822753906;
210, -4374.2919921875;
211, -4498.2998046875;
212, -4542.1596679688;
213, -4489.6357421875;
214, -4587.0908203125;
215, -4429.4780273438;
216, -4877.07421875;
217, -5074.7749023438;
218, -5011.6791992188;
219, -5265.7529296875;
220, -5217.6435546875;
221, -5375.3916015625;
222, -5311.3706054688;
223, -5231.3403320312;
224, -5374.744140625;
225, -5376.970703125;
226, -5353.2036132812;
227, -5360.734375;
228, -5373.0771484375;
229, -5359.1767578125;
230, -5358.2319335938;
231, -5352.1381835938;
232, -5307.6889648438;
233, -5290.4350585938;
234, -5285.6645507812;
235, -5126.9702148438;
236, -5358.6708984375;
237, -5418.5454101562;
238, -5294.2651367188;
239, -5077.490234375;
240, -4745.1860351562;
241, -4709.18359375;
242, -4562.6440429688;
243, -4599.0249023438;
244, -4545.1459960938;
245, -4513.1752929688;
246, -4840.6064453125;
247, -5066.2314453125;
248, -5082.0473632812;
249, -4724.5131835938;
250, -4620.4541015625;
251, -4453.0961914062;
252, -4091.0422363281;
253, -3341.2253417969;
254, -3008.4919433594;
255, -2906.9521484375;
256, -2797.6259765625;
257, -2885.9086914062;
258, -3333.8840332031;
259, -3497.1057128906;
260, -3568.9565429688;
261, -3917.0222167969;
262, -4032.3127441406;
263, -4177.7221679688;
264, -4122.49609375;
265, -3936.8403320312;
266, -4031.2436523438;
267, -4195.4892578125;
268, -4134.130859375;
269, -3959.2170410156;
270, -3607.1733398438;
271, -3685.1870117188;
272, -3759.5126953125;
273, -3749.4680175781;
274, -3435.24609375;
275, -3010.6372070312;
276, -2946.7126464844;
277, -2912.6906738281;
278, -2799.7893066406;
279, -2675.3415527344;
280, -2610.6105957031;
281, -2797.6206054688;
282, -1834.3514404297;
283, -604.47003173828;
284, -227.33010864258;
285, 30.015474319458;
286, 49.410633087158;
287, 37.57975769043;
288, 28.709568023682;
289, 293.8850402832;
290, 580.09527587891;
291, 823.06793212891;
292, 935.59448242188;
293, 1145.5167236328;
294, 1317.3666992188;
295, 1424.5297851562;
296, 1553.2687988281;
297, 1653.9711914062;
298, 1746.9744873047;
299, 1812.5745849609;
300, 2188.4204101562;
301, 2354.3024902344;
302, 2433.4379882812;
303, 2461.7800292969;
304, 2513.2583007812;
305, 2559.1166992188;
306, 2599.677734375;
307, 2633.1247558594;
308, 2685.4448242188;
309, 2749.6821289062;
310, 2800.3273925781;
311, 2854.12109375;
312, 2897.1528320312;
313, 2934.6462402344;
314, 2970.4306640625;
315, 3018.53125;
316, 3050.1477050781;
317, 3107.9577636719;
318, 3135.453125;
319, 3153.5202636719;
320, 3158.8422851562;
321, 3143.2209472656;
322, 3111.3786621094;
323, 3067.2080078125;
324, 3003.8806152344;
325, 2931.0942382812;
326, 2866.5029296875;
327, 2815.8671875;
328, 2752.244140625;
329, 2664.8088378906;
330, 2564.6899414062;
331, 2400.3671875;
332, 2294.3513183594;
333, 2107.6186523438;
334, 1980.9603271484;
335, 1809.7976074219;
336, 1574.7458496094;
337, 1335.4787597656;
338, 1132.3311767578;
339, 905.60632324219;
340, 723.26647949219;
341, 267.26477050781;
342, 219.01626586914;
343, 189.49816894531;
344, 1476.0526123047;
345, 936.58642578125;
346, 867.34020996094;
347, 1087.7344970703;
348, 1200.7459716797;
349, 1348.7327880859;
350, 1504.0067138672;
351, 1654.2565917969;
352, 1820.9705810547;
353, 2013.2626953125;
354, 2216.6196289062;
355, 2336.1672363281;
356, 2422.0466308594;
357, 2503.8981933594;
358, 2588.8828125;
359, 2667.2346191406;
360, 2710.6850585938;
361, 2754.4184570312;
362, 2813.1750488281;
363, 2845.138671875;
364, 2857.8442382812;
365, 2889.9528808594;
366, 2904.8286132812;
367, 2900.125;
368, 2904.4956054688;
369, 2904.3395996094;
370, 2892.3139648438;
371, 2884.1181640625;
372, 2864.982421875;
373, 2867.8212890625;
374, 2849.6564941406;
375, 2847.1867675781;
376, 2829.9868164062;
377, 2827.4501953125;
378, 2841.2141113281;
379, 2842.7141113281;
380, 2815.9467773438;
381, 2797.2963867188;
382, 2774.6943359375;
383, 2745.2854003906;
384, 2710.7502441406;
385, 2667.796875;
386, 2612.5444335938;
387, 2536.2119140625;
388, 2426.7465820312;
389, 2369.5634765625;
390, 2250.0979003906;
391, 2131.0483398438;
392, 2012.5633544922;
393, 1985.4100341797;
394, 1963.0791015625;
395, 1915.1418457031;
396, 1875.1936035156;
397, 1811.4475097656;
398, 1760.1671142578;
399, 1782.3603515625;
400, 1758.7706298828;
401, 1763.0330810547;
402, 1756.6315917969;
403, 1655.4366455078;
404, 1452.1463623047;
405, 1454.9653320312;
406, 1093.2694091797;
407, 329.94744873047;
408, -609.27154541016;
409, -1195.0646972656;
410, -718.22802734375;
411, -685.38043212891;
412, -717.00665283203;
413, -580.08575439453;
414, -407.40753173828;
415, -2212.3229980469;
416, -2803.0827636719;
417, -2854.6809082031;
418, -2688.4094238281;
419, -2908.494140625;
420, -3173.5893554688;
421, -3039.0883789062;
422, -2872.1540527344;
423, -2828.705078125;
424, -3119.5629882812;
425, -3376.2685546875;
426, -3692.5739746094;
427, -3662.4128417969;
428, -3746.1127929688;
429, -3910.1447753906;
430, -4001.4831542969;
431, -4021.6594238281;
432, -4087.2731933594;
433, -4200.5209960938;
434, -4208.7622070312;
435, -4244.8935546875;
436, -4258.9448242188;
437, -4337.0522460938;
438, -4361.4794921875;
439, -4384.3427734375;
440, -4379.6220703125;
441, -4358.8061523438;
442, -4401.3510742188;
443, -4410.0322265625;
444, -4366.30859375;
445, -4360.990234375;
446, -4432.0649414062;
447, -4504.3618164062;
448, -4567.3076171875;
449, -4592.0112304688;
450, -4598.2138671875;
451, -4591.7827148438;
452, -4595.7348632812;
453, -4612.955078125;
454, -4641.1083984375;
455, -4686.8266601562;
456, -4698.6352539062;
457, -4725.0981445312;
458, -4724.3139648438;
459, -4719.6435546875;
460, -4696.2475585938;
461, -4727.4741210938;
462, -4715.8393554688;
463, -4652.7407226562;
464, -4700.7670898438;
465, -4676.5263671875;
466, -4660.064453125;
467, -4694.2338867188;
468, -4635.3491210938;
469, -4681.7578125;
470, -4642.66015625;
471, -4647.5708007812;
472, -4565.9750976562;
473, -4702.3500976562;
474, -4715.5859375;
475, -4474.591796875;
476, -4543.3208007812;
477, -4591.5380859375;
478, -4663.5419921875;
479, -4620.732421875;
480, -4638.3803710938;
481, -4817.3984375;
482, -4293.9384765625;
483, -4361.59375;
484, -4140.0400390625;
485, -3908.2172851562;
486, -3890.7028808594;
487, -3793.2387695312;
488, -3665.0927734375;
489, -3733.7143554688;
490, -3746.8530273438;
491, -3619.6860351562;
492, -3403.2299804688;
493, -3266.0212402344;
494, -3394.4338378906;
495, -3347.2165527344;
496, -3422.2534179688;
497, -3421.615234375;
498, -3591.2014160156;
499, -3868.7641601562;
