0, -4303.58203125;
1, -3592.0300292969;
2, -3714.2492675781;
3, -4027.9057617188;
4, -4273.5947265625;
5, -4203.65625;
6, -3610.5852050781;
7, -3887.5771484375;
8, -4395.6665039062;
9, -3672.9216308594;
10, -3905.8176269531;
11, -4268.2680664062;
12, -3905.6030273438;
13, -3651.2009277344;
14, -3700.7958984375;
15, -3928.845703125;
16, -3807.3823242188;
17, -3669.1440429688;
18, -3799.7241210938;
19, -3979.4731445312;
20, -4340.4609375;
21, -4060.8068847656;
22, -3762.9865722656;
23, -3701.4741210938;
24, -4076.4772949219;
25, -4557.8559570312;
26, -4446.3525390625;
27, -3932.7573242188;
28, -4049.8376464844;
29, -4253.3012695312;
30, -4115.1420898438;
31, -4106.9921875;
32, -4152.5151367188;
33, -4273.1235351562;
34, -3929.7302246094;
35, -4067.3200683594;
36, -3996.6291503906;
37, -3925.7272949219;
38, -3897.49609375;
39, -4071.8305664062;
40, -3659.576171875;
41, -3673.3637695312;
42, -3942.0598144531;
43, -3867.0720214844;
44, -3835.6196289062;
45, -3774.7761230469;
46, -3689.0830078125;
47, -3676.5234375;
48, -3688.6394042969;
49, -3589.5847167969;
50, -3632.4484863281;
51, -3259.6625976562;
52, -3416.6989746094;
53, -3344.7922363281;
54, -3313.5095214844;
55, -3539.4162597656;
56, -3048.3525390625;
57, -3003.2946777344;
58, -3060.5280761719;
59, -2976.7993164062;
60, -3022.2810058594;
61, -2985.8815917969;
62, -2717.2438964844;
63, -2795.5805664062;
64, -2660.8195800781;
65, -2789.9489746094;
66, -2964.4382324219;
67, -2746.5390625;
68, -2714.2719726562;
69, -2738.1469726562;
70, -2515.43359375;
71, -2551.1618652344;
72, -2809.1704101562;
73, -1713.5684814453;
74, -2773.9567871094;
75, -2497.9113769531;
76, -2731.0021972656;
77, -2176.7260742188;
78, -1117.3630371094;
79, -1604.7501220703;
80, -1938.7944335938;
81, -2330.9841308594;
82, -1767.7717285156;
83, -2163.8874511719;
84, -2065.189453125;
85, -2160.0876464844;
86, -2380.9973144531;
87, -2176.8955078125;
88, -2343.5727539062;
89, -2437.748046875;
90, -2390.9265136719;
91, -2188.8666992188;
92, -2426.6557617188;
93, -2560.0546875;
94, -2424.9870605469;
95, -2757.0158691406;
96, -2424.5026855469;
97, -2179.7077636719;
98, -2031.6749267578;
99, -2144.2717285156;
100, -2260.8879394531;
101, -2144.5063476562;
102, -2177.1452636719;
103, -2171.8798828125;
104, -1919.8104248047;
105, -1396.5776367188;
106, -1992.8937988281;
107, -1979.4783935547;
108, -2264.6027832031;
109, -2558.2866210938;
110, -2685.2033691406;
111, -2596.2534179688;
112, -2620.654296875;
113, -2505.9599609375;
114, -2517.5744628906;
115, -2513.9509277344;
116, -2490.6796875;
117, -1662.6389160156;
118, -2353.7121582031;
119, -2601.5520019531;
120, -2503.7631835938;
121, -2215.6298828125;
122, -2087.2517089844;
123, -1123.6219482422;
124, -328.54797363281;
125, 558.69830322266;
126, -994.40557861328;
127, -1646.1574707031;
128, -1726.1452636719;
129, -1825.7626953125;
130, -1924.8044433594;
131, -1619.5648193359;
132, -1993.9776611328;
133, -2625.6760253906;
134, -2858.9262695312;
135, -3541.4631347656;
136, -3583.8605957031;
137, -3240.529296875;
138, -3375.0336914062;
139, -2920.5671386719;
140, -4534.4072265625;
141, -4348.3627929688;
142, -4567.49609375;
143, -4663.0209960938;
144, -4364.81640625;
145, -4693.919921875;
146, -4835.5732421875;
147, -4882.3979492188;
148, -5068.4565429688;
149, -4629.4536132812;
150, -4372.8994140625;
151, -4906.6791992188;
152, -5060.90625;
153, -5156.845703125;
154, -4978.8588867188;
155, -4966.3393554688;
156, -5268.14453125;
157, -4833.3872070312;
158, -5257.1640625;
159, -5373.3393554688;
160, -5389.259765625;
161, -5297.9106445312;
162, -5325.7006835938;
163, -5395.3037109375;
164, -5384.923828125;
165, -5360.5629882812;
166, -5350.130859375;
167, -5305.4702148438;
168, -5329.3403320312;
169, -5306.6259765625;
170, -5273.439453125;
171, -5259.1215820312;
172, -5231.7275390625;
173, -5183.3569335938;
174, -5182.4853515625;
175, -5132.1313476562;
176, -5082.6484375;
177, -5045.3129882812;
178, -5048.4873046875;
179, -5031.0512695312;
180, -5013.9624023438;
181, -4994.4233398438;
182, -4859.3286132812;
183, -4933.6689453125;
184, -4970.7426757812;
185, -4957.6533203125;
186, -4930.3422851562;
187, -4939.82421875;
188, -4935.3100585938;
189, -4914.0283203125;
190, -4915.33203125;
191, -4872.3491210938;
192, -4877.802734375;
193, -4870.6674804688;
194, -4858.5146484375;
195, -4833.033203125;
196, -4807.6704101562;
197, -4785.9418945312;
198, -4760.6538085938;
199, -4741.3666992188;
200, -4724.12109375;
201, -4694.2856445312;
202, -4661.3579101562;
203, -4634.7783203125;
204, -4610.1044921875;
205, -4595.3969726562;
206, -4578.451171875;
207, -4565.7270507812;
208, -4545.177734375;
209, -4502.6928710938;
210, -4460.7651367188;
211, -4470.1469726562;
212, -4426.779296875;
213, -4386.2124023438;
214, -4354.9057617188;
215, -4340.419921875;
216, -4298.3286132812;
217, -4233.978515625;
218, -4156.8720703125;
219, -4110.1323242188;
220, -4045.4116210938;
221, -3953.4829101562;
222, -3852.26953125;
223, -3768.4421386719;
224, -3700.7575683594;
225, -3656.9626464844;
226, -3584.751953125;
227, -3538.4143066406;
228, -3375.3088378906;
229, -2703.6030273438;
230, -1403.9617919922;
231, -3209.2287597656;
232, -3215.8427734375;
233, -3131.4948730469;
234, -3105.814453125;
235, -3101.9990234375;
236, -3050.1137695312;
237, -2981.2980957031;
238, -2949.2133789062;
239, -2888.3449707031;
240, -2822.4245605469;
241, -2762.146484375;
242, -2656.4890136719;
243, -2553.2023925781;
244, -2502.9494628906;
245, -2384.0327148438;
246, -2310.0534667969;
247, -2190.369140625;
248, -2184.6142578125;
249, -2008.3806152344;
250, -1826.2062988281;
251, -1659.9224853516;
252, -1331.1298828125;
253, -1232.6810302734;
254, -1135.4268798828;
255, -1133.6707763672;
256, -629.71765136719;
257, -327.8991394043;
258, -96.414939880371;
259, -71.984870910645;
260, -61.916210174561;
261, -56.556835174561;
262, -40.080425262451;
263, -30.730613708496;
264, 1.0817450284958;
265, 14.994463920593;
266, 19.820699691772;
267, 29.056798934937;
268, 25.998237609863;
269, 38.197345733643;
270, 36.58459854126;
271, 34.921878814697;
272, 50.037254333496;
273, 55.684436798096;
274, 54.570934295654;
275, 54.563655853271;
276, 52.239345550537;
277, 51.775535583496;
278, 49.663330078125;
279, 45.012294769287;
280, 39.511207580566;
281, 35.102703094482;
282, 44.640617370605;
283, 47.52799987793;
284, 42.726627349854;
285, 36.952816009521;
286, 55.22745513916;
287, 56.035583496094;
288, 34.658054351807;
289, 25.926563262939;
290, 9.7689609527588;
291, 2.5214343070984;
292, 10.676249504089;
293, 10.934623718262;
294, 9.4212799072266;
295, 16.110872268677;
296, 22.178312301636;
297, 23.150997161865;
298, 26.396543502808;
299, 19.208576202393;
300, 46.747634887695;
301, 47.402492523193;
302, 47.821002960205;
303, 54.357727050781;
304, 65.168426513672;
305, 48.541957855225;
306, 29.722986221313;
307, 41.508964538574;
308, 41.20711517334;
309, 41.008255004883;
310, 34.664569854736;
311, 17.21502494812;
312, 9.1611785888672;
313, 11.962266921997;
314, 9.8303985595703;
315, 15.653405189514;
316, 33.822372436523;
317, 33.941513061523;
318, 50.101848602295;
319, 55.919624328613;
320, 66.422058105469;
321, 73.699996948242;
322, 73.368698120117;
323, 68.872451782227;
324, 70.624847412109;
325, 37.327018737793;
326, 51.519115447998;
327, 64.54663848877;
328, 66.919067382812;
329, 60.018245697021;
330, 66.794281005859;
331, 63.500583648682;
332, 67.841361999512;
333, 61.586406707764;
334, 65.823081970215;
335, 68.416152954102;
336, 44.547092437744;
337, 67.736236572266;
338, 62.293243408203;
339, 67.905632019043;
340, 63.751705169678;
341, 94.021873474121;
342, 97.600090026855;
343, 82.471992492676;
344, 122.60719299316;
345, 108.35368347168;
346, 87.824607849121;
347, 68.607711791992;
348, 95.429656982422;
349, 413.91488647461;
350, 408.3564453125;
351, 651.13360595703;
352, 1193.0356445312;
353, 1007.4743041992;
354, 892.60388183594;
355, 864.57312011719;
356, 758.72717285156;
357, 832.92639160156;
358, 725.00372314453;
359, 679.40649414062;
360, 805.85424804688;
361, 728.38610839844;
362, 812.89282226562;
363, 730.14678955078;
364, 665.35723876953;
365, 844.44860839844;
366, 657.06610107422;
367, 465.55364990234;
368, 462.89038085938;
369, 480.05996704102;
370, 374.82238769531;
371, 418.23120117188;
372, 445.14205932617;
373, 483.75198364258;
374, 461.13723754883;
375, 426.83102416992;
376, 467.19732666016;
377, 759.64086914062;
378, 448.95248413086;
379, 444.80062866211;
380, 397.74368286133;
381, 373.61642456055;
382, 430.38677978516;
383, 278.76919555664;
384, 244.2548828125;
385, 268.75283813477;
386, 201.43040466309;
387, 212.45361328125;
388, 224.85751342773;
389, 243.95701599121;
390, 458.96731567383;
391, 341.38751220703;
392, 260.05001831055;
393, 329.55322265625;
394, 375.76336669922;
395, 205.40791320801;
396, 143.02746582031;
397, 221.36863708496;
398, 105.41802215576;
399, 112.98340606689;
400, 105.50786590576;
401, 117.29107666016;
402, 120.56890869141;
403, 126.13170623779;
404, 65.172653198242;
405, 30.554319381714;
406, 52.288906097412;
407, 39.807720184326;
408, 5.5960030555725;
409, -28.307321548462;
410, -56.905620574951;
411, -70.402282714844;
412, -73.28450012207;
413, -84.164352416992;
414, -131.11489868164;
415, -255.9803314209;
416, -397.55099487305;
417, -574.42248535156;
418, -944.92370605469;
419, -1257.3043212891;
420, -1974.7458496094;
421, -3195.5363769531;
422, -3833.1066894531;
423, -3919.3234863281;
424, -3924.6513671875;
425, -4022.9020996094;
426, -4132.73046875;
427, -4257.0966796875;
428, -4358.83203125;
429, -4452.859375;
430, -4574.1171875;
431, -4669.396484375;
432, -4838.6533203125;
433, -4848.3198242188;
434, -4903.0966796875;
435, -4951.2490234375;
436, -4998.296875;
437, -5039.7182617188;
438, -4983.2373046875;
439, -5117.5678710938;
440, -5153.8120117188;
441, -4538.53515625;
442, -4762.6064453125;
443, -5004.9370117188;
444, -4737.748046875;
445, -5031.705078125;
446, -4969.1108398438;
447, -5330.90234375;
448, -5045.0302734375;
449, -5238.6108398438;
450, -5419.689453125;
451, -5222.5737304688;
452, -5123.35546875;
453, -5272.2661132812;
454, -4749.865234375;
455, -5267.9248046875;
456, -5086.1455078125;
457, -4946.90625;
458, -4992.7216796875;
459, -4998.8120117188;
460, -4887.7119140625;
461, -4780.2133789062;
462, -4810.1376953125;
463, -4794.9243164062;
464, -4715.0161132812;
465, -4789.041015625;
466, -5187.3286132812;
467, -4794.6435546875;
468, -4703.2583007812;
469, -4903.8627929688;
470, -5230.6997070312;
471, -4634.9287109375;
472, -4776.7548828125;
473, -4574.7133789062;
474, -4337.2944335938;
475, -5043.3544921875;
476, -4719.4345703125;
477, -4693.796875;
478, -4803.8564453125;
479, -4777.13671875;
480, -4617.8471679688;
481, -4446.80078125;
482, -4244.384765625;
483, -4373.0288085938;
484, -4414.1005859375;
485, -4332.1015625;
486, -4499.9243164062;
487, -4573.666015625;
488, -4357.8344726562;
489, -4209.931640625;
490, -4244.5668945312;
491, -4352.279296875;
492, -4251.1323242188;
493, -4390.3715820312;
494, -4373.8754882812;
495, -4581.005859375;
496, -4418.7700195312;
497, -4437.1650390625;
498, -4489.7416992188;
499, -4332.2504882812;
