0, 614.94207763672;
1, 614.99719238281;
2, 648.05841064453;
3, 606.91033935547;
4, 729.15563964844;
5, 635.01397705078;
6, 673.83380126953;
7, 1014.1575317383;
8, 1215.8901367188;
9, 1624.2950439453;
10, 1195.5952148438;
11, 1056.9052734375;
12, 991.17175292969;
13, 936.65246582031;
14, 1012.9649047852;
15, 1160.3159179688;
16, 1160.1320800781;
17, 1199.6811523438;
18, 1148.1330566406;
19, 949.69744873047;
20, 937.59802246094;
21, 919.00476074219;
22, 1048.5656738281;
23, 838.56958007812;
24, 795.19122314453;
25, 850.05401611328;
26, 794.15826416016;
27, 758.98327636719;
28, 680.62817382812;
29, 663.70379638672;
30, 638.783203125;
31, 627.92224121094;
32, 589.23211669922;
33, 545.61499023438;
34, 533.75018310547;
35, 568.22271728516;
36, 541.97802734375;
37, 613.77398681641;
38, 528.75238037109;
39, 494.71035766602;
40, 503.65673828125;
41, 514.66839599609;
42, 509.78283691406;
43, 500.5944519043;
44, 526.38031005859;
45, 528.82971191406;
46, 541.33905029297;
47, 526.27001953125;
48, 468.36706542969;
49, 454.44467163086;
50, 417.95153808594;
51, 400.70693969727;
52, 366.70812988281;
53, 350.41250610352;
54, 312.07159423828;
55, 307.49835205078;
56, 288.26739501953;
57, 266.62850952148;
58, 267.94891357422;
59, 256.66448974609;
60, 299.61309814453;
61, 305.39996337891;
62, 286.43313598633;
63, 323.24993896484;
64, 275.18167114258;
65, 268.96185302734;
66, 263.66000366211;
67, 273.87673950195;
68, 282.37664794922;
69, 291.80108642578;
70, 311.14199829102;
71, 348.66415405273;
72, 346.33255004883;
73, 349.24694824219;
74, 299.52746582031;
75, 298.7216796875;
76, 301.04962158203;
77, 268.35980224609;
78, 277.52032470703;
79, 261.15420532227;
80, 263.52084350586;
81, 287.63412475586;
82, 315.14318847656;
83, 289.9938659668;
84, 318.34368896484;
85, 371.41561889648;
86, 341.35723876953;
87, 424.01678466797;
88, 528.74029541016;
89, 537.27935791016;
90, 388.15887451172;
91, 327.60791015625;
92, 355.35427856445;
93, 341.60992431641;
94, 345.62591552734;
95, 414.02606201172;
96, 387.0016784668;
97, 425.81643676758;
98, 427.17651367188;
99, 406.39334106445;
100, 355.58575439453;
101, 341.75128173828;
102, 406.14761352539;
103, 639.34161376953;
104, 469.45657348633;
105, 479.20571899414;
106, 580.49176025391;
107, 514.14807128906;
108, 367.9140625;
109, 336.48941040039;
110, 245.74983215332;
111, 259.26416015625;
112, 238.37431335449;
113, 301.18939208984;
114, 217.62825012207;
115, 114.1520690918;
116, 50.445175170898;
117, -39.275268554688;
118, -129.31735229492;
119, -1802.9273681641;
120, -2859.4067382812;
121, -3194.7451171875;
122, -3551.00390625;
123, -3747.2807617188;
124, -3917.6491699219;
125, -3994.1887207031;
126, -4191.2309570312;
127, -4121.8022460938;
128, -4364.0747070312;
129, -4431.333984375;
130, -4475.3627929688;
131, -4485.71484375;
132, -4540.6845703125;
133, -4773.7866210938;
134, -4829.728515625;
135, -4893.486328125;
136, -4941.2470703125;
137, -4994.2104492188;
138, -4963.2333984375;
139, -5097.7172851562;
140, -5005.8515625;
141, -4715.931640625;
142, -4544.8930664062;
143, -4091.166015625;
144, -4731.1020507812;
145, -4454.7358398438;
146, -3724.8854980469;
147, -3736.1530761719;
148, -4011.2255859375;
149, -3032.5483398438;
150, -3326.2702636719;
151, -3232.78125;
152, -2316.9291992188;
153, -2650.0607910156;
154, -2799.3544921875;
155, -3057.6901855469;
156, -3754.4106445312;
157, -4461.0708007812;
158, -4273.4497070312;
159, -4287.8920898438;
160, -4575.3764648438;
161, -4334.8686523438;
162, -4884.015625;
163, -4547.9536132812;
164, -4778.3139648438;
165, -4526.8452148438;
166, -4729.7875976562;
167, -4349.51171875;
168, -4477.3642578125;
169, -4683.0551757812;
170, -4432.2978515625;
171, -4908.7646484375;
172, -4622.3159179688;
173, -4468.0712890625;
174, -4610.4819335938;
175, -4765.9604492188;
176, -4781.1884765625;
177, -4621.888671875;
178, -4625.6401367188;
179, -4907.466796875;
180, -4880.890625;
181, -5168.2094726562;
182, -4789.2392578125;
183, -4615.5200195312;
184, -4522.9106445312;
185, -4941.8901367188;
186, -5385.7485351562;
187, -5022.611328125;
188, -5140.384765625;
189, -5217.2231445312;
190, -5361.4624023438;
191, -5356.095703125;
192, -5393.6684570312;
193, -5672.3857421875;
194, -5625.9970703125;
195, -5320.0517578125;
196, -5519.5708007812;
197, -5354.04296875;
198, -5432.9799804688;
199, -5594.3657226562;
200, -5781.6953125;
201, -5412.70703125;
202, -5279.5073242188;
203, -5400.3071289062;
204, -5206.216796875;
205, -5420.1489257812;
206, -5557.5341796875;
207, -5622.5659179688;
208, -5474.5776367188;
209, -5241.4829101562;
210, -5865.7001953125;
211, -5722.1142578125;
212, -5427.3354492188;
213, -5580.8393554688;
214, -5512.2890625;
215, -5631.7612304688;
216, -5378.34375;
217, -5603.9375;
218, -5607.2319335938;
219, -5217.3403320312;
220, -5513.955078125;
221, -5495.1147460938;
222, -5506.4423828125;
223, -5283.197265625;
224, -5233.8720703125;
225, -5072.1484375;
226, -5051.205078125;
227, -5229.80078125;
228, -5053.0771484375;
229, -5322.5288085938;
230, -5325.3544921875;
231, -5278.2836914062;
232, -5220.4370117188;
233, -5129.6796875;
234, -5073.5024414062;
235, -4994.3774414062;
236, -4934.115234375;
237, -4903.744140625;
238, -4922.8803710938;
239, -4942.6748046875;
240, -4939.0419921875;
241, -4910.748046875;
242, -4887.0078125;
243, -4849.748046875;
244, -4783.2680664062;
245, -4713.6015625;
246, -4638.7270507812;
247, -4544.7509765625;
248, -4472.736328125;
249, -4382.2104492188;
250, -4295.982421875;
251, -4226.0600585938;
252, -4191.1904296875;
253, -4167.0034179688;
254, -4151.7075195312;
255, -4108.6762695312;
256, -4180.1196289062;
257, -4120.5551757812;
258, -4146.6591796875;
259, -4159.2802734375;
260, -4100.1508789062;
261, -2918.4001464844;
262, -75.84521484375;
263, -3184.3349609375;
264, -4188.9135742188;
265, -4324.5678710938;
266, -4311.1997070312;
267, -4268.3598632812;
268, -4398.189453125;
269, -4314.408203125;
270, -4224.7026367188;
271, -4154.9594726562;
272, -4133.81640625;
273, -3980.6254882812;
274, -3922.7578125;
275, -3902.2927246094;
276, -3828.1477050781;
277, -3844.8647460938;
278, -3794.8405761719;
279, -3685.146484375;
280, -3540.5490722656;
281, -3484.5009765625;
282, -3575.6528320312;
283, -3576.666015625;
284, -3581.6198730469;
285, -3554.0905761719;
286, -3591.9982910156;
287, -3422.8068847656;
288, -3292.0524902344;
289, -3222.3781738281;
290, -3267.9794921875;
291, -3226.625;
292, -3072.0373535156;
293, -2846.3537597656;
294, -2736.7495117188;
295, -2636.0612792969;
296, -2612.9916992188;
297, -2428.841796875;
298, -2519.8020019531;
299, -2611.5063476562;
300, -2690.1550292969;
301, -2663.1970214844;
302, -2708.9182128906;
303, -2646.3859863281;
304, -2768.4868164062;
305, -3130.2072753906;
306, -3487.2888183594;
307, -3610.0695800781;
308, -3689.8525390625;
309, -3697.1845703125;
310, -3737.064453125;
311, -3660.7602539062;
312, -3692.201171875;
313, -3645.2260742188;
314, -3592.2729492188;
315, -3543.6267089844;
316, -3403.9440917969;
317, -3187.2807617188;
318, -2957.1108398438;
319, -2630.4331054688;
320, -2662.6499023438;
321, -3055.1418457031;
322, -3137.4025878906;
323, -2964.2104492188;
324, -3076.0307617188;
325, -3040.6789550781;
326, -3036.2043457031;
327, -3020.7731933594;
328, -2935.1423339844;
329, -2835.4362792969;
330, -2753.6599121094;
331, -2551.5407714844;
332, -2408.0141601562;
333, -2021.1430664062;
334, -1756.2156982422;
335, -1298.8553466797;
336, -953.98034667969;
337, -586.61206054688;
338, -167.72706604004;
339, -131.2953338623;
340, -133.27877807617;
341, -110.34014129639;
342, -127.645652771;
343, -85.989433288574;
344, -59.736881256104;
345, -66.817741394043;
346, -80.377449035645;
347, -78.435569763184;
348, -35.011474609375;
349, -38.994998931885;
350, -31.866870880127;
351, -28.883701324463;
352, -26.434013366699;
353, -25.11701965332;
354, -19.348779678345;
355, -25.628475189209;
356, -22.016752243042;
357, -25.370149612427;
358, -30.364580154419;
359, -18.07709312439;
360, -12.727118492126;
361, -18.604862213135;
362, -14.489960670471;
363, 5.3310708999634;
364, 0.16859216988087;
365, 5.0743613243103;
366, 5.8978996276855;
367, 20.953392028809;
368, 42.94856262207;
369, 75.379005432129;
370, 140.36572265625;
371, 199.3532409668;
372, 126.88868713379;
373, 119.32010650635;
374, 123.72953796387;
375, 97.57103729248;
376, 69.572334289551;
377, 53.798049926758;
378, 44.590724945068;
379, 19.014636993408;
380, -4.8930721282959;
381, -13.440581321716;
382, -9.1130714416504;
383, -0.80030703544617;
384, 7.0411186218262;
385, 11.80055141449;
386, 19.260705947876;
387, 32.362289428711;
388, 51.622364044189;
389, 70.207534790039;
390, 42.287811279297;
391, 86.966262817383;
392, 113.24291992188;
393, 79.399070739746;
394, 61.801254272461;
395, 169.93728637695;
396, 228.55242919922;
397, 381.74038696289;
398, 541.27008056641;
399, 985.29486083984;
400, 1280.017578125;
401, 1237.4774169922;
402, 1140.6297607422;
403, 1040.3068847656;
404, 1171.4432373047;
405, 1481.0633544922;
406, 1704.7283935547;
407, 1358.3110351562;
408, 1003.6018066406;
409, 1053.3955078125;
410, 831.39556884766;
411, 639.73620605469;
412, 991.38952636719;
413, 769.73577880859;
414, 942.62316894531;
415, 502.07046508789;
416, 720.07006835938;
417, 401.19805908203;
418, 859.23736572266;
419, 633.07574462891;
420, 112.967918396;
421, -115.22340393066;
422, -165.94049072266;
423, 0;
424, -4.5964426994324;
425, -154.84710693359;
426, -164.98075866699;
427, -310.72958374023;
428, -1240.7662353516;
429, -3161.9375;
430, -3292.7416992188;
431, -3229.2065429688;
432, -3207.9968261719;
433, -2960.9626464844;
434, -2998.4462890625;
435, -3170.0009765625;
436, -2562.740234375;
437, -2626.0864257812;
438, -2803.8942871094;
439, -2856.8532714844;
440, -3143.021484375;
441, -3203.2646484375;
442, -3403.9462890625;
443, -3458.6010742188;
444, -3423.8046875;
445, -3393.7016601562;
446, -3610.1228027344;
447, -3635.7497558594;
448, -3689.3537597656;
449, -3744.7419433594;
450, -3808.0595703125;
451, -3712.4985351562;
452, -3618.0666503906;
453, -3422.9501953125;
454, -3761.3056640625;
455, -3664.185546875;
456, -3771.830078125;
457, -4206.8720703125;
458, -4438.0698242188;
459, -4552.9301757812;
460, -4222.890625;
461, -4111.0493164062;
462, -4349.1943359375;
463, -3850.7072753906;
464, -4123.8842773438;
465, -4038.005859375;
466, -4109.0258789062;
467, -4195.0737304688;
468, -4088.5295410156;
469, -4094.2543945312;
470, -4003.978515625;
471, -3821.3642578125;
472, -3949.3200683594;
473, -3985.6853027344;
474, -4263.263671875;
475, -4440.2016601562;
476, -4298.009765625;
477, -4643.8842773438;
478, -4547.703125;
479, -4157.8154296875;
480, -4624.3344726562;
481, -4283.6611328125;
482, -4473.4653320312;
483, -4482.6616210938;
484, -4601.0190429688;
485, -4658.0825195312;
486, -4656.49609375;
487, -4690.6362304688;
488, -4698.98046875;
489, -4669.5454101562;
490, -4578.521484375;
491, -4359.2456054688;
492, -4408.189453125;
493, -4368.2729492188;
494, -4574.76171875;
495, -4419.9838867188;
496, -4387.9052734375;
497, -4170.0576171875;
498, -4232.9770507812;
499, -4013.0080566406;
