0, -3899.9580078125;
1, -3881.4758300781;
2, -3339.6608886719;
3, -3895.5012207031;
4, -3245.2170410156;
5, -3781.7780761719;
6, -3261.0227050781;
7, -3937.2414550781;
8, -3396.4978027344;
9, -3005.4360351562;
10, -3879.6853027344;
11, -2927.6052246094;
12, -3847.0764160156;
13, -3160.8525390625;
14, -3022.1169433594;
15, -3419.0910644531;
16, -2575.6098632812;
17, -2388.09765625;
18, -2853.6403808594;
19, -2590.0532226562;
20, -2842.3703613281;
21, -2650.6779785156;
22, -3493.0825195312;
23, -3228.2355957031;
24, -2761.4672851562;
25, -2822.4975585938;
26, -2230.7604980469;
27, -2954.599609375;
28, -2951.3684082031;
29, -2887.3845214844;
30, -2589.5415039062;
31, -2881.5964355469;
32, -3180.1005859375;
33, -3428.4948730469;
34, -3690.55078125;
35, -2765.2739257812;
36, -3801.2985839844;
37, -3700.27734375;
38, -3298.9721679688;
39, -3709.0356445312;
40, -3845.1643066406;
41, -3856.1442871094;
42, -3566.0424804688;
43, -3959.2998046875;
44, -4968.6137695312;
45, -2958.7980957031;
46, -3413.5075683594;
47, -2530.7878417969;
48, -2480.3100585938;
49, -2590.3020019531;
50, -2903.8422851562;
51, -2922.228515625;
52, -2962.9440917969;
53, -3150.4909667969;
54, -3434.2700195312;
55, -2839.4060058594;
56, -3781.7065429688;
57, -2942.2338867188;
58, -3440.0869140625;
59, -2516.9802246094;
60, -2854.2026367188;
61, -3014.1418457031;
62, -3185.3325195312;
63, -3271.7478027344;
64, -2550.9265136719;
65, -3137.626953125;
66, -3162.2956542969;
67, -4167.6752929688;
68, -2587.6342773438;
69, -2359.7614746094;
70, -3477.1628417969;
71, -4353.5234375;
72, -2941.4106445312;
73, -3094.9240722656;
74, -3337.4567871094;
75, -2582.9621582031;
76, -2791.1315917969;
77, -2137.9421386719;
78, -3292.1096191406;
79, -3300.0385742188;
80, -3309.8234863281;
81, -4043.5639648438;
82, -3407.2678222656;
83, -4243.5219726562;
84, -3637.5327148438;
85, -3747.2253417969;
86, -3999.2387695312;
87, -3661.2387695312;
88, -3444.9643554688;
89, -4389.0161132812;
90, -4429.3559570312;
91, -4385.7255859375;
92, -4333.4072265625;
93, -4449.5688476562;
94, -4777.8056640625;
95, -4554.0698242188;
96, -4526.345703125;
97, -4773.669921875;
98, -4731.021484375;
99, -4960.900390625;
100, -4560.1186523438;
101, -4911.0415039062;
102, -4908.056640625;
103, -4899.224609375;
104, -4884.3706054688;
105, -4854.7368164062;
106, -4811.8344726562;
107, -4758.6186523438;
108, -4714.5595703125;
109, -4655.4545898438;
110, -4635.69140625;
111, -4545.1376953125;
112, -4537.5688476562;
113, -4447.9086914062;
114, -4405.6245117188;
115, -4339.6997070312;
116, -4290.2939453125;
117, -4225.802734375;
118, -4173.9873046875;
119, -4106.2700195312;
120, -4031.9270019531;
121, -3915.4990234375;
122, -3777.5576171875;
123, -3574.4057617188;
124, -3419.9372558594;
125, -3176.9697265625;
126, -3050.4938964844;
127, -2903.2326660156;
128, -2518.1423339844;
129, -1884.4893798828;
130, -1264.8416748047;
131, -238.12202453613;
132, -83.17700958252;
133, -86.466270446777;
134, -80.332061767578;
135, -73.134338378906;
136, -25.51605796814;
137, -16.657903671265;
138, -15.427752494812;
139, -3.2356052398682;
140, -10.705446243286;
141, -24.570446014404;
142, 13.516267776489;
143, 6.3115348815918;
144, 2.9458394050598;
145, 6.6731672286987;
146, 9.4654445648193;
147, 8.6189365386963;
148, 27.438550949097;
149, -0.36735215783119;
150, -9.690071105957;
151, 14.822429656982;
152, 14.308846473694;
153, 18.208396911621;
154, 24.614065170288;
155, 17.752645492554;
156, 25.632329940796;
157, 20.365533828735;
158, 0;
159, 32.565612792969;
160, 27.677703857422;
161, 47.468601226807;
162, 53.752346038818;
163, 73.226875305176;
164, 72.508995056152;
165, 66.146606445312;
166, 99.568794250488;
167, 120.94284057617;
168, 135.13877868652;
169, 156.98223876953;
170, 160.14869689941;
171, 189.0816192627;
172, 163.88943481445;
173, 157.33209228516;
174, 236.92422485352;
175, 209.90753173828;
176, 258.71899414062;
177, 219.07720947266;
178, 357.92929077148;
179, 203.53807067871;
180, 252.8454284668;
181, 253.10838317871;
182, 274.8303527832;
183, 351.20147705078;
184, 277.31549072266;
185, 279.94931030273;
186, 347.24435424805;
187, 537.46765136719;
188, 240.16464233398;
189, 282.9905090332;
190, 357.21148681641;
191, 399.34768676758;
192, 264.09365844727;
193, 293.91384887695;
194, 290.30572509766;
195, 321.83096313477;
196, 317.99002075195;
197, 301.04837036133;
198, 329.53414916992;
199, 287.70291137695;
200, 292.47747802734;
201, 299.22665405273;
202, 314.02703857422;
203, 317.69262695312;
204, 318.86276245117;
205, 308.07278442383;
206, 301.04177856445;
207, 327.25549316406;
208, 369.77462768555;
209, 364.72885131836;
210, 375.02099609375;
211, 370.64938354492;
212, 423.43713378906;
213, 422.43746948242;
214, 495.33544921875;
215, 504.29418945312;
216, 612.28179931641;
217, 576.96661376953;
218, 555.03851318359;
219, 573.75970458984;
220, 638.25128173828;
221, 384.1823425293;
222, 379.42086791992;
223, 372.9208984375;
224, 404.67337036133;
225, 426.54626464844;
226, 654.56500244141;
227, 611.11389160156;
228, 507.29681396484;
229, 318.1086730957;
230, 307.68676757812;
231, 320.16839599609;
232, 272.73934936523;
233, 269.09390258789;
234, 431.201171875;
235, 621.00134277344;
236, 642.50805664062;
237, 466.58120727539;
238, 360.86572265625;
239, 270.16363525391;
240, 329.28500366211;
241, 272.79010009766;
242, 302.78405761719;
243, 344.62289428711;
244, 554.88848876953;
245, 386.15396118164;
246, 475.44036865234;
247, 502.63970947266;
248, 514.96343994141;
249, 499.86999511719;
250, 573.54241943359;
251, 581.05944824219;
252, 345.91925048828;
253, 260.56857299805;
254, 285.98782348633;
255, 252.44641113281;
256, 192.10942077637;
257, 160.94692993164;
258, 227.58413696289;
259, 259.20666503906;
260, 211.73031616211;
261, 274.28482055664;
262, 174.51091003418;
263, 172.96653747559;
264, 129.18954467773;
265, 145.58651733398;
266, 112.29792785645;
267, 98.306823730469;
268, 86.585914611816;
269, 82.765892028809;
270, 151.94351196289;
271, 80.485855102539;
272, 65.897117614746;
273, 71.808906555176;
274, 72.19189453125;
275, 66.341575622559;
276, 64.900764465332;
277, 63.100116729736;
278, 67.914093017578;
279, 65.886772155762;
280, 69.41805267334;
281, 65.39722442627;
282, 65.080375671387;
283, 64.337303161621;
284, 43.422271728516;
285, 58.477615356445;
286, 65.728713989258;
287, 41.545166015625;
288, 32.853633880615;
289, 34.107833862305;
290, 18.939371109009;
291, 35.380058288574;
292, 26.793025970459;
293, 14.294919013977;
294, 25.444442749023;
295, 18.820749282837;
296, 34.019680023193;
297, 5.9264192581177;
298, 23.286428451538;
299, 12.675262451172;
300, 1.959189414978;
301, 1.8278722763062;
302, 6.5062255859375;
303, 6.9758710861206;
304, 22.941459655762;
305, 31.04444694519;
306, 37.683029174805;
307, 27.389463424683;
308, 30.985322952271;
309, 27.560398101807;
310, 38.16939163208;
311, 48.813629150391;
312, 71.772094726562;
313, 90.669624328613;
314, 126.15079498291;
315, 171.92877197266;
316, 256.68994140625;
317, 242.33757019043;
318, 220.11128234863;
319, 212.13993835449;
320, 182.56561279297;
321, 135.55992126465;
322, 85.612197875977;
323, 43.37565612793;
324, -4.2376403808594;
325, -18.981042861938;
326, -30.978839874268;
327, -38.304244995117;
328, -38.84801864624;
329, -39.822708129883;
330, -39.567035675049;
331, -45.017734527588;
332, -45.518218994141;
333, -32.589042663574;
334, -31.475368499756;
335, -73.139938354492;
336, -71.211624145508;
337, -75.851837158203;
338, -75.862411499023;
339, -68.748893737793;
340, -81.817863464355;
341, -81.627304077148;
342, -107.65556335449;
343, -124.89991760254;
344, -90.147438049316;
345, -71.478317260742;
346, -96.941200256348;
347, -97.223350524902;
348, -119.24555969238;
349, -59.203094482422;
350, -90.982063293457;
351, -104.04512786865;
352, -103.23175048828;
353, -99.704429626465;
354, -94.645195007324;
355, -89.508773803711;
356, -68.537094116211;
357, -62.787796020508;
358, -99.998008728027;
359, -97.740295410156;
360, -108.06954193115;
361, -106.00668334961;
362, -119.4965057373;
363, -114.98221588135;
364, -106.79829406738;
365, -105.21795654297;
366, -106.37417602539;
367, -111.42067718506;
368, -104.35186004639;
369, -106.90579986572;
370, -109.78193664551;
371, -117.12030029297;
372, -126.55258178711;
373, -118.41603851318;
374, -115.19650268555;
375, -116.74245452881;
376, -131.59489440918;
377, -84.609077453613;
378, -136.17910766602;
379, -119.03025817871;
380, -122.73046875;
381, -147.58110046387;
382, -115.06726837158;
383, -111.9984664917;
384, -107.1470489502;
385, -97.765571594238;
386, -102.02612304688;
387, -88.231018066406;
388, -91.458290100098;
389, -79.61067199707;
390, -65.979690551758;
391, -62.04235458374;
392, -10.161812782288;
393, 92.537422180176;
394, 180.80322265625;
395, 323.4635925293;
396, 877.78167724609;
397, 7.765926361084;
398, 413.25323486328;
399, 112.40355682373;
400, 72.784111022949;
401, -126.05137634277;
402, -101.94910430908;
403, -130.15580749512;
404, -150.33241271973;
405, -1904.9674072266;
406, -4310.7890625;
407, -4205.3876953125;
408, -3875.4826660156;
409, -3814.7375488281;
410, -3989.1779785156;
411, -3760.8271484375;
412, -3962.7673339844;
413, -3957.3125;
414, -3912.1037597656;
415, -3362.8505859375;
416, -3834.9897460938;
417, -4591.0517578125;
418, -4663.4506835938;
419, -4395.3603515625;
420, -4415.3212890625;
421, -4442.2348632812;
422, -4051.0173339844;
423, -4576.126953125;
424, -3932.0793457031;
425, -4374.0512695312;
426, -4107.611328125;
427, -4347.732421875;
428, -4529.1176757812;
429, -4255.1284179688;
430, -4583.1381835938;
431, -4429.6010742188;
432, -4133.3852539062;
433, -4303.1098632812;
434, -4328.9545898438;
435, -4278.650390625;
436, -4347.5263671875;
437, -4115.1831054688;
438, -3984.1220703125;
439, -4115.3481445312;
440, -4081.3837890625;
441, -4011.4069824219;
442, -3976.8254394531;
443, -3939.4399414062;
444, -4002.0349121094;
445, -4080.8017578125;
446, -4091.220703125;
447, -4155.81640625;
448, -4076.7805175781;
449, -4089.6953125;
450, -4114.3828125;
451, -4158.2626953125;
452, -4193.69921875;
453, -4231.0791015625;
454, -4294.6611328125;
455, -4193.7631835938;
456, -4200.9487304688;
457, -4137.966796875;
458, -4107.3706054688;
459, -4122.2797851562;
460, -4014.8410644531;
461, -3960.0632324219;
462, -3849.4719238281;
463, -3788.0568847656;
464, -3848.0183105469;
465, -3727.728515625;
466, -3505.6157226562;
467, -3160.0825195312;
468, -2962.4187011719;
469, -2828.6320800781;
470, -2458.1193847656;
471, -1659.4401855469;
472, -1473.8607177734;
473, -1281.8623046875;
474, -1098.7426757812;
475, -837.30194091797;
476, -742.50244140625;
477, -766.85516357422;
478, -714.25109863281;
479, -591.92694091797;
480, -500.37838745117;
481, -447.42874145508;
482, -413.70736694336;
483, -461.52145385742;
484, -274.43988037109;
485, -417.58639526367;
486, -425.93322753906;
487, 12.915694236755;
488, 43.625812530518;
489, 41.402393341064;
490, 41.110294342041;
491, 68.493370056152;
492, 232.54899597168;
493, 375.01196289062;
494, 428.88214111328;
495, 477.62615966797;
496, 555.07696533203;
497, 445.69567871094;
498, 358.78561401367;
499, 271.52478027344;
