0, -4536.8647460938;
1, -4498.8930664062;
2, -4489.04296875;
3, -4507.8154296875;
4, -4470.390625;
5, -4436.6474609375;
6, -4382.0678710938;
7, -4372.2202148438;
8, -4416.482421875;
9, -4329.66015625;
10, -4298.1616210938;
11, -4340.3564453125;
12, -4314.4243164062;
13, -4267.4912109375;
14, -4261.4775390625;
15, -4208.4375;
16, -4136.03125;
17, -4151.6547851562;
18, -4042.236328125;
19, -3999.4125976562;
20, -4008.1420898438;
21, -3935.5695800781;
22, -3847.1318359375;
23, -3779.8364257812;
24, -3671.2238769531;
25, -3566.5104980469;
26, -3534.1440429688;
27, -3494.1706542969;
28, -3446.7456054688;
29, -3476.9562988281;
30, -3474.4274902344;
31, -3455.8408203125;
32, -3475.5346679688;
33, -3541.4118652344;
34, -3518.9035644531;
35, -3508.7438964844;
36, -3392.2697753906;
37, -3200.73046875;
38, -3174.8752441406;
39, -3595.9597167969;
40, -3651.1787109375;
41, -3549.001953125;
42, -3575.1870117188;
43, -3656.7729492188;
44, -3820.3918457031;
45, -3843.7319335938;
46, -3874.81640625;
47, -3705.5458984375;
48, -3622.2666015625;
49, -3685.0808105469;
50, -3787.1135253906;
51, -3922.056640625;
52, -3935.7531738281;
53, -3956.65234375;
54, -3993.3525390625;
55, -4026.5668945312;
56, -3987.7751464844;
57, -4006.4411621094;
58, -4060.1027832031;
59, -4120.8374023438;
60, -4138.4165039062;
61, -4145.466796875;
62, -4205.9516601562;
63, -4285.4228515625;
64, -4253.021484375;
65, -4140.41796875;
66, -4307.0366210938;
67, -4220.8920898438;
68, -4280.8002929688;
69, -4308.2221679688;
70, -4406.5395507812;
71, -4551.8173828125;
72, -4589.76171875;
73, -4465.9536132812;
74, -4304.1303710938;
75, -3773.5600585938;
76, -2912.6467285156;
77, -3918.4987792969;
78, -4838.39453125;
79, -4904.2534179688;
80, -4829.830078125;
81, -4296.1674804688;
82, -3577.4516601562;
83, -3506.0295410156;
84, -3794.1318359375;
85, -4137.5288085938;
86, -3961.8986816406;
87, -4091.7421875;
88, -4283.1005859375;
89, -4111.580078125;
90, -4101.4184570312;
91, -4095.328125;
92, -3952.4875488281;
93, -3989.890625;
94, -4029.9167480469;
95, -3946.4936523438;
96, -3888.4790039062;
97, -3836.9548339844;
98, -3777.3200683594;
99, -3715.3269042969;
100, -3693.3374023438;
101, -3664.9853515625;
102, -3545.5219726562;
103, -3683.5732421875;
104, -3662.708984375;
105, -3686.6135253906;
106, -3662.5681152344;
107, -3538.63671875;
108, -3452.8439941406;
109, -3480.4897460938;
110, -3407.2858886719;
111, -3303.2026367188;
112, -3179.5078125;
113, -3114.453125;
114, -3019.6452636719;
115, -3047.4172363281;
116, -2813.8337402344;
117, -2824.0942382812;
118, -2833.333984375;
119, -2824.275390625;
120, -2874.9638671875;
121, -2938.33203125;
122, -2982.78125;
123, -2498.0356445312;
124, -2156.0661621094;
125, -2922.1879882812;
126, -3159.365234375;
127, -3198.4145507812;
128, -3190.8295898438;
129, -3245.8637695312;
130, -3258.7587890625;
131, -3227.1540527344;
132, -3200.3386230469;
133, -3156.8916015625;
134, -3157.06640625;
135, -3013.6875;
136, -2816.8864746094;
137, -2611.4926757812;
138, -2508.0043945312;
139, -2291.7719726562;
140, -2199.5197753906;
141, -1851.9229736328;
142, -2017.3199462891;
143, -2274.2077636719;
144, -2127.75;
145, -1457.4714355469;
146, -744.09826660156;
147, -1066.7141113281;
148, -1194.5798339844;
149, -1345.4141845703;
150, -1401.7606201172;
151, -1429.5900878906;
152, -1485.9344482422;
153, -1570.0042724609;
154, -1948.9050292969;
155, -2177.0603027344;
156, -2263.859375;
157, -2333.1791992188;
158, -2448.3408203125;
159, -2560.03125;
160, -2615.5402832031;
161, -2659.3588867188;
162, -2830.3405761719;
163, -2873.0295410156;
164, -2906.1420898438;
165, -2903.0197753906;
166, -3005.8664550781;
167, -3179.4304199219;
168, -3119.2199707031;
169, -3005.3325195312;
170, -3229.5974121094;
171, -3237.5454101562;
172, -3196.5607910156;
173, -3219.0581054688;
174, -3235.3369140625;
175, -3199.0461425781;
176, -3250.6950683594;
177, -3305.7761230469;
178, -3279.1059570312;
179, -3251.5759277344;
180, -3250.1411132812;
181, -3343.0168457031;
182, -3358.7395019531;
183, -3382.0268554688;
184, -3498.8759765625;
185, -3643.0563964844;
186, -3594.7004394531;
187, -3476.2368164062;
188, -3388.6965332031;
189, -3398.6899414062;
190, -3171.8364257812;
191, -3256.873046875;
192, -3307.3981933594;
193, -3241.4855957031;
194, -3229.8798828125;
195, -3166.8981933594;
196, -3308.9846191406;
197, -3180.0493164062;
198, -3296.9289550781;
199, -3686.4614257812;
200, -3865.8688964844;
201, -4006.2724609375;
202, -3979.2268066406;
203, -4061.9470214844;
204, -3939.9384765625;
205, -3763.2609863281;
206, -3935.8989257812;
207, -4092.0490722656;
208, -4303.7631835938;
209, -4405.2739257812;
210, -3909.6684570312;
211, -3596.0583496094;
212, -3423.0322265625;
213, -3633.3801269531;
214, -3877.1469726562;
215, -3975.8625488281;
216, -4201.669921875;
217, -4365.3959960938;
218, -4501.0146484375;
219, -4514.6611328125;
220, -4500.7807617188;
221, -4474.6982421875;
222, -4438.955078125;
223, -4462.6513671875;
224, -4505.5649414062;
225, -4513.9624023438;
226, -4540.4282226562;
227, -4542.466796875;
228, -4570.2202148438;
229, -4574.2475585938;
230, -4629.9228515625;
231, -4593.1147460938;
232, -4507.4428710938;
233, -4668.9775390625;
234, -4696.228515625;
235, -4459.515625;
236, -4493.7001953125;
237, -4655.6879882812;
238, -4574.0966796875;
239, -4629.7216796875;
240, -4649.0322265625;
241, -4559.0366210938;
242, -4710.8002929688;
243, -4643.8579101562;
244, -4626.4497070312;
245, -4731.9770507812;
246, -4652.7338867188;
247, -4662.078125;
248, -4716.1303710938;
249, -4743.4711914062;
250, -4769.9956054688;
251, -4749.4731445312;
252, -4772.7368164062;
253, -4813.4653320312;
254, -4859.9453125;
255, -4853.8549804688;
256, -4841.2309570312;
257, -4836.4467773438;
258, -4873.8012695312;
259, -4914.1997070312;
260, -4919.4213867188;
261, -4920.3735351562;
262, -5040.1440429688;
263, -5006.9150390625;
264, -5019.00390625;
265, -5014.5512695312;
266, -5100.1391601562;
267, -5125.7109375;
268, -5089.78515625;
269, -5132.8564453125;
270, -5188.3823242188;
271, -5169.7329101562;
272, -5128.3916015625;
273, -5156.0590820312;
274, -5131.5590820312;
275, -5135.5854492188;
276, -5219.2470703125;
277, -5274.2724609375;
278, -5283.8852539062;
279, -5227.5458984375;
280, -5216.2670898438;
281, -5220.0708007812;
282, -5216.4331054688;
283, -5218.958984375;
284, -5225.2573242188;
285, -5227.5561523438;
286, -5231.8828125;
287, -5226.068359375;
288, -5266.1352539062;
289, -5263.666015625;
290, -5271.3618164062;
291, -5287.49609375;
292, -5288.48046875;
293, -5261.8110351562;
294, -5252.517578125;
295, -5247.841796875;
296, -5223.0966796875;
297, -5199.052734375;
298, -5167.0737304688;
299, -5137.5249023438;
300, -5163.9140625;
301, -5170.4047851562;
302, -5171.07421875;
303, -5150.9702148438;
304, -5104.6655273438;
305, -5068.5874023438;
306, -5032.416015625;
307, -5026.5654296875;
308, -5028.5146484375;
309, -5078.958984375;
310, -5096.7119140625;
311, -5073.5947265625;
312, -5054.2841796875;
313, -5084.51953125;
314, -5140.6206054688;
315, -5144.8745117188;
316, -5151.3095703125;
317, -5164.935546875;
318, -5197.6098632812;
319, -5206.296875;
320, -5296.9926757812;
321, -5353.68359375;
322, -5131.3081054688;
323, -5153.2724609375;
324, -5114.1450195312;
325, -5041.7236328125;
326, -5099.8354492188;
327, -5225.1459960938;
328, -5217.48046875;
329, -5201.7978515625;
330, -5189.1689453125;
331, -5137.775390625;
332, -5150.8872070312;
333, -5041.3334960938;
334, -4942.9965820312;
335, -5087.9213867188;
336, -5152.251953125;
337, -5178.4907226562;
338, -5247.5532226562;
339, -5297.1669921875;
340, -5231.3842773438;
341, -5081.8579101562;
342, -4916.0107421875;
343, -4750.1884765625;
344, -4755.0141601562;
345, -4668.7412109375;
346, -4684.6411132812;
347, -4779.5556640625;
348, -5077.8627929688;
349, -4638.5590820312;
350, -4251.4189453125;
351, -4618.6264648438;
352, -4724.8046875;
353, -4520.2875976562;
354, -4505.6674804688;
355, -4558.7451171875;
356, -4586.6547851562;
357, -4602.4560546875;
358, -4641.669921875;
359, -4710.7890625;
360, -4674.6240234375;
361, -4651.9545898438;
362, -4621.318359375;
363, -4740.9990234375;
364, -4863.6245117188;
365, -5176.9194335938;
366, -4934.2143554688;
367, -4830.8276367188;
368, -4708.0390625;
369, -4575.587890625;
370, -4446.8852539062;
371, -4524.7456054688;
372, -4395.7612304688;
373, -4490.3994140625;
374, -4550.3256835938;
375, -4374.7900390625;
376, -4369.13671875;
377, -4507.8056640625;
378, -4695.0126953125;
379, -4802.0151367188;
380, -4636.919921875;
381, -4736.9995117188;
382, -4857.0712890625;
383, -4825.5947265625;
384, -5029.1162109375;
385, -5097.556640625;
386, -5049.4477539062;
387, -4988.0893554688;
388, -5105.58984375;
389, -5030.8588867188;
390, -4735.232421875;
391, -4831.8759765625;
392, -4728.9453125;
393, -4582.662109375;
394, -4620.1396484375;
395, -4588.5981445312;
396, -4585.4912109375;
397, -4574.6254882812;
398, -4600.0288085938;
399, -4806.2036132812;
400, -4692.3735351562;
401, -4682.8120117188;
402, -4763.8935546875;
403, -4636.662109375;
404, -4559.7734375;
405, -4545.43359375;
406, -4559.2685546875;
407, -4623.765625;
408, -4832.4077148438;
409, -4529.1938476562;
410, -4394.5219726562;
411, -4775.4755859375;
412, -4521.8671875;
413, -4579.0810546875;
414, -4706.6196289062;
415, -4650.0400390625;
416, -4687.9619140625;
417, -4456.978515625;
418, -4654.60546875;
419, -4613.3940429688;
420, -4239.1733398438;
421, -4224.01953125;
422, -4369.9565429688;
423, -4458.060546875;
424, -4473.1767578125;
425, -4514.4897460938;
426, -4327.708984375;
427, -4427.3012695312;
428, -4357.158203125;
429, -4406.8735351562;
430, -4261.5693359375;
431, -4279.3583984375;
432, -4353.6674804688;
433, -4393.21875;
434, -4594.279296875;
435, -4684.9736328125;
436, -4673.7456054688;
437, -4228.62109375;
438, -4013.5493164062;
439, -4160.2905273438;
440, -4351.8642578125;
441, -4438.3188476562;
442, -4582.02734375;
443, -4492.3579101562;
444, -4548.4545898438;
445, -4489.4018554688;
446, -4351.2475585938;
447, -4436.4501953125;
448, -4243.5200195312;
449, -4193.2021484375;
450, -4326.5615234375;
451, -4303.1044921875;
452, -4312.2021484375;
453, -4211.8344726562;
454, -4295.4028320312;
455, -4293.3173828125;
456, -4205.9814453125;
457, -4192.552734375;
458, -4351.8051757812;
459, -4259.5654296875;
460, -4152.5717773438;
461, -4074.3371582031;
462, -4060.58203125;
463, -4071.9831542969;
464, -4056.5183105469;
465, -4228.5380859375;
466, -4364.615234375;
467, -4094.5690917969;
468, -3811.8486328125;
469, -4033.5808105469;
470, -4147.7954101562;
471, -3914.8142089844;
472, -3927.3154296875;
473, -3921.5241699219;
474, -3474.3896484375;
475, -3832.2697753906;
476, -3526.8552246094;
477, -3195.5288085938;
478, -3459.9165039062;
479, -3262.9470214844;
480, -3660.9191894531;
481, -3189.4914550781;
482, -3903.5700683594;
483, -3782.3562011719;
484, -3131.4201660156;
485, -3848.2634277344;
486, -3584.3271484375;
487, -3231.9936523438;
488, -3258.8239746094;
489, -3476.0207519531;
490, -3277.1687011719;
491, -4070.1997070312;
492, -4546.6875;
493, -4196.9790039062;
494, -4452.5971679688;
495, -3762.4921875;
496, -2574.2158203125;
497, -3057.6145019531;
498, -3346.3024902344;
499, -3374.6623535156;
