0, 107.91747283936;
1, 82.793182373047;
2, 65.542297363281;
3, 49.75659942627;
4, 49.615516662598;
5, 69.315200805664;
6, 58.664245605469;
7, 75.829605102539;
8, 108.84671783447;
9, 121.67403411865;
10, 130.47610473633;
11, 125.60843658447;
12, 132.0241394043;
13, 165.83561706543;
14, 154.18058776855;
15, 140.92568969727;
16, 115.79475402832;
17, 179.45805358887;
18, 141.78997802734;
19, 141;
20, 158.93214416504;
21, 188.68473815918;
22, 266.56091308594;
23, 294.8971862793;
24, 260.98138427734;
25, 266.14422607422;
26, 276.41384887695;
27, 280.75750732422;
28, 321.67092895508;
29, 304.21188354492;
30, 355.77575683594;
31, 323.89245605469;
32, 317.59649658203;
33, 338.62680053711;
34, 342.29449462891;
35, 336.27862548828;
36, 337.12908935547;
37, 352.8056640625;
38, 390.32391357422;
39, 371.37481689453;
40, 388.64270019531;
41, 397.05999755859;
42, 406.56533813477;
43, 416.55953979492;
44, 453.45565795898;
45, 453.95532226562;
46, 493.15417480469;
47, 488.70867919922;
48, 503.15298461914;
49, 502.11111450195;
50, 484.15023803711;
51, 436.49963378906;
52, 433.54452514648;
53, 372.96969604492;
54, 346.32504272461;
55, 383.6960144043;
56, 216.53807067871;
57, 236.57164001465;
58, 308.70495605469;
59, 303.35241699219;
60, 307.48580932617;
61, 250.58383178711;
62, 218.91390991211;
63, 216.08940124512;
64, 211.51129150391;
65, 209;
66, 210.20727539062;
67, 216.54072570801;
68, 236.1802520752;
69, 302.13900756836;
70, 379.51782226562;
71, 391.07357788086;
72, 398.54641723633;
73, 423.02279663086;
74, 440.85751342773;
75, 484.20721435547;
76, 495.72601318359;
77, 455.05252075195;
78, 494.25927734375;
79, 615.67041015625;
80, 762.98565673828;
81, 745.77563476562;
82, 704.85437011719;
83, 652.21966552734;
84, 593.45733642578;
85, 498.08251953125;
86, 485.70904541016;
87, 583.41748046875;
88, 604.74468994141;
89, 572.20721435547;
90, 515.12518310547;
91, 586.51831054688;
92, 674.080078125;
93, 880.02532958984;
94, 751.80902099609;
95, 767.3095703125;
96, 773.10308837891;
97, 772.68646240234;
98, 957.03247070312;
99, 1062.0925292969;
100, 1302.5018310547;
101, 1508.2296142578;
102, 1274.2973632812;
103, 1424.5008544922;
104, 1013.7916870117;
105, 860.77087402344;
106, 671.32733154297;
107, 749.50622558594;
108, 971.35235595703;
109, 1445.4438476562;
110, 814.78314208984;
111, 829.17510986328;
112, 844.81567382812;
113, 984.03918457031;
114, 1054.7316894531;
115, 1040.6204833984;
116, 1228.8692626953;
117, 1274.1278076172;
118, 1075.96875;
119, 1113.9167480469;
120, 1232.8288574219;
121, 1167.9709472656;
122, 966.89239501953;
123, 2135.6179199219;
124, 2050.4963378906;
125, 1719.9865722656;
126, 829.33142089844;
127, 813.56378173828;
128, 1008.6505126953;
129, 357.64462280273;
130, 443.20059204102;
131, 80.457466125488;
132, -23.329635620117;
133, 103.28267669678;
134, 541.24365234375;
135, 706.94055175781;
136, 405.10470581055;
137, -64.632202148438;
138, -469.5065612793;
139, -1957.0999755859;
140, -2343.4436035156;
141, -2342.7360839844;
142, -2396.3032226562;
143, -2460.8381347656;
144, -2482.1999511719;
145, -2303.265625;
146, -2661.7824707031;
147, -2814.0666503906;
148, -2537.5686035156;
149, -2661.4836425781;
150, -2018.9301757812;
151, -2839.2592773438;
152, -1767.5556640625;
153, -2966.8425292969;
154, -2997.5034179688;
155, -2885.1496582031;
156, -2855.1967773438;
157, -2862.6877441406;
158, -3013.3332519531;
159, -3024.9733886719;
160, -3107.9719238281;
161, -3082.7827148438;
162, -3082.82421875;
163, -3190.0427246094;
164, -3312.6096191406;
165, -3370.6171875;
166, -3406.9152832031;
167, -3497.5908203125;
168, -3663.8354492188;
169, -3480.9890136719;
170, -3649.9279785156;
171, -3684.5236816406;
172, -3674.6411132812;
173, -3452.4426269531;
174, -3834.9050292969;
175, -3851.1032714844;
176, -3855.9926757812;
177, -3904.23828125;
178, -3926.4775390625;
179, -3913.0832519531;
180, -3836.7133789062;
181, -3820.0500488281;
182, -3885.2150878906;
183, -3911.8642578125;
184, -3931.083984375;
185, -3562.9826660156;
186, -3970.4321289062;
187, -4029.4948730469;
188, -4015.341796875;
189, -4032.8542480469;
190, -4075.3666992188;
191, -4072.7863769531;
192, -4096.0795898438;
193, -4150.7719726562;
194, -4026.2082519531;
195, -4143.9829101562;
196, -4150.7084960938;
197, -4004.4650878906;
198, -4132.123046875;
199, -4131.49609375;
200, -4177.9521484375;
201, -4258.8413085938;
202, -4224.697265625;
203, -4310.5717773438;
204, -4304.384765625;
205, -4285.5561523438;
206, -4296.005859375;
207, -4342.2534179688;
208, -4206.0083007812;
209, -4848.8315429688;
210, -5279.0297851562;
211, -5223.7197265625;
212, -5374.8891601562;
213, -5224.8247070312;
214, -5129.9970703125;
215, -5168.7578125;
216, -5221.1157226562;
217, -5153.9931640625;
218, -5130.0986328125;
219, -4895.5161132812;
220, -5674.9858398438;
221, -5656.2700195312;
222, -5100.0795898438;
223, -5246.423828125;
224, -5254.1752929688;
225, -5235.4716796875;
226, -5281.2954101562;
227, -5431.6494140625;
228, -5450.3256835938;
229, -5378.775390625;
230, -5319.4975585938;
231, -5395.123046875;
232, -5394.2436523438;
233, -5419.7734375;
234, -5518.3051757812;
235, -5373.322265625;
236, -5345.2573242188;
237, -5293.7314453125;
238, -5325.8623046875;
239, -5464.615234375;
240, -5506.779296875;
241, -5270.525390625;
242, -5331.8500976562;
243, -5339.515625;
244, -5214.6899414062;
245, -5350.6372070312;
246, -5405.3940429688;
247, -5320.291015625;
248, -5030.1176757812;
249, -5377.00390625;
250, -5418.8305664062;
251, -5376.5068359375;
252, -5332.4443359375;
253, -5258.0473632812;
254, -5328.7768554688;
255, -5433.9536132812;
256, -5362.5849609375;
257, -5398.0766601562;
258, -5452.6064453125;
259, -5510.62109375;
260, -5512.0512695312;
261, -5398.7055664062;
262, -5422.3149414062;
263, -5470.5688476562;
264, -5318.015625;
265, -5240.2729492188;
266, -5547.3530273438;
267, -6131.115234375;
268, -5669.2709960938;
269, -5436.3505859375;
270, -5198.7583007812;
271, -4754.330078125;
272, -4989.068359375;
273, -5179.412109375;
274, -5250.3188476562;
275, -5033.5122070312;
276, -5198.2919921875;
277, -4797.9936523438;
278, -4971.966796875;
279, -4710.4501953125;
280, -4604.7788085938;
281, -5081.0620117188;
282, -4981.3559570312;
283, -4955.2700195312;
284, -4917.890625;
285, -4859.341796875;
286, -4674.0454101562;
287, -4788.4477539062;
288, -5052.0913085938;
289, -5071.408203125;
290, -5094.6958007812;
291, -5130.345703125;
292, -5091.6538085938;
293, -5117.5708007812;
294, -5219.287109375;
295, -5120.1728515625;
296, -5202.689453125;
297, -5339.2709960938;
298, -5396.37109375;
299, -5253.6259765625;
300, -5289.328125;
301, -5219.7470703125;
302, -5136.3852539062;
303, -5277.8837890625;
304, -5414.8149414062;
305, -5140.7885742188;
306, -5199.8173828125;
307, -5292.2329101562;
308, -5411.9326171875;
309, -5251.2094726562;
310, -5263.4614257812;
311, -5350.431640625;
312, -5352.7958984375;
313, -5439.787109375;
314, -5342.1767578125;
315, -5373.7504882812;
316, -5351.8823242188;
317, -5307.8051757812;
318, -5355.9174804688;
319, -5500.5766601562;
320, -5307.5786132812;
321, -5181.5834960938;
322, -5262.89453125;
323, -5770.8139648438;
324, -5035.87890625;
325, -5025.5166015625;
326, -5532.9682617188;
327, -5337.9897460938;
328, -5606.8168945312;
329, -5364.0727539062;
330, -5425.0649414062;
331, -5387.923828125;
332, -5390.1669921875;
333, -5296.9282226562;
334, -5709.6196289062;
335, -5188.255859375;
336, -5305.3486328125;
337, -5287.2900390625;
338, -5304.7314453125;
339, -5322.9213867188;
340, -5222.6201171875;
341, -5259.4956054688;
342, -5306.34375;
343, -5404.212890625;
344, -5317.8120117188;
345, -5269.9340820312;
346, -5200.5659179688;
347, -5215.76953125;
348, -5189.783203125;
349, -5183.6708984375;
350, -5163.1328125;
351, -5176.4096679688;
352, -5143.0883789062;
353, -5196.9697265625;
354, -5157.4770507812;
355, -5197.615234375;
356, -5276.1450195312;
357, -5196.3354492188;
358, -5188.443359375;
359, -5172.9907226562;
360, -5276.1538085938;
361, -5273.8432617188;
362, -5237.1440429688;
363, -5168.787109375;
364, -5130.2241210938;
365, -5586.6376953125;
366, -5482.5737304688;
367, -5490.2329101562;
368, -5567.884765625;
369, -5658.6997070312;
370, -5803.318359375;
371, -5744.5356445312;
372, -5640.3090820312;
373, -5621.7827148438;
374, -5800.6494140625;
375, -5763.9809570312;
376, -5707.716796875;
377, -5908.6826171875;
378, -6079.1166992188;
379, -5585.513671875;
380, -6284.6279296875;
381, -5305.083984375;
382, -5388.0463867188;
383, -5524.193359375;
384, -5516.0654296875;
385, -5483.7700195312;
386, -5491.5576171875;
387, -5516.4091796875;
388, -5395.8276367188;
389, -5287.7583007812;
390, -5320.4985351562;
391, -5221.3198242188;
392, -5166.3256835938;
393, -5060.6181640625;
394, -5153.7749023438;
395, -5033.076171875;
396, -5055.5703125;
397, -5177.4741210938;
398, -5256.1508789062;
399, -5220.7729492188;
400, -5180.7705078125;
401, -5166.5502929688;
402, -5131.822265625;
403, -5035.4555664062;
404, -4863.357421875;
405, -5303.3012695312;
406, -5302.7387695312;
407, -4941.1831054688;
408, -5186.96875;
409, -5149.5834960938;
410, -5206.4614257812;
411, -5277.763671875;
412, -5381.7216796875;
413, -5160.3823242188;
414, -5093.8955078125;
415, -4966.4829101562;
416, -4995.0556640625;
417, -5102.330078125;
418, -4954.0693359375;
419, -3700.6242675781;
420, -5159.6708984375;
421, -4889.814453125;
422, -4843.904296875;
423, -4658.1606445312;
424, -4774.1396484375;
425, -4645.4448242188;
426, -4432.7490234375;
427, -4310.0825195312;
428, -2192.6467285156;
429, -2891.2351074219;
430, -3361.4418945312;
431, -4239.2294921875;
432, -4470.748046875;
433, -4297.3564453125;
434, -4276.9829101562;
435, -4412.9462890625;
436, -4333.7114257812;
437, -4220.2055664062;
438, -4204.2265625;
439, -4157.314453125;
440, -4173.1918945312;
441, -4101.7553710938;
442, -4090.2797851562;
443, -3976.2143554688;
444, -2957.5249023438;
445, -1781.4001464844;
446, -2150.7053222656;
447, -2502.3955078125;
448, -2328.0104980469;
449, -2730.1027832031;
450, -3326.9382324219;
451, -3503.6271972656;
452, -3545.3310546875;
453, -3707.4965820312;
454, -3919.1613769531;
455, -4432.009765625;
456, -4751.2846679688;
457, -4664.3461914062;
458, -4794.9658203125;
459, -4507.7841796875;
460, -2104.0654296875;
461, -4656.0068359375;
462, -4970.162109375;
463, -5150.8510742188;
464, -5167.2192382812;
465, -5241.9897460938;
466, -5029.7036132812;
467, -5162.3637695312;
468, -5103.912109375;
469, -5173.6665039062;
470, -5152.8334960938;
471, -5173.15625;
472, -5207.103515625;
473, -5233.376953125;
474, -5171.3999023438;
475, -5196.279296875;
476, -5241.5922851562;
477, -5205.072265625;
478, -5263.8217773438;
479, -5239.0952148438;
480, -5254.8715820312;
481, -5361.3974609375;
482, -5356.2666015625;
483, -5388.0678710938;
484, -5270.314453125;
485, -5288.0151367188;
486, -5330.9814453125;
487, -5229.3901367188;
488, -4683.501953125;
489, -5264.6967773438;
490, -5144.1342773438;
491, -5182.6479492188;
492, -5216.146484375;
493, -4844.8681640625;
494, -4287.2275390625;
495, -5026.2856445312;
496, -5332.8779296875;
497, -5187.0322265625;
498, -4659.34375;
499, -4048.4812011719;
