0, -3818.7607421875;
1, -3714.1040039062;
2, -3953.6037597656;
3, -4155.0654296875;
4, -4382.6376953125;
5, -4143.498046875;
6, -3706.9118652344;
7, -4544.892578125;
8, -4323.4438476562;
9, -3997.1301269531;
10, -3794.529296875;
11, -3732.4145507812;
12, -3913.5073242188;
13, -4014.8586425781;
14, -3876.3325195312;
15, -3643.0563964844;
16, -3510.7692871094;
17, -3816.537109375;
18, -3556.4216308594;
19, -3771.6381835938;
20, -3567.6696777344;
21, -3273.6369628906;
22, -3096.7810058594;
23, -3903.8286132812;
24, -3977.6770019531;
25, -3171.05078125;
26, -3524.79296875;
27, -3810.837890625;
28, -3636.2683105469;
29, -3582.1535644531;
30, -3457.9775390625;
31, -3724.6865234375;
32, -3762.8591308594;
33, -3283.9089355469;
34, -3746.1176757812;
35, -3534.8854980469;
36, -3226.4719238281;
37, -3408.0686035156;
38, -3349.4331054688;
39, -3599.9401855469;
40, -3318.6357421875;
41, -3411.5751953125;
42, -3480.8095703125;
43, -3660.6345214844;
44, -3520.7377929688;
45, -3734.3918457031;
46, -3458.0808105469;
47, -3370.1491699219;
48, -3397.984375;
49, -3395.6291503906;
50, -3559.7155761719;
51, -3586.12109375;
52, -3642.0268554688;
53, -3785.68359375;
54, -3583.7514648438;
55, -3594.5363769531;
56, -3537.0063476562;
57, -3388.28125;
58, -3419.6154785156;
59, -3465.3303222656;
60, -3471.6123046875;
61, -3375.6083984375;
62, -3365.9296875;
63, -3358.1149902344;
64, -3364.5690917969;
65, -3198.5146484375;
66, -3271.8073730469;
67, -3295.9892578125;
68, -3350.818359375;
69, -3384.2419433594;
70, -3047.1804199219;
71, -3117.7319335938;
72, -3146.4248046875;
73, -3320.77734375;
74, -3162.263671875;
75, -3290.205078125;
76, -3128.6806640625;
77, -3052.0610351562;
78, -3229.5944824219;
79, -3234.1831054688;
80, -3435.515625;
81, -3424.666015625;
82, -3299.3088378906;
83, -3157.9055175781;
84, -3365.6796875;
85, -3329.890625;
86, -3296.2570800781;
87, -3312.1208496094;
88, -3279.1955566406;
89, -3296.6359863281;
90, -3260.0639648438;
91, -3252.9643554688;
92, -3345.1225585938;
93, -3340.4392089844;
94, -3315.6706542969;
95, -3290.6127929688;
96, -3298.1591796875;
97, -3347.5520019531;
98, -3379.8620605469;
99, -3498.775390625;
100, -3698.0412597656;
101, -3675.927734375;
102, -3980.9699707031;
103, -3560.1857910156;
104, -2686.96875;
105, -3534.9934082031;
106, -3881.6223144531;
107, -1605.1528320312;
108, -3482.6403808594;
109, -3358.2553710938;
110, -3303.0615234375;
111, -3272.8327636719;
112, -3277.9624023438;
113, -3220.7355957031;
114, -3240.1665039062;
115, -3285.1923828125;
116, -3256.6635742188;
117, -3191.51171875;
118, -3225.7624511719;
119, -3331.5473632812;
120, -3593.4499511719;
121, -3599.1806640625;
122, -3626.001953125;
123, -3680.0405273438;
124, -3682.6599121094;
125, -3586.9992675781;
126, -3907.4970703125;
127, -3771.4462890625;
128, -2897.1059570312;
129, -2881.3093261719;
130, -3298.2141113281;
131, -3432.2980957031;
132, -3336.9392089844;
133, -3189.1638183594;
134, -2994.7878417969;
135, -2566.4226074219;
136, -399.94573974609;
137, -509.87847900391;
138, -2625.3415527344;
139, -3022.3217773438;
140, -3195.5834960938;
141, -3266.0297851562;
142, -3279.0705566406;
143, -3305.9301757812;
144, -3226.4924316406;
145, -3502.4296875;
146, -3397.7158203125;
147, -3824.3254394531;
148, -5037.7387695312;
149, -4733.619140625;
150, -3723.0952148438;
151, -3329.6318359375;
152, -3260.384765625;
153, -3329.1845703125;
154, -3834.5954589844;
155, -4012.3547363281;
156, -4197.875;
157, -4089.9953613281;
158, -4145.3881835938;
159, -4699.9907226562;
160, -4396.2470703125;
161, -4565.2895507812;
162, -4492.8334960938;
163, -4208.9731445312;
164, -4364.0869140625;
165, -4345.1538085938;
166, -4246.171875;
167, -4230.8959960938;
168, -4189.7758789062;
169, -3999.5651855469;
170, -3957.8063964844;
171, -4026.1081542969;
172, -4165.5073242188;
173, -4305.7641601562;
174, -4417.6147460938;
175, -4358.0747070312;
176, -4329.2817382812;
177, -4451.2768554688;
178, -4601.1577148438;
179, -4543.2758789062;
180, -4584.6469726562;
181, -4624.0947265625;
182, -4959.0551757812;
183, -4683.30078125;
184, -4514.212890625;
185, -4789.0327148438;
186, -4419.8325195312;
187, -4352.744140625;
188, -4553.916015625;
189, -4697.6069335938;
190, -4614.8330078125;
191, -4509.6401367188;
192, -4664.2934570312;
193, -4530.8544921875;
194, -4552.12890625;
195, -4564.6401367188;
196, -4738.4208984375;
197, -5066.9453125;
198, -5594.287109375;
199, -4955.3706054688;
200, -4807.9477539062;
201, -5209.9658203125;
202, -5105.9194335938;
203, -4833.0190429688;
204, -4445.2778320312;
205, -4267.0268554688;
206, -4976.490234375;
207, -5066.826171875;
208, -4803.0346679688;
209, -4307.10546875;
210, -4234.92578125;
211, -4760.6298828125;
212, -4879.2548828125;
213, -5526.263671875;
214, -5710.2763671875;
215, -5668.8354492188;
216, -5553.9458007812;
217, -5363;
218, -4751.5205078125;
219, -4737.91015625;
220, -5034.82421875;
221, -4842.4482421875;
222, -4983.9272460938;
223, -4778.6274414062;
224, -5171.265625;
225, -4952.7817382812;
226, -4887.78515625;
227, -5431.1713867188;
228, -4896.4389648438;
229, -4948.9780273438;
230, -5461.5966796875;
231, -5405.9990234375;
232, -4566.3515625;
233, -5031.0209960938;
234, -5556.1821289062;
235, -5106.5546875;
236, -5174.94921875;
237, -5033.7270507812;
238, -4711.5634765625;
239, -4453.0737304688;
240, -4901.16015625;
241, -5092.2065429688;
242, -5018.623046875;
243, -4587.1508789062;
244, -4775.4125976562;
245, -4873.314453125;
246, -4793.0830078125;
247, -4976.6840820312;
248, -4932.6962890625;
249, -5069.3120117188;
250, -5178.3642578125;
251, -5092.9594726562;
252, -5117.7431640625;
253, -5035.2875976562;
254, -5075.6206054688;
255, -5151.6962890625;
256, -5020.107421875;
257, -5151.4975585938;
258, -4960.5844726562;
259, -5062.4975585938;
260, -4924.0532226562;
261, -5116.3696289062;
262, -4956.525390625;
263, -5104.2094726562;
264, -4869.9721679688;
265, -4771.4248046875;
266, -4986.5981445312;
267, -4908.1904296875;
268, -5019.4057617188;
269, -4969.423828125;
270, -4963.87890625;
271, -5006.7670898438;
272, -4951.44921875;
273, -4796.3647460938;
274, -4716.703125;
275, -4895.861328125;
276, -4879.6420898438;
277, -5012.5952148438;
278, -5011.1079101562;
279, -5216.4526367188;
280, -4470.6518554688;
281, -4945.40234375;
282, -4948.357421875;
283, -4861.4487304688;
284, -4898.9477539062;
285, -5041.8603515625;
286, -5109.4853515625;
287, -5222.30078125;
288, -5097.68359375;
289, -4742.0146484375;
290, -4855.2924804688;
291, -4888.28125;
292, -4872.79296875;
293, -5161.353515625;
294, -4696.353515625;
295, -4904.6176757812;
296, -4997.8017578125;
297, -4940.6494140625;
298, -5123.857421875;
299, -5005.0981445312;
300, -5072.798828125;
301, -5005.5458984375;
302, -4962.2241210938;
303, -4903.1875;
304, -4856.8779296875;
305, -4778.4975585938;
306, -4932.4125976562;
307, -4895.5043945312;
308, -4861.6259765625;
309, -4710.4892578125;
310, -4826.115234375;
311, -4969.037109375;
312, -4779.2817382812;
313, -4848.1860351562;
314, -4836.6616210938;
315, -4955.115234375;
316, -4974.54296875;
317, -4426.44140625;
318, -4454.9096679688;
319, -4665.5458984375;
320, -4678.9008789062;
321, -4660.7470703125;
322, -4660.4365234375;
323, -4602.1928710938;
324, -4627.5815429688;
325, -4524.056640625;
326, -4409.1713867188;
327, -4342.2431640625;
328, -4336.8920898438;
329, -4260.7641601562;
330, -4322.8037109375;
331, -4313.185546875;
332, -4338.0620117188;
333, -4068.8405761719;
334, -4225.7763671875;
335, -4243.044921875;
336, -4363.4536132812;
337, -4438.8994140625;
338, -4224.7060546875;
339, -3664.3564453125;
340, -3673.564453125;
341, -3420.3503417969;
342, -1624.7971191406;
343, -1229.6784667969;
344, -2295.0949707031;
345, -3129.0261230469;
346, -3842.1389160156;
347, -4074.6567382812;
348, -4452.6381835938;
349, -4189.7553710938;
350, -3618.0249023438;
351, -3825.9116210938;
352, -4115.5151367188;
353, -4314.3759765625;
354, -4329.630859375;
355, -4271.0717773438;
356, -4379.1567382812;
357, -4275.6318359375;
358, -4319.7470703125;
359, -4333.6723632812;
360, -4394.24609375;
361, -4370.6284179688;
362, -4503.7197265625;
363, -3960.3161621094;
364, -3939.3642578125;
365, -4160.3046875;
366, -4257.9174804688;
367, -4315.3686523438;
368, -4012.9689941406;
369, -3725.3449707031;
370, -3904.7309570312;
371, -4135.22265625;
372, -4277.5341796875;
373, -3534.6123046875;
374, -3839.5090332031;
375, -3888.1538085938;
376, -3837.5541992188;
377, -4138.072265625;
378, -4040.3068847656;
379, -4056.5661621094;
380, -4085.6423339844;
381, -3910.1818847656;
382, -4193.1083984375;
383, -3782.2045898438;
384, -4268.099609375;
385, -4081.6140136719;
386, -4404.4721679688;
387, -4368.3720703125;
388, -4279.9404296875;
389, -4290.3935546875;
390, -4207.3139648438;
391, -4232.0971679688;
392, -4257.9379882812;
393, -4168.083984375;
394, -4202.3828125;
395, -4229.9985351562;
396, -4184.2963867188;
397, -4147.8198242188;
398, -4121.6235351562;
399, -4047.369140625;
400, -4073.546875;
401, -4239.4311523438;
402, -4277.677734375;
403, -3809.2978515625;
404, -4095.2314453125;
405, -4102.3740234375;
406, -3917.9948730469;
407, -3594.8491210938;
408, -3989.7121582031;
409, -3806.2609863281;
410, -4143.6298828125;
411, -3818.4587402344;
412, -4128.59765625;
413, -3848.9479980469;
414, -4052.2346191406;
415, -4077.5671386719;
416, -4071.96875;
417, -3931.2585449219;
418, -3858.8679199219;
419, -3984.7016601562;
420, -3921.5703125;
421, -3984.9094238281;
422, -4016.0192871094;
423, -4051.2060546875;
424, -4055.8439941406;
425, -3873.0751953125;
426, -3934.8889160156;
427, -3767.3557128906;
428, -3925.7819824219;
429, -3756.8132324219;
430, -3523.2858886719;
431, -3667.5336914062;
432, -3782.0378417969;
433, -3722.5317382812;
434, -3617.0493164062;
435, -3662.1918945312;
436, -3902.3469238281;
437, -3549.4699707031;
438, -3871.501953125;
439, -4016.3999023438;
440, -3437.8876953125;
441, -3630.1120605469;
442, -3674.0112304688;
443, -3502.1079101562;
444, -3462.8408203125;
445, -3569.4487304688;
446, -3392.4543457031;
447, -3399.34375;
448, -3528.6694335938;
449, -3569.7653808594;
450, -3573.0168457031;
451, -3462.1828613281;
452, -3578.3012695312;
453, -3636.2250976562;
454, -3773.0661621094;
455, -3665.2019042969;
456, -2897.7080078125;
457, -2127.9182128906;
458, -3131.3757324219;
459, -2760.9580078125;
460, -2852.8540039062;
461, -3124.5185546875;
462, -3217.54296875;
463, -3348.7319335938;
464, -3423.19140625;
465, -3456.328125;
466, -3454.0634765625;
467, -3522.3410644531;
468, -3704.9389648438;
469, -3779.2412109375;
470, -3898.6323242188;
471, -3827.2048339844;
472, -3684.3835449219;
473, -3667.8171386719;
474, -3742.7102050781;
475, -3749.4562988281;
476, -3873.9597167969;
477, -3895.2763671875;
478, -4013.8657226562;
479, -3889.1555175781;
480, -3940.1198730469;
481, -3966.6147460938;
482, -3903.1999511719;
483, -4069.6701660156;
484, -3273.5854492188;
485, -3945.4255371094;
486, -4144.9130859375;
487, -4090.7141113281;
488, -3983.5725097656;
489, -4044.0500488281;
490, -4147.7861328125;
491, -4040.3969726562;
492, -3851.6506347656;
493, -4143.8276367188;
494, -4115.3076171875;
495, -4315.1782226562;
496, -4201.5009765625;
497, -4099.8803710938;
498, -4155.810546875;
499, -3946.0864257812;
