0, -2797.4301757812;
1, -2734.7993164062;
2, -2712.1689453125;
3, -2688.8139648438;
4, -2581.2307128906;
5, -2556.0668945312;
6, -2558.7377929688;
7, -2508.7734375;
8, -2474.42578125;
9, -2438.1440429688;
10, -2404.9050292969;
11, -2362.4907226562;
12, -2273.8723144531;
13, -2151.7900390625;
14, -2065.7922363281;
15, -2055.8120117188;
16, -1999.0935058594;
17, -1980.5810546875;
18, -1924.5471191406;
19, -1844.1212158203;
20, -1688.6658935547;
21, -1564.3172607422;
22, -1361.4669189453;
23, -891.48699951172;
24, -216.52903747559;
25, -142.51205444336;
26, -106.6429901123;
27, -102.96830749512;
28, -80.762184143066;
29, -29.44687461853;
30, -6.4011068344116;
31, -5.9169225692749;
32, -6.9583320617676;
33, -7.5442028045654;
34, 0.12939411401749;
35, 3.5547688007355;
36, 4.5148324966431;
37, 4.5333437919617;
38, 8.2825860977173;
39, 10.788899421692;
40, 2.680335521698;
41, 6.4546627998352;
42, 2.8807947635651;
43, 3.5822072029114;
44, 3.8285157680511;
45, 3.9183261394501;
46, 5.2647047042847;
47, 7.6063590049744;
48, 9.1302280426025;
49, 8.1190547943115;
50, 10.756769180298;
51, 10.348561286926;
52, 9.9226837158203;
53, 7.1274590492249;
54, 6.1403050422668;
55, 6.8070673942566;
56, 5.4212913513184;
57, 9;
58, 14.683035850525;
59, 770.15521240234;
60, 1675.7602539062;
61, 1630.0021972656;
62, 1038.9731445312;
63, 828.04455566406;
64, 682.99792480469;
65, 81.099723815918;
66, 58.582546234131;
67, 61.170330047607;
68, 65.905342102051;
69, 70.269905090332;
70, 80.317413330078;
71, 172.59274291992;
72, 1164.0731201172;
73, 1576.5740966797;
74, 2310.3322753906;
75, 2619.1789550781;
76, 1936.8897705078;
77, 1141.7243652344;
78, 1352.0295410156;
79, 1807.7281494141;
80, 2312.4343261719;
81, 1180.2623291016;
82, 2162.6711425781;
83, 2548.357421875;
84, 3488.7727050781;
85, 1893.0863037109;
86, 3251.193359375;
87, 4100.2963867188;
88, 4190.8715820312;
89, 4543.5239257812;
90, 5545.7001953125;
91, 2803.6662597656;
92, 3297.158203125;
93, 3749.4731445312;
94, 4989.8012695312;
95, 4416.7270507812;
96, 4804.037109375;
97, 4407.4887695312;
98, 4081.6176757812;
99, 3685.4086914062;
100, 4564.111328125;
101, 4576.005859375;
102, 4230.1123046875;
103, 4252.0024414062;
104, 4189.7353515625;
105, 4151.3955078125;
106, 4154.814453125;
107, 4429.3823242188;
108, 4099.0834960938;
109, 4657.6821289062;
110, 4815.615234375;
111, 3805.12890625;
112, 4646.5454101562;
113, 4555.1943359375;
114, 4332.8969726562;
115, 4178.4741210938;
116, 4240.58984375;
117, 4723.3120117188;
118, 4704.5463867188;
119, 4776.9448242188;
120, 4467.9736328125;
121, 4353.2875976562;
122, 4148.7661132812;
123, 4342.6899414062;
124, 4550.7939453125;
125, 4886.623046875;
126, 4595.2602539062;
127, 4362.3862304688;
128, 4103.8129882812;
129, 3933.9951171875;
130, 3763.462890625;
131, 2832.1086425781;
132, 4203.9584960938;
133, 3360.3981933594;
134, 3267.5307617188;
135, 3158.2985839844;
136, 2921.7229003906;
137, 2551.8615722656;
138, 3397.232421875;
139, 3870.0239257812;
140, 2765.9465332031;
141, 2411.0048828125;
142, 2410.4333496094;
143, 2712.189453125;
144, 3352.7690429688;
145, 2735.7751464844;
146, 3447.130859375;
147, 3766.9931640625;
148, 3040.4216308594;
149, 1814.3048095703;
150, 1577.9205322266;
151, 1573.7100830078;
152, 1506.6507568359;
153, 1466.7709960938;
154, 1424.2279052734;
155, 1370.3754882812;
156, 1350.6563720703;
157, 1336.0469970703;
158, 1335.4073486328;
159, 1306.6176757812;
160, 1340.0235595703;
161, 1352.2373046875;
162, 1288.0268554688;
163, 1213.1103515625;
164, 1285.8322753906;
165, 1443.8884277344;
166, 1443.541015625;
167, 1405.5675048828;
168, 1394.5921630859;
169, 1447.5098876953;
170, 1407.0677490234;
171, 1620.4448242188;
172, 1605.9849853516;
173, 1741.0329589844;
174, 1672.1827392578;
175, 2013.7421875;
176, 2020.6911621094;
177, 1882.1442871094;
178, 1619.0159912109;
179, 1639.8363037109;
180, 1605.3687744141;
181, 1499.5754394531;
182, 1385.9155273438;
183, 1284.7716064453;
184, 1214.8166503906;
185, 1193.0709228516;
186, 1139.3336181641;
187, 1098.6300048828;
188, 1122.0203857422;
189, 1137.1958007812;
190, 1133.609375;
191, 1220.1765136719;
192, 1106.7995605469;
193, 1129.31640625;
194, 1047.8392333984;
195, 995.09704589844;
196, 1032.7967529297;
197, 1113.3111572266;
198, 1012.1754760742;
199, 987.58404541016;
200, 1024.7825927734;
201, 1024.3909912109;
202, 987.02661132812;
203, 975.61309814453;
204, 952.82733154297;
205, 1001.4187011719;
206, 1053.7307128906;
207, 1075.7766113281;
208, 1091.1285400391;
209, 1147.2419433594;
210, 997.94549560547;
211, 977.17352294922;
212, 1018.0888671875;
213, 1030.7960205078;
214, 1105.1608886719;
215, 1174.2012939453;
216, 1243.7215576172;
217, 1181.7308349609;
218, 1124.7623291016;
219, 1136.5600585938;
220, 1000.0051269531;
221, 893.13616943359;
222, 808.09503173828;
223, 921.74200439453;
224, 993.16876220703;
225, 862.08422851562;
226, 857.57904052734;
227, 755.66497802734;
228, 610.83782958984;
229, 609.45275878906;
230, 627.05749511719;
231, 621.43609619141;
232, 608.52203369141;
233, 586.77166748047;
234, 630.99591064453;
235, 621.25939941406;
236, 598.36743164062;
237, 558.5859375;
238, 561.29559326172;
239, 553.05303955078;
240, 576.3271484375;
241, 702.47351074219;
242, 683.17163085938;
243, 614.09051513672;
244, 629.24005126953;
245, 589.55456542969;
246, 600.3984375;
247, 690.87170410156;
248, 755.55285644531;
249, 670.7392578125;
250, 772.75207519531;
251, 832.79223632812;
252, 900.13354492188;
253, 720.98547363281;
254, 992.75274658203;
255, 1017.8245849609;
256, 752.82238769531;
257, 975.23852539062;
258, 845.41619873047;
259, 1003.461730957;
260, 1050.6507568359;
261, 813.66833496094;
262, 676.43640136719;
263, 811.43444824219;
264, 1024.1568603516;
265, 925.33087158203;
266, 849.69189453125;
267, 626.72680664062;
268, 643.21722412109;
269, 570.34155273438;
270, 797.80102539062;
271, 619.86236572266;
272, 406.84204101562;
273, 418.90377807617;
274, 374.86560058594;
275, 302.96343994141;
276, 222.94897460938;
277, 282.85046386719;
278, 330.54446411133;
279, 319.49893188477;
280, 266.57958984375;
281, 294.85824584961;
282, 282.02908325195;
283, 254.44525146484;
284, 338.67370605469;
285, 314.27505493164;
286, 304.05700683594;
287, 350.37127685547;
288, 465.25076293945;
289, 529.37585449219;
290, 623.12475585938;
291, 951.88275146484;
292, 957.90112304688;
293, 911.05535888672;
294, 497.37261962891;
295, 435.51776123047;
296, 715.56457519531;
297, 519.50659179688;
298, 602.45562744141;
299, 993.08538818359;
300, 787.88458251953;
301, 577.25897216797;
302, 748.7626953125;
303, 969.22497558594;
304, 625.55944824219;
305, 341.43240356445;
306, 1047.6962890625;
307, 797.86950683594;
308, 652.49810791016;
309, 504.63684082031;
310, 784.59246826172;
311, 495.09716796875;
312, 878.25006103516;
313, 497.59631347656;
314, 343.34030151367;
315, 216.1227722168;
316, 423.5361328125;
317, 397.77603149414;
318, 472.43548583984;
319, -24.132524490356;
320, -20.935535430908;
321, -42.051933288574;
322, -49.546745300293;
323, -57.369819641113;
324, -82.416816711426;
325, -100.34107208252;
326, -99.310806274414;
327, -99.007629394531;
328, -98.84162902832;
329, -101.01138305664;
330, -137.39712524414;
331, -145.87266540527;
332, -150.32347106934;
333, -147.07679748535;
334, -148.26062011719;
335, -152.43922424316;
336, -155.6033782959;
337, -146.89724731445;
338, -161.16633605957;
339, -159.4376373291;
340, -178.73120117188;
341, -215.29652404785;
342, -246.38511657715;
343, -260.60763549805;
344, -255.73933410645;
345, -219.95524597168;
346, -193.84631347656;
347, -154.41552734375;
348, -181.67652893066;
349, -169.82629394531;
350, -165.73408508301;
351, -167.46745300293;
352, -148.3583984375;
353, -152.74694824219;
354, -136.7562713623;
355, -129.92268371582;
356, -122.95360565186;
357, -144.67840576172;
358, -141.48303222656;
359, -139.15364074707;
360, -134.23527526855;
361, -129.59121704102;
362, -135.21635437012;
363, -128.83158874512;
364, -123.62005615234;
365, -124.85697174072;
366, -120.6490020752;
367, -119.6563873291;
368, -115.99884033203;
369, -111;
370, -112.28728485107;
371, -107.11930847168;
372, -123.5591506958;
373, -124.83563995361;
374, -122.23503112793;
375, -119.81275939941;
376, -129.55320739746;
377, -128.35130310059;
378, -127.34051513672;
379, -128.85165405273;
380, -292.31689453125;
381, -261.43402099609;
382, -134.20635986328;
383, -124.74411010742;
384, -116.3363494873;
385, -112.19589996338;
386, -105.94522857666;
387, -87.186515808105;
388, -76.200866699219;
389, -52.207046508789;
390, 49.105525970459;
391, 75.118629455566;
392, 213.92013549805;
393, 452.03942871094;
394, 374.79806518555;
395, 528.90783691406;
396, 673.88354492188;
397, 524.56481933594;
398, 216.79440307617;
399, 73.068992614746;
400, 19.606679916382;
401, -11.670880317688;
402, -53.004524230957;
403, -12.587965011597;
404, 60.156623840332;
405, -56.427082061768;
406, -106.39912414551;
407, -101.84075164795;
408, -161.26953125;
409, -258.64672851562;
410, -1519.1218261719;
411, -1785.4119873047;
412, -2610.7087402344;
413, -3035.8581542969;
414, -2902.3601074219;
415, -3041.8286132812;
416, -3153.2814941406;
417, -2946.3239746094;
418, -2691.4738769531;
419, -2393.6958007812;
420, -690.47180175781;
421, -623.66589355469;
422, -593.01397705078;
423, -1213.7961425781;
424, -1595.6392822266;
425, -2322.2993164062;
426, -2988.4934082031;
427, -3128.5441894531;
428, -3311.9797363281;
429, -3341.8215332031;
430, -3394.1572265625;
431, -3449.6284179688;
432, -3530.8776855469;
433, -3589.6240234375;
434, -3592.4501953125;
435, -3597.7355957031;
436, -3606.3815917969;
437, -3627.0556640625;
438, -3647.82421875;
439, -3671.9860839844;
440, -3703.9892578125;
441, -3726.0229492188;
442, -3736.07421875;
443, -3741.859375;
444, -3770.6452636719;
445, -3752.7685546875;
446, -3745.8974609375;
447, -3746.8659667969;
448, -3764.32421875;
449, -3735.3237304688;
450, -3756.5107421875;
451, -3733.4020996094;
452, -3693.9587402344;
453, -3664.1430664062;
454, -3609.951171875;
455, -3569.8037109375;
456, -3530.3798828125;
457, -3504.7885742188;
458, -3498.181640625;
459, -2817.8798828125;
460, -3525.06640625;
461, -3363.8681640625;
462, -3449.8405761719;
463, -3242.0725097656;
464, -2286.0932617188;
465, -3319.2023925781;
466, -2531.748046875;
467, -2607.8969726562;
468, -2875.7370605469;
469, -2074.7023925781;
470, -169.59278869629;
471, -132.53656005859;
472, -102.52984619141;
473, -136.44822692871;
474, -60.718128204346;
475, -96.3076171875;
476, -126.72147369385;
477, -66.310333251953;
478, -110.65773010254;
479, -110.25365447998;
480, -106.03018188477;
481, -108.05451202393;
482, -100.10615539551;
483, -86.32608795166;
484, 130.69174194336;
485, -72.268775939941;
486, -100.42184448242;
487, -89.896156311035;
488, -152.64758300781;
489, -149.65844726562;
490, -141.76084899902;
491, -134.96792602539;
492, -137.82014465332;
493, -136.12873840332;
494, -131.48368835449;
495, -125.19831848145;
496, -125.9610824585;
497, -117.65449523926;
498, -115.32167816162;
499, -113.67875671387;
