0, -3613.3894042969;
1, -3466.7497558594;
2, -3299.0930175781;
3, -2887.7036132812;
4, -2944.8383789062;
5, -2834.7282714844;
6, -2631.5607910156;
7, -2651.8432617188;
8, -2463.7951660156;
9, -2466.1098632812;
10, -2401.0471191406;
11, -2384.2543945312;
12, -2292.6613769531;
13, -2660.5773925781;
14, -2736.0832519531;
15, -2902.7138671875;
16, -3004.6618652344;
17, -3038.6591796875;
18, -3786.2072753906;
19, -3870.8698730469;
20, -3932.5378417969;
21, -3761.1997070312;
22, -3749.1643066406;
23, -3955.4377441406;
24, -2842.3032226562;
25, -3992.5363769531;
26, -4376.921875;
27, -4300.3227539062;
28, -4246.5014648438;
29, -3736.3181152344;
30, -3978.2119140625;
31, -4006.525390625;
32, -3739.6306152344;
33, -3296.7600097656;
34, -2845.8269042969;
35, -2824.4741210938;
36, -2217.8466796875;
37, -2694.9038085938;
38, -4384.7666015625;
39, -4577.58984375;
40, -4538.5546875;
41, -4366.9760742188;
42, -4066.0358886719;
43, -4400.923828125;
44, -4221.5356445312;
45, -4534.4038085938;
46, -4301.564453125;
47, -3192.7377929688;
48, -3841.5964355469;
49, -4406.3330078125;
50, -4323.7001953125;
51, -4384.5063476562;
52, -4285.1318359375;
53, -4685.203125;
54, -3913.8439941406;
55, -4391.8193359375;
56, -4464.6552734375;
57, -4339.3642578125;
58, -4327.0629882812;
59, -4363.8666992188;
60, -4329.8540039062;
61, -4415.0405273438;
62, -4511.7495117188;
63, -4536.5561523438;
64, -4454.1303710938;
65, -4450.4970703125;
66, -4552.3310546875;
67, -4479.1733398438;
68, -4406.31640625;
69, -4352.1508789062;
70, -4405.1376953125;
71, -4446.435546875;
72, -4588.8706054688;
73, -4513.2353515625;
74, -4436.0961914062;
75, -4435.3608398438;
76, -4405.3178710938;
77, -4409.515625;
78, -4333.5473632812;
79, -4363.9321289062;
80, -4353.8134765625;
81, -4399.1655273438;
82, -4353.9301757812;
83, -4317.2763671875;
84, -4366.4169921875;
85, -4262.3232421875;
86, -4226.158203125;
87, -4324.6918945312;
88, -4293.837890625;
89, -3896.6096191406;
90, -3748.5092773438;
91, -4007.1337890625;
92, -3738.4365234375;
93, -4273.25;
94, -4152.361328125;
95, -4139.4399414062;
96, -4089.7736816406;
97, -4205.041015625;
98, -4371.3833007812;
99, -4393.0888671875;
100, -4141.4956054688;
101, -4224.1572265625;
102, -4213.0307617188;
103, -4165.9672851562;
104, -4380.0595703125;
105, -3818.8784179688;
106, -4280.3642578125;
107, -4314.6684570312;
108, -4378.8666992188;
109, -4273.3081054688;
110, -4346.0600585938;
111, -4327.1274414062;
112, -4457.7275390625;
113, -4651.5297851562;
114, -4505.9306640625;
115, -4672.712890625;
116, -4747.421875;
117, -4831.302734375;
118, -4859.7182617188;
119, -4812.4721679688;
120, -4839.9360351562;
121, -4846.525390625;
122, -4862.7661132812;
123, -4589.2119140625;
124, -4649.9799804688;
125, -4750.744140625;
126, -4962.9194335938;
127, -4890.607421875;
128, -4828.9169921875;
129, -4995.7353515625;
130, -4723.4028320312;
131, -4774.240234375;
132, -4703.9609375;
133, -4706.2255859375;
134, -4865.1513671875;
135, -4687.2641601562;
136, -4814.2270507812;
137, -4953.0444335938;
138, -4912.8369140625;
139, -5010.3510742188;
140, -4707.42578125;
141, -4921.5517578125;
142, -4790.2280273438;
143, -4946.037109375;
144, -4824.5864257812;
145, -5023.7182617188;
146, -4727.2333984375;
147, -4621.9926757812;
148, -4955.9663085938;
149, -4754.3139648438;
150, -5023.7456054688;
151, -5110.1811523438;
152, -5311.6533203125;
153, -5231.048828125;
154, -5092.5068359375;
155, -5329.423828125;
156, -5131.5498046875;
157, -5107.5615234375;
158, -5812.7543945312;
159, -5383.2260742188;
160, -5060.2841796875;
161, -5463.4790039062;
162, -5187.1767578125;
163, -5279.8134765625;
164, -5386.56640625;
165, -5264.5971679688;
166, -5080.5688476562;
167, -5549.1391601562;
168, -5223.6840820312;
169, -5217.8671875;
170, -5436.4516601562;
171, -5574.3505859375;
172, -6097.8647460938;
173, -5072.0395507812;
174, -5241.5180664062;
175, -5186.8427734375;
176, -5353.9399414062;
177, -5157.6166992188;
178, -5312.353515625;
179, -5483.7280273438;
180, -5305.701171875;
181, -5312.5317382812;
182, -5254.67578125;
183, -5676.1591796875;
184, -5268.9638671875;
185, -5485.87109375;
186, -5438.6528320312;
187, -5399.080078125;
188, -5248.7905273438;
189, -5201.3989257812;
190, -5229.4931640625;
191, -5294.6689453125;
192, -5216.8549804688;
193, -5351.6909179688;
194, -5347.953125;
195, -5208.6337890625;
196, -5304.7783203125;
197, -5415.408203125;
198, -5304.2241210938;
199, -5220.06640625;
200, -5212.3706054688;
201, -5130.3286132812;
202, -5156.591796875;
203, -5092.3666992188;
204, -4793.2075195312;
205, -5211.12890625;
206, -5215.0986328125;
207, -5171.1196289062;
208, -4845.5859375;
209, -5251.9536132812;
210, -5198.7534179688;
211, -5199.4736328125;
212, -5248.0122070312;
213, -5153.9184570312;
214, -5172.3461914062;
215, -5138.98046875;
216, -5120.1401367188;
217, -4993.3759765625;
218, -4973.349609375;
219, -4812.3486328125;
220, -4952.9282226562;
221, -4936.6450195312;
222, -4962.4233398438;
223, -4524.0029296875;
224, -4837.5478515625;
225, -4524.3403320312;
226, -4638.96484375;
227, -4947.4604492188;
228, -4273.3461914062;
229, -4315.5932617188;
230, -4434.869140625;
231, -4100.1591796875;
232, -4460.34765625;
233, -4244.0366210938;
234, -4432.5190429688;
235, -4415.5078125;
236, -4438.62109375;
237, -4543.8540039062;
238, -4464.4111328125;
239, -4398.0717773438;
240, -4132.7451171875;
241, -4226.02734375;
242, -4692.1694335938;
243, -4585.5849609375;
244, -4184.54296875;
245, -4690.9731445312;
246, -4146.0375976562;
247, -3814.1823730469;
248, -3298.5590820312;
249, -3235.8046875;
250, -3453.7841796875;
251, -4716.982421875;
252, -3597.6975097656;
253, -2868.7265625;
254, -2860.4621582031;
255, -3096.4011230469;
256, -2992.4606933594;
257, -2781.2114257812;
258, -2729.4790039062;
259, -2659.4289550781;
260, -2807.2058105469;
261, -1134.8798828125;
262, -2867.6704101562;
263, -3014.2275390625;
264, -2882.7478027344;
265, -3069.3588867188;
266, -2477.63671875;
267, -3097.0573730469;
268, -2980.8349609375;
269, -2934.64453125;
270, -3080.8935546875;
271, -3064.376953125;
272, -2945.0053710938;
273, -2950.0026855469;
274, -3497.4714355469;
275, -2973.9020996094;
276, -2597.431640625;
277, -2910.4802246094;
278, -2868.9135742188;
279, -3271.26953125;
280, -3075.6418457031;
281, -3243.9516601562;
282, -4332.8666992188;
283, -3243.4418945312;
284, -3933.6000976562;
285, -4211.1875;
286, -3759.3439941406;
287, -3869.5651855469;
288, -3799.546875;
289, -3739.9995117188;
290, -3756.3776855469;
291, -3780.9836425781;
292, -3688.1259765625;
293, -3756.8781738281;
294, -3768.3198242188;
295, -3674.6206054688;
296, -3903.8005371094;
297, -3719.6396484375;
298, -3827.259765625;
299, -3980.626953125;
300, -3859.0671386719;
301, -3564.0476074219;
302, -3821.2121582031;
303, -3624.7351074219;
304, -3889.2414550781;
305, -3881.8801269531;
306, -4128.9951171875;
307, -3809.484375;
308, -3783.3974609375;
309, -4038.8608398438;
310, -3939.9431152344;
311, -3881.2231445312;
312, -3938.5505371094;
313, -4339.2587890625;
314, -4535.1684570312;
315, -4816.8955078125;
316, -4299.5063476562;
317, -4205.2529296875;
318, -4324.98828125;
319, -4599.4731445312;
320, -4374.99609375;
321, -4256.3208007812;
322, -4653.36328125;
323, -4508.0693359375;
324, -4114.45703125;
325, -4253.4614257812;
326, -4176.5395507812;
327, -4401.5024414062;
328, -4420.1235351562;
329, -4220.736328125;
330, -4179.8999023438;
331, -4233.7270507812;
332, -4372.2250976562;
333, -4225.9584960938;
334, -4299.4755859375;
335, -4351.0258789062;
336, -4008.6796875;
337, -4013.1799316406;
338, -4242.1625976562;
339, -4079.6577148438;
340, -4164.9262695312;
341, -4054.6166992188;
342, -4198.1811523438;
343, -3917.5825195312;
344, -3948.8461914062;
345, -4172.7099609375;
346, -4381.3754882812;
347, -4335.951171875;
348, -4309.9047851562;
349, -3960.1772460938;
350, -4191.7202148438;
351, -4339.91796875;
352, -4559.55859375;
353, -4252.8745117188;
354, -4234.1318359375;
355, -4395.095703125;
356, -4384.5483398438;
357, -4548.9223632812;
358, -4383.8481445312;
359, -4377.7846679688;
360, -4377.736328125;
361, -4404;
362, -4405.7666015625;
363, -4408.2431640625;
364, -4398.6689453125;
365, -4379.927734375;
366, -4375.541015625;
367, -4357.2749023438;
368, -4347.0087890625;
369, -4329.7705078125;
370, -4318.3706054688;
371, -4298.9233398438;
372, -4283.3466796875;
373, -4264.07421875;
374, -4247.9858398438;
375, -4227.990234375;
376, -4226.5346679688;
377, -4210.5581054688;
378, -4198.033203125;
379, -4201.904296875;
380, -4214.6479492188;
381, -4221.1840820312;
382, -4270.8100585938;
383, -4178.9057617188;
384, -4200.61328125;
385, -4124.5830078125;
386, -4033.2907714844;
387, -4052.3503417969;
388, -4094.2934570312;
389, -4058.2944335938;
390, -4022.7778320312;
391, -3650.2353515625;
392, -3267.404296875;
393, -2152.8728027344;
394, -2924.0529785156;
395, -1832.48828125;
396, -356.88381958008;
397, -645.28704833984;
398, -757.4091796875;
399, -430.67333984375;
400, -121.23226165771;
401, -8.6303262710571;
402, -23.083536148071;
403, 24.291776657104;
404, 146.05233764648;
405, 755.91638183594;
406, 678.97650146484;
407, 972.27984619141;
408, 1153.7014160156;
409, 1275.4005126953;
410, 1543.8928222656;
411, 1746.994140625;
412, 1816.2659912109;
413, 1693.2259521484;
414, 1568.8624267578;
415, 1500.1325683594;
416, 1377.9934082031;
417, 1301.4813232422;
418, 1242.6350097656;
419, 1179.0054931641;
420, 1134.2084960938;
421, 1069.4484863281;
422, 995.30755615234;
423, 904.02014160156;
424, 840.84069824219;
425, 776.64599609375;
426, 724.89782714844;
427, 632.42333984375;
428, 595.83337402344;
429, 554.3203125;
430, 461.83486938477;
431, 442.50604248047;
432, 420.2619934082;
433, 393.96188354492;
434, 375.93612670898;
435, 363.11022949219;
436, 495.77288818359;
437, 575.26611328125;
438, 499.47305297852;
439, 367.61471557617;
440, 329.69067382812;
441, 349.60437011719;
442, 340.14044189453;
443, 354.91842651367;
444, 378.69061279297;
445, 397.45108032227;
446, 405.78897094727;
447, 412.75604248047;
448, 395.56289672852;
449, 354.09008789062;
450, 340.30801391602;
451, 372.83352661133;
452, 422.55880737305;
453, 484.34326171875;
454, 612.34381103516;
455, 519.30804443359;
456, 410.42825317383;
457, 345.16885375977;
458, 336.57830810547;
459, 388.09658813477;
460, 346.01458740234;
461, 403.60736083984;
462, 415.71887207031;
463, 398.69006347656;
464, 375.86279296875;
465, 362.10317993164;
466, 310.9375;
467, 314.0143737793;
468, 289.54452514648;
469, 287.26889038086;
470, 419.22930908203;
471, 868.84985351562;
472, 1196.5498046875;
473, 1684.6723632812;
474, 2047.3568115234;
475, 2425.0397949219;
476, 2260.986328125;
477, 2265.720703125;
478, 2268.6088867188;
479, 2351.6345214844;
480, 2596.0971679688;
481, 2511.7690429688;
482, 2592.7209472656;
483, 2605.4521484375;
484, 2640.2658691406;
485, 2728.7189941406;
486, 2794.0495605469;
487, 2843.1977539062;
488, 2895.3454589844;
489, 2952.9733886719;
490, 2979.3464355469;
491, 2982.9052734375;
492, 2971.3239746094;
493, 2942.9848632812;
494, 2909.3581542969;
495, 2880.0219726562;
496, 2860.4440917969;
497, 2853.8991699219;
498, 2851.1652832031;
499, 2827.0295410156;
