0, -3445.0673828125;
1, -3513.5358886719;
2, -3598.1906738281;
3, -3435.3857421875;
4, -3267.2570800781;
5, -3438.5993652344;
6, -3838.3454589844;
7, -3653.7561035156;
8, -4639.8491210938;
9, -4091.7971191406;
10, -4733.1904296875;
11, -3410.9990234375;
12, -2359.310546875;
13, -1254.4294433594;
14, 19.412309646606;
15, 1012.2817993164;
16, 1695.9259033203;
17, 1367.1599121094;
18, 1522.5571289062;
19, 2067.9599609375;
20, 1490.4512939453;
21, 1239.7634277344;
22, 1584.5252685547;
23, 1961.6469726562;
24, 1518;
25, 1557.0445556641;
26, 1581.4853515625;
27, 1514.7618408203;
28, 960.81658935547;
29, 1740.4503173828;
30, 1943.2052001953;
31, 2280.1762695312;
32, 2003.3277587891;
33, 1667.8408203125;
34, 2294.7751464844;
35, 1863.5328369141;
36, 1978.3975830078;
37, 2766.5678710938;
38, 2419.732421875;
39, 2263.3696289062;
40, 2143.4360351562;
41, 2350.9211425781;
42, 2146.9301757812;
43, 2375.4165039062;
44, 2194.0354003906;
45, 1943.1203613281;
46, 1925.9954833984;
47, 1761.1730957031;
48, 1454.6387939453;
49, 1520.5587158203;
50, 1876.1301269531;
51, 1649.9678955078;
52, 1400.6380615234;
53, 1256.91015625;
54, 1226.8338623047;
55, 1186.62890625;
56, 1257.4987792969;
57, 1539.9356689453;
58, 1515.0445556641;
59, 1467.2124023438;
60, 1477.6243896484;
61, 1603.2192382812;
62, 1372.65234375;
63, 1458.5261230469;
64, 1462.220703125;
65, 1302.0360107422;
66, 1301.5350341797;
67, 1240.4765625;
68, 1573.9399414062;
69, 850.58227539062;
70, 912.37841796875;
71, 858.45635986328;
72, 959.06048583984;
73, 981.68017578125;
74, 1078.5284423828;
75, 1307.9067382812;
76, 1251.2786865234;
77, 1442.7980957031;
78, 1870.6834716797;
79, 1105.6458740234;
80, 1107.9255371094;
81, 1106.2609863281;
82, 1153.4649658203;
83, 1624.1198730469;
84, 1816.5629882812;
85, 1648.0764160156;
86, 1692.14453125;
87, 1790.0229492188;
88, 1796.9421386719;
89, 2049.2346191406;
90, 1743.4086914062;
91, 1758.5247802734;
92, 1870.8643798828;
93, 1962.0134277344;
94, 1878.5928955078;
95, 1986.7696533203;
96, 2046.9759521484;
97, 2172.0534667969;
98, 2212.0549316406;
99, 2803.2648925781;
100, 3413.359375;
101, 2517.8625488281;
102, 2005.3745117188;
103, 2221.4838867188;
104, 2406.3361816406;
105, 2362.4965820312;
106, 2361.9272460938;
107, 2308.4494628906;
108, 2311.7761230469;
109, 2315.3618164062;
110, 2310.2033691406;
111, 2773.3422851562;
112, 3050.6164550781;
113, 2805.5715332031;
114, 2909.2160644531;
115, 2955.1936035156;
116, 3062.4638671875;
117, 3089.1552734375;
118, 2891.1525878906;
119, 3289.4013671875;
120, 2510.3444824219;
121, 2484.7548828125;
122, 2622.927734375;
123, 2592.8728027344;
124, 2985.9030761719;
125, 2860.9213867188;
126, 2188.4104003906;
127, 2095.9741210938;
128, 2094.8515625;
129, 2063.5034179688;
130, 1956.3952636719;
131, 1801.2583007812;
132, 1835.9595947266;
133, 2131.0607910156;
134, 1846.7241210938;
135, 1778.7716064453;
136, 1995.8065185547;
137, 2488.794921875;
138, 1794.2119140625;
139, 1570.1314697266;
140, 2265.3347167969;
141, 2521.3923339844;
142, 2838.0192871094;
143, 2509.4262695312;
144, 1621.7821044922;
145, 1259.5461425781;
146, 1124.3479003906;
147, 938.54217529297;
148, 936.71765136719;
149, 1087.3344726562;
150, 957.55041503906;
151, 1029.9744873047;
152, 899.35247802734;
153, 873.17065429688;
154, 868.40502929688;
155, 856.67846679688;
156, 786.72424316406;
157, 776.45758056641;
158, 889.4150390625;
159, 845.44122314453;
160, 779.74224853516;
161, 728.36364746094;
162, 892.24041748047;
163, 935.73211669922;
164, 919.66979980469;
165, 921.22924804688;
166, 952.96136474609;
167, 1002.8942260742;
168, 987.82727050781;
169, 783.06695556641;
170, 731.53405761719;
171, 730.74169921875;
172, 712.23651123047;
173, 682.69830322266;
174, 688.58044433594;
175, 671.67974853516;
176, 676.00103759766;
177, 690.68872070312;
178, 690.15179443359;
179, 705.087890625;
180, 681.47540283203;
181, 666.00115966797;
182, 635.93969726562;
183, 667.34899902344;
184, 610.55499267578;
185, 611.67523193359;
186, 588.98638916016;
187, 639.0712890625;
188, 667.84649658203;
189, 596.50360107422;
190, 540.30639648438;
191, 553.44702148438;
192, 660.18524169922;
193, 719.22668457031;
194, 674.42309570312;
195, 624.38012695312;
196, 586.77416992188;
197, 541.82604980469;
198, 473.22463989258;
199, 537.39678955078;
200, 462.86868286133;
201, 410.2311706543;
202, 455.7497253418;
203, 458.19842529297;
204, 344.56478881836;
205, 309.95413208008;
206, 272.45318603516;
207, 264.57696533203;
208, 258.8017578125;
209, 231.9186706543;
210, 210.51118469238;
211, 209;
212, 212.41284179688;
213, 235.39636230469;
214, 256.43481445312;
215, 282.68499755859;
216, 276.56243896484;
217, 234.44918823242;
218, 194.67781066895;
219, 170.07496643066;
220, 169.95086669922;
221, 164.52680969238;
222, 164.89199829102;
223, 163.69285583496;
224, 161.54469299316;
225, 157.89659118652;
226, 167.89991760254;
227, 157;
228, 177.59187316895;
229, 203.44506835938;
230, 199.98178100586;
231, 247.99752807617;
232, 255.57904052734;
233, 280.09747314453;
234, 314.00436401367;
235, 349.65158081055;
236, 338.47827148438;
237, 354.10092163086;
238, 371.9963684082;
239, 325.03918457031;
240, 376.49047851562;
241, 400.66845703125;
242, 411.57632446289;
243, 399.31207275391;
244, 412.93835449219;
245, 438.01400756836;
246, 423.17776489258;
247, 411.58755493164;
248, 438.06622314453;
249, 411.05416870117;
250, 381.9792175293;
251, 390.43493652344;
252, 546.28253173828;
253, 547.63543701172;
254, 371.01647949219;
255, 285.46200561523;
256, 394.05133056641;
257, 135.00164794922;
258, 152.63223266602;
259, 231.55824279785;
260, 251.81716918945;
261, 180.26780700684;
262, 192.96170043945;
263, 70.851860046387;
264, -53.9951171875;
265, -204.73524475098;
266, -369.23550415039;
267, -479.27844238281;
268, -430.96752929688;
269, -376.8962097168;
270, -314.94439697266;
271, -309.58697509766;
272, -256.54849243164;
273, -172.72048950195;
274, -138.13522338867;
275, 1.7818214893341;
276, 289.01165771484;
277, 228.8436126709;
278, 213.40324401855;
279, 119.64331817627;
280, 112.55805206299;
281, 128.10650634766;
282, 87.572402954102;
283, 145.9532623291;
284, 103.78771209717;
285, 45.853538513184;
286, 6.8120470046997;
287, -13.700656890869;
288, -6.4269409179688;
289, -25.370620727539;
290, -211.3747253418;
291, -356.189453125;
292, -388.78234863281;
293, -416.89431762695;
294, -395.9065246582;
295, -374.47625732422;
296, -386.22610473633;
297, -384.95495605469;
298, -502.70770263672;
299, -1200.3104248047;
300, -1659.341796875;
301, -2059.4057617188;
302, -2482.0048828125;
303, -2727.8515625;
304, -3197.3161621094;
305, -3529.3703613281;
306, -3308.4306640625;
307, -3420.2834472656;
308, -3604.9614257812;
309, -3638.4387207031;
310, -3585.9934082031;
311, -3671.6662597656;
312, -3655.625;
313, -3685.6645507812;
314, -3703.71875;
315, -3729.0061035156;
316, -3740.8781738281;
317, -3750.5910644531;
318, -3762.2561035156;
319, -3771.1694335938;
320, -3777.5065917969;
321, -3781.5510253906;
322, -3787.0427246094;
323, -3793.8342285156;
324, -3793.5275878906;
325, -3797.1682128906;
326, -3804.9384765625;
327, -3797.2866210938;
328, -3808.419921875;
329, -3794.9235839844;
330, -3790.5444335938;
331, -3801.2348632812;
332, -3419.2702636719;
333, -3360.5466308594;
334, -3677.2255859375;
335, -3790.3857421875;
336, -3748.7048339844;
337, -3752.9660644531;
338, -3767.5690917969;
339, -3763.744140625;
340, -3757.7219238281;
341, -3787.2993164062;
342, -3801.5622558594;
343, -3777.4936523438;
344, -3734.8083496094;
345, -3654.9455566406;
346, -3447.4892578125;
347, -3140.2746582031;
348, -3202.4172363281;
349, -2911.3530273438;
350, -2745.8286132812;
351, -2833.1752929688;
352, -2526.9306640625;
353, -2594.6674804688;
354, -2451.2749023438;
355, -2813.4826660156;
356, -3000.5959472656;
357, -3098.0021972656;
358, -3018.7751464844;
359, -3053.8859863281;
360, -3140.1430664062;
361, -3108.5200195312;
362, -2872.7944335938;
363, -2603.7312011719;
364, -2265.5354003906;
365, -1708.5516357422;
366, -2550.1643066406;
367, -2698.19140625;
368, -2637.1030273438;
369, -2614.0102539062;
370, -2487.03515625;
371, -2370.095703125;
372, -2189.7626953125;
373, -1960.6114501953;
374, -1819.4652099609;
375, -1186.4666748047;
376, -2385.9106445312;
377, -2877.6408691406;
378, -3611.1040039062;
379, -3799.4484863281;
380, -3810.9379882812;
381, -3864.8618164062;
382, -3913.7824707031;
383, -3940.7468261719;
384, -3920.6372070312;
385, -3900.5576171875;
386, -3881.302734375;
387, -3848.6857910156;
388, -3813.8474121094;
389, -3810.0480957031;
390, -3568.9670410156;
391, -3486.2700195312;
392, -3404.7639160156;
393, -3336.7346191406;
394, -3276.626953125;
395, -3232.5209960938;
396, -3208.1120605469;
397, -3177.5844726562;
398, -3010.3977050781;
399, -2838.5515136719;
400, -2620.6887207031;
401, -2260.8830566406;
402, -2039.1077880859;
403, -1402.5562744141;
404, -518.00640869141;
405, -375.45516967773;
406, -335.52777099609;
407, -310.5627746582;
408, -269.79339599609;
409, -201.32225036621;
410, -64.743789672852;
411, -48.382389068604;
412, -38.937793731689;
413, -25.393413543701;
414, -5.5490183830261;
415, 137.25868225098;
416, 83.142799377441;
417, 190.45448303223;
418, 344.62329101562;
419, 370.58032226562;
420, 436.0143737793;
421, 248.69142150879;
422, 51.09245300293;
423, 136.24899291992;
424, 5;
425, 21.599418640137;
426, 95.309692382812;
427, 55.110893249512;
428, 79.135292053223;
429, 98.52906036377;
430, 113.29905700684;
431, 53.951179504395;
432, 68.788444519043;
433, 175.31530761719;
434, 85.534271240234;
435, 70.083648681641;
436, 17.692909240723;
437, 66.730766296387;
438, 65.85425567627;
439, 81.611053466797;
440, 38.816299438477;
441, 25.971221923828;
442, 58.830627441406;
443, 56.088958740234;
444, 46.539581298828;
445, 44.512218475342;
446, 95.1484375;
447, 274.99951171875;
448, 367.1008605957;
449, 575.53356933594;
450, 623.28131103516;
451, 674.24871826172;
452, 924.24542236328;
453, 1068.5161132812;
454, 974.24346923828;
455, 909.86950683594;
456, 633.85314941406;
457, 1192.0247802734;
458, 693.43872070312;
459, 960.18109130859;
460, 757.01892089844;
461, 812.89379882812;
462, 802.66790771484;
463, 341.54290771484;
464, 905.56872558594;
465, 579.02410888672;
466, 840.78131103516;
467, 859.54248046875;
468, 563.0771484375;
469, 252.62074279785;
470, 540.92938232422;
471, 571.69842529297;
472, 647.84320068359;
473, 410.07556152344;
474, 386.08831787109;
475, 308.79302978516;
476, 286.37258911133;
477, 323.31506347656;
478, 219.8863067627;
479, 338.6103515625;
480, 251.49577331543;
481, 483.21047973633;
482, 497.52160644531;
483, 435.87026977539;
484, 425.22058105469;
485, 527.14929199219;
486, 369.72174072266;
487, 200.3625793457;
488, 78.775611877441;
489, 197.41795349121;
490, 293.24682617188;
491, 248.75291442871;
492, 113.57897186279;
493, 333.01119995117;
494, 300.10418701172;
495, 499.65505981445;
496, 578.91125488281;
497, 521.18994140625;
498, 327.69778442383;
499, 210.93305969238;
