0, 588.64208984375;
1, 316.9176940918;
2, 302.63436889648;
3, 396.95452880859;
4, 403.05993652344;
5, 306.37646484375;
6, 214.74703979492;
7, 219.73847961426;
8, 253.56381225586;
9, 311.60916137695;
10, 611.08312988281;
11, 739.98498535156;
12, 688.49572753906;
13, 646.43060302734;
14, 429.43203735352;
15, 306.19845581055;
16, 409.57879638672;
17, 395.4616394043;
18, 327.58959960938;
19, 311.88848876953;
20, 251.10470581055;
21, 31.548225402832;
22, 1.2063302993774;
23, 113.17245483398;
24, 91.312797546387;
25, 94.583686828613;
26, 97.121513366699;
27, 79.082786560059;
28, 5;
29, 18.597208023071;
30, 5;
31, 367.55935668945;
32, 56.271110534668;
33, 222.23777770996;
34, 87.005271911621;
35, 116.5405960083;
36, 121.05739593506;
37, -59.240756988525;
38, -29.049516677856;
39, -20.483665466309;
40, 1.008860707283;
41, -74.95467376709;
42, -54.118644714355;
43, -81.590270996094;
44, -62.250873565674;
45, -38.902454376221;
46, -31.340572357178;
47, -51.019382476807;
48, -82.435119628906;
49, -112.04846954346;
50, -174.50331115723;
51, -183.8009185791;
52, -112.99485015869;
53, -192.07698059082;
54, -296.63436889648;
55, -317.79455566406;
56, -272.3063659668;
57, -191.67774963379;
58, -100.35439300537;
59, -157.78221130371;
60, -181.63171386719;
61, -149.22769165039;
62, -364.88409423828;
63, -590.88293457031;
64, -675.62005615234;
65, -717.51690673828;
66, -797.90661621094;
67, -1182.5311279297;
68, -1681.4708251953;
69, -2260.7492675781;
70, -2788.6118164062;
71, -3018.1865234375;
72, -3299.0437011719;
73, -3515.0710449219;
74, -3616.4858398438;
75, -3742.9509277344;
76, -3804.9799804688;
77, -3843.2211914062;
78, -3850.00390625;
79, -3866.9750976562;
80, -3868.4357910156;
81, -3882.5766601562;
82, -3891.6599121094;
83, -3931.0549316406;
84, -4000.0063476562;
85, -3999.6613769531;
86, -4000.0056152344;
87, -3999.115234375;
88, -3998.1479492188;
89, -3999.9936523438;
90, -3984.0588378906;
91, -3924.5324707031;
92, -3388.9650878906;
93, -4030.5949707031;
94, -4012.7919921875;
95, -4067.3720703125;
96, -3570.4602050781;
97, -3597.3347167969;
98, -3357.8266601562;
99, -2828.7900390625;
100, -4448.8369140625;
101, -3366.5456542969;
102, -2910.3525390625;
103, -885.31640625;
104, -141.43119812012;
105, 298.24618530273;
106, 92.33130645752;
107, 115.97087860107;
108, 353.40350341797;
109, 35.186275482178;
110, 249.48039245605;
111, 671.05932617188;
112, -0.032061547040939;
113, 477.95895385742;
114, 42.329677581787;
115, 212.76533508301;
116, 742.50366210938;
117, 922.59020996094;
118, 1034.9715576172;
119, 1067.8994140625;
120, 1160.8519287109;
121, 1394.2894287109;
122, 1591.9376220703;
123, 1733.2584228516;
124, 1902.0963134766;
125, 2049.3190917969;
126, 2156.9104003906;
127, 2269.8842773438;
128, 2378.9235839844;
129, 2464.1853027344;
130, 2543.9133300781;
131, 2633.8884277344;
132, 2710.4816894531;
133, 2758.1765136719;
134, 2785.8273925781;
135, 2852.7814941406;
136, 2905.06640625;
137, 2975.0808105469;
138, 3045.8583984375;
139, 3114.3642578125;
140, 3156.7722167969;
141, 3195.1162109375;
142, 3214.8776855469;
143, 3215.6770019531;
144, 3210.498046875;
145, 3198.0988769531;
146, 3174.7521972656;
147, 3150.7709960938;
148, 3115.9694824219;
149, 3078.2741699219;
150, 3041.1767578125;
151, 2999.2856445312;
152, 2952.9868164062;
153, 2903.7810058594;
154, 2858.6416015625;
155, 2805.0659179688;
156, 2762.2111816406;
157, 2721.1857910156;
158, 2678.6655273438;
159, 2648.2446289062;
160, 2617.9489746094;
161, 2586.7255859375;
162, 2548.9189453125;
163, 2519.9970703125;
164, 2493.6364746094;
165, 2455.9196777344;
166, 2406.3596191406;
167, 2371.7202148438;
168, 2353.8327636719;
169, 2319.7907714844;
170, 2320.126953125;
171, 2444.6213378906;
172, 2547.9719238281;
173, 2652.5114746094;
174, 2729.6755371094;
175, 2788.4597167969;
176, 2813.6997070312;
177, 2819.6169433594;
178, 2831.7644042969;
179, 2847.7751464844;
180, 2808.5026855469;
181, 2715.1411132812;
182, 2579.5578613281;
183, 2347.4401855469;
184, 1713.1623535156;
185, 908.08032226562;
186, 101.10660552979;
187, 382.27670288086;
188, 147.35804748535;
189, -234.11741638184;
190, -116.18962097168;
191, -660.56823730469;
192, -1688.3134765625;
193, -2223.0607910156;
194, -2731.7890625;
195, -2667.2854003906;
196, -2845.5144042969;
197, -3086.2834472656;
198, -3166.041015625;
199, -3086.2426757812;
200, -3094.3022460938;
201, -3384.970703125;
202, -3500.1520996094;
203, -3495.4111328125;
204, -3532.955078125;
205, -3544.5927734375;
206, -3589.4443359375;
207, -3472.0441894531;
208, -3866.1950683594;
209, -3614.5288085938;
210, -3790.4985351562;
211, -3856.2746582031;
212, -3666.6142578125;
213, -3787.0791015625;
214, -3808.9916992188;
215, -3852.7136230469;
216, -3739.3908691406;
217, -3705.4443359375;
218, -3634.7856445312;
219, -3536.0502929688;
220, -3299.2634277344;
221, -3133.1201171875;
222, -2841.8698730469;
223, -2289.2575683594;
224, -1687.65234375;
225, -1695.765625;
226, -1551.8425292969;
227, -1415.1357421875;
228, -1232.8051757812;
229, -1025.2104492188;
230, -963.50079345703;
231, -948.36785888672;
232, -596.05346679688;
233, -222.58317565918;
234, -195.18814086914;
235, -155.02117919922;
236, -125.45810699463;
237, -106.05159759521;
238, -99.563217163086;
239, -112.85195922852;
240, -93.61742401123;
241, -72.161247253418;
242, -85.842208862305;
243, -80.738914489746;
244, -77.51008605957;
245, -55.850406646729;
246, -47.50023651123;
247, -62.329990386963;
248, -68.097122192383;
249, -68.17333984375;
250, -65.420509338379;
251, -65.799072265625;
252, -70.97762298584;
253, -260.84173583984;
254, -1766.4035644531;
255, -2248.2058105469;
256, -2809.5158691406;
257, -3374.2890625;
258, -3873.1030273438;
259, -4389.708984375;
260, -4618.095703125;
261, -5024.296875;
262, -5138.3745117188;
263, -4958.8266601562;
264, -4148.376953125;
265, -5032.7651367188;
266, -5331.58203125;
267, -5339.6806640625;
268, -5349.4663085938;
269, -5370.0151367188;
270, -5374.9345703125;
271, -5393.0610351562;
272, -5430.3217773438;
273, -5413.3862304688;
274, -5435.7739257812;
275, -5431.3935546875;
276, -5449.5146484375;
277, -5353.3564453125;
278, -5479.6328125;
279, -4847.330078125;
280, -5477.2651367188;
281, -5362.7265625;
282, -5478.9956054688;
283, -5524.107421875;
284, -5379.3686523438;
285, -5465.9296875;
286, -5549.9379882812;
287, -5358.0190429688;
288, -5368.7958984375;
289, -5572.5205078125;
290, -5634.8422851562;
291, -5643.4965820312;
292, -5526.6411132812;
293, -5622.0454101562;
294, -5578.9736328125;
295, -5503.3422851562;
296, -5513.203125;
297, -5638.2573242188;
298, -5588.3139648438;
299, -5535.9653320312;
300, -5539.5063476562;
301, -5620.84375;
302, -5394.6928710938;
303, -5067.1923828125;
304, -5454.96875;
305, -5216.0107421875;
306, -5374.8637695312;
307, -5482.1796875;
308, -5486.6635742188;
309, -5697.658203125;
310, -5491.560546875;
311, -5454.3891601562;
312, -5378.7353515625;
313, -5601.0302734375;
314, -5214.8291015625;
315, -5320.71875;
316, -5588.876953125;
317, -5085.5551757812;
318, -6017.365234375;
319, -5526.8686523438;
320, -6326.9321289062;
321, -5339.1059570312;
322, -5813.36328125;
323, -5745.0385742188;
324, -5561.455078125;
325, -5659.1879882812;
326, -5476.4033203125;
327, -4980.958984375;
328, -4671.7133789062;
329, -5360.591796875;
330, -5615.2373046875;
331, -5531.328125;
332, -5359.5634765625;
333, -5214.994140625;
334, -5294.3115234375;
335, -5384.935546875;
336, -4917.4799804688;
337, -5288.6787109375;
338, -5017.7124023438;
339, -4994.8911132812;
340, -5008.8798828125;
341, -4920.302734375;
342, -5116.4194335938;
343, -4972.3237304688;
344, -4499.76171875;
345, -5097.0458984375;
346, -5267.685546875;
347, -5076.470703125;
348, -5631.7866210938;
349, -5480.1079101562;
350, -5740.8447265625;
351, -5837.7045898438;
352, -5720.345703125;
353, -5472.7573242188;
354, -5440.9877929688;
355, -5406.9794921875;
356, -5539.9125976562;
357, -5513.755859375;
358, -5498.3081054688;
359, -5535.1772460938;
360, -5340.7119140625;
361, -5327.587890625;
362, -5164.2241210938;
363, -5046.7822265625;
364, -4886.0869140625;
365, -4635.765625;
366, -4555.818359375;
367, -4577.9897460938;
368, -4584.8994140625;
369, -4675.99609375;
370, -4571.8295898438;
371, -4502.9731445312;
372, -4401.6806640625;
373, -4221.3823242188;
374, -3996.5004882812;
375, -3792.3017578125;
376, -3704.7836914062;
377, -3599.1550292969;
378, -3420.2199707031;
379, -3320.388671875;
380, -3093.3156738281;
381, -2881.4099121094;
382, -2501.3381347656;
383, -2220.3583984375;
384, -1621.2845458984;
385, -679.28564453125;
386, -125.25994873047;
387, -63.72407913208;
388, -36.087635040283;
389, -28.927555084229;
390, -13.814631462097;
391, 10.276304244995;
392, 4.3347315788269;
393, 16.682453155518;
394, 61.216915130615;
395, 82.519874572754;
396, 161.95855712891;
397, 124.33969116211;
398, 162.40225219727;
399, 382.45581054688;
400, 256.24227905273;
401, 290.80090332031;
402, 268.46157836914;
403, 280.8779296875;
404, 246.1784362793;
405, 271.14309692383;
406, 240.74295043945;
407, 269.56521606445;
408, 296.38165283203;
409, 234.77029418945;
410, 222.73916625977;
411, 183.79808044434;
412, 200.42478942871;
413, 153.19485473633;
414, 136.42204284668;
415, 110.62264251709;
416, 97.455726623535;
417, 33.640037536621;
418, 144.92936706543;
419, 28.735363006592;
420, 72.485862731934;
421, 64.288345336914;
422, 4.0449929237366;
423, 25.076192855835;
424, 20.630599975586;
425, 46.193389892578;
426, 56.661846160889;
427, 60.266536712646;
428, 82.011558532715;
429, 94.56014251709;
430, 101.50090026855;
431, 87.389335632324;
432, 134.89189147949;
433, 191.67428588867;
434, 89.756340026855;
435, 117.73314666748;
436, 123.0339050293;
437, 124.13986206055;
438, 183.90815734863;
439, 274.76257324219;
440, 119.66846466064;
441, 192.72807312012;
442, 117.73804473877;
443, 204.96612548828;
444, 166.62742614746;
445, 222.22508239746;
446, 241.79020690918;
447, 241.19750976562;
448, 244.46212768555;
449, 263.95693969727;
450, 247.65441894531;
451, 382.91000366211;
452, 255.9048614502;
453, 334.93264770508;
454, 259.50476074219;
455, 275.74990844727;
456, 285.32827758789;
457, 286.26095581055;
458, 348.10317993164;
459, 356.544921875;
460, 341.69000244141;
461, 428.02395629883;
462, 457.775390625;
463, 559.01062011719;
464, 609.90112304688;
465, 638.66088867188;
466, 632.57409667969;
467, 595.90374755859;
468, 485.35357666016;
469, 237.91848754883;
470, 205.6159362793;
471, 205.15678405762;
472, 202.27976989746;
473, 110.14948272705;
474, 110.50578308105;
475, 110.24438476562;
476, 125.16778564453;
477, 144.55158996582;
478, 234.00672912598;
479, 465.90960693359;
480, 234.05230712891;
481, 188.4542388916;
482, 159.73559570312;
483, 260.20922851562;
484, 282.74182128906;
485, 156.50694274902;
486, 103.45077514648;
487, 108.05254364014;
488, 108.18508911133;
489, 106.62995910645;
490, 108.32123565674;
491, 113.28649139404;
492, 114.08367919922;
493, 119.69195556641;
494, 117.42230224609;
495, 116.29767608643;
496, 117.95172119141;
497, 117.32733154297;
498, 118.86196136475;
499, 117.99040222168;
