0, 1675.3839111328;
1, 1594.2734375;
2, 1547.9520263672;
3, 1518.1628417969;
4, 1525.1870117188;
5, 1539.5466308594;
6, 1591.4176025391;
7, 1630.3822021484;
8, 1684.7366943359;
9, 1692.7015380859;
10, 1660.4250488281;
11, 1656.7497558594;
12, 1703.5208740234;
13, 1727.7845458984;
14, 1717.6328125;
15, 1708.8052978516;
16, 1704.8519287109;
17, 1721.6534423828;
18, 1752.7027587891;
19, 1806.5795898438;
20, 1872.2092285156;
21, 1915.48046875;
22, 1980.2022705078;
23, 2028.9864501953;
24, 2043.935546875;
25, 2051.5104980469;
26, 2052.8078613281;
27, 2039.9125976562;
28, 2024.6429443359;
29, 2021.5943603516;
30, 2030.669921875;
31, 2048.5625;
32, 2068.6877441406;
33, 2086.1823730469;
34, 2123.8256835938;
35, 2210.6535644531;
36, 2317.2658691406;
37, 2368.1184082031;
38, 2410.025390625;
39, 2437.5712890625;
40, 2441.6711425781;
41, 2442.8935546875;
42, 2436.3566894531;
43, 2483.5854492188;
44, 2551.0266113281;
45, 2624.478515625;
46, 2633.8635253906;
47, 2606.0043945312;
48, 2544.822265625;
49, 2434.6723632812;
50, 2331.1352539062;
51, 2211.7487792969;
52, 2502.0983886719;
53, 2439.5766601562;
54, 2110.1359863281;
55, 1204.8197021484;
56, 732.67651367188;
57, 117.85302734375;
58, 103.05976867676;
59, 103.14356994629;
60, 103.50417327881;
61, 118.65034484863;
62, 122.16023254395;
63, 122.02940368652;
64, 115.25772094727;
65, 89.494338989258;
66, 86.678207397461;
67, 77.92024230957;
68, 67.594161987305;
69, 66.961433410645;
70, 65.227203369141;
71, 64.895988464355;
72, 64.869979858398;
73, 75.759239196777;
74, 51.258319854736;
75, 58.109706878662;
76, 61.965244293213;
77, 64.968452453613;
78, 65;
79, 64;
80, 61.470809936523;
81, 58.572414398193;
82, 56;
83, 54;
84, 50.692031860352;
85, -574.43023681641;
86, -579.36193847656;
87, -578.28002929688;
88, -559.44818115234;
89, -560.31652832031;
90, -534.06774902344;
91, -504.53234863281;
92, -553.15081787109;
93, -548.77185058594;
94, -631.06317138672;
95, -1372.6813964844;
96, -1726.0244140625;
97, -2081.0244140625;
98, -2216.9340820312;
99, -2459.1574707031;
100, -2790.6779785156;
101, -3020.1918945312;
102, -3327.734375;
103, -3517.4177246094;
104, -3593.8061523438;
105, -3702.4196777344;
106, -3644.1604003906;
107, -3548.4653320312;
108, -3643.9104003906;
109, -3772.1206054688;
110, -3829.1672363281;
111, -3824.4594726562;
112, -3865.8837890625;
113, -3928.8432617188;
114, -3999.9938964844;
115, -4220.52734375;
116, -4068.8256835938;
117, -4088.7819824219;
118, -4111.3813476562;
119, -4100.5239257812;
120, -4151.8559570312;
121, -4137.8408203125;
122, -4222.0126953125;
123, -4215.3803710938;
124, -4348.4311523438;
125, -4199.521484375;
126, -3564.0593261719;
127, -3420.2055664062;
128, -3167.2482910156;
129, -3954.1596679688;
130, -2934.5356445312;
131, -3303.6682128906;
132, -2818.3142089844;
133, -2927.6811523438;
134, -2538.1674804688;
135, -2396.3845214844;
136, -2648.7336425781;
137, -2840.6867675781;
138, -3026.5234375;
139, -2931.6137695312;
140, -3158.04296875;
141, -3131.9077148438;
142, -3312.5456542969;
143, -3370.3466796875;
144, -3239.4841308594;
145, -4110.8129882812;
146, -3842.0720214844;
147, -3607.5473632812;
148, -3884.2080078125;
149, -3565.4477539062;
150, -4054.443359375;
151, -3862.1052246094;
152, -3985.1379394531;
153, -3859.2202148438;
154, -4258.486328125;
155, -4032.6389160156;
156, -3821.42578125;
157, -4506.5288085938;
158, -4571.2583007812;
159, -4832.451171875;
160, -4619.8510742188;
161, -4177.2397460938;
162, -4746.2666015625;
163, -4701.7001953125;
164, -4875.0903320312;
165, -5008.3530273438;
166, -4530.7431640625;
167, -4941.2348632812;
168, -4978.2875976562;
169, -5034.818359375;
170, -4954.3935546875;
171, -5128.3334960938;
172, -5112.779296875;
173, -5201.8740234375;
174, -5263.5708007812;
175, -5271.103515625;
176, -5319.0078125;
177, -5334.1635742188;
178, -5414.3237304688;
179, -5409.9516601562;
180, -5454.478515625;
181, -5446.1826171875;
182, -5479.6215820312;
183, -5392.21875;
184, -5524.962890625;
185, -5433.2075195312;
186, -5366.0161132812;
187, -5237.771484375;
188, -5053.1591796875;
189, -4932.150390625;
190, -4630.728515625;
191, -4225.2231445312;
192, -2546.4702148438;
193, -2421.3874511719;
194, -2463.0329589844;
195, -2134.5844726562;
196, -3181.0751953125;
197, -4456.7153320312;
198, -4713.5014648438;
199, -4941.1000976562;
200, -4931.3662109375;
201, -4885.4765625;
202, -4882.0883789062;
203, -4814.7065429688;
204, -4745.9057617188;
205, -4592.3608398438;
206, -4639.4409179688;
207, -4513.4555664062;
208, -4366.4204101562;
209, -4460.6772460938;
210, -4389.5141601562;
211, -4164.662109375;
212, -2872.1657714844;
213, -1969.6447753906;
214, -1405.4149169922;
215, -1072.7644042969;
216, -495.75650024414;
217, -414.85592651367;
218, -320.83438110352;
219, -347.93023681641;
220, -466.98504638672;
221, -529.21838378906;
222, -1104.1016845703;
223, -1891.0784912109;
224, -2416.8933105469;
225, -2565.2431640625;
226, -2658.9543457031;
227, -2711.4587402344;
228, -2708.978515625;
229, -2748.8002929688;
230, -3351.1547851562;
231, -3573.51953125;
232, -3617.2983398438;
233, -3756.142578125;
234, -3627.8017578125;
235, -3508.6374511719;
236, -3551.55859375;
237, -3405.44921875;
238, -3117.4833984375;
239, -3496.0227050781;
240, -3517.4626464844;
241, -3581.0131835938;
242, -3600.8920898438;
243, -3919.0048828125;
244, -4180.5639648438;
245, -4128.1918945312;
246, -4622.3959960938;
247, -5418.6586914062;
248, -6622.3247070312;
249, -7126.17578125;
250, -7453.2846679688;
251, -7352.4208984375;
252, -6747.0688476562;
253, -6316.4956054688;
254, -5659.0590820312;
255, -5354.7890625;
256, -5379.7006835938;
257, -5485.3657226562;
258, -4582.251953125;
259, -4241.05078125;
260, -3168.5412597656;
261, -2880.1982421875;
262, -2246.029296875;
263, -1378.0290527344;
264, -999.93560791016;
265, -498.30252075195;
266, -1559.4064941406;
267, -1948.4384765625;
268, -1921.2048339844;
269, -1839.3778076172;
270, -1912.9794921875;
271, -1829.3885498047;
272, -2087.9904785156;
273, -2251.1267089844;
274, -2544.1376953125;
275, -2595.6953125;
276, -2204.7998046875;
277, -2258.7963867188;
278, -2180.6528320312;
279, -1840.1037597656;
280, -1296.2751464844;
281, -1394.6815185547;
282, -1248.8621826172;
283, -1021.4292602539;
284, -1119.7095947266;
285, -661.53704833984;
286, -978.97589111328;
287, -1351.4140625;
288, -880.17169189453;
289, -1767.34375;
290, -1556.2894287109;
291, -1084.9432373047;
292, -1459.5344238281;
293, -1312.6896972656;
294, -1706.5689697266;
295, -1690.0418701172;
296, -1463.0419921875;
297, -1872.7786865234;
298, -1812.2626953125;
299, -1744.4575195312;
300, -1811.5382080078;
301, -1865.2366943359;
302, -2125.0305175781;
303, -1949.623046875;
304, -1652.328125;
305, -1719.4464111328;
306, -1654.0766601562;
307, -2016.2042236328;
308, -2209.7556152344;
309, -2139.9106445312;
310, -2187.7443847656;
311, -2362.3498535156;
312, -2540.1669921875;
313, -2472.5866699219;
314, -1617.5928955078;
315, -2474.357421875;
316, -1818.2393798828;
317, -1955.1063232422;
318, -1237.6748046875;
319, -281.52062988281;
320, -1505.0867919922;
321, -268.70028686523;
322, -288.36126708984;
323, -506.19458007812;
324, -1313.3666992188;
325, -1874.7322998047;
326, -2624.9501953125;
327, -2462.1137695312;
328, -2412.8154296875;
329, -2480.1726074219;
330, -2403.5510253906;
331, -2220.8908691406;
332, -2157.4528808594;
333, -1708.6040039062;
334, -2353.2578125;
335, -3019.7858886719;
336, -3713.54296875;
337, -2429.0222167969;
338, -1898.2066650391;
339, -1240.4919433594;
340, -14.216895103455;
341, -3764.7985839844;
342, -3226.8713378906;
343, -2401.8657226562;
344, -2200.8342285156;
345, -2343.6330566406;
346, -3757.2170410156;
347, -2894.8208007812;
348, -4385.5068359375;
349, -4128.4165039062;
350, -4211.740234375;
351, -4797.8940429688;
352, -4797.0107421875;
353, -5050.3608398438;
354, -5118.0927734375;
355, -5375.7280273438;
356, -4882.8325195312;
357, -4804.3549804688;
358, -3964.474609375;
359, -5269.3198242188;
360, -5407.0126953125;
361, -4344.0361328125;
362, -4904.1557617188;
363, -5688.4057617188;
364, -5490.810546875;
365, -5475.9643554688;
366, -5645.42578125;
367, -5975.6318359375;
368, -5898.5512695312;
369, -5809.1352539062;
370, -5696.9951171875;
371, -5357.5258789062;
372, -5545.1928710938;
373, -5323.4545898438;
374, -5371.8911132812;
375, -5458.9233398438;
376, -4879.80078125;
377, -5410.3056640625;
378, -5407.9565429688;
379, -5306.51953125;
380, -5207.60546875;
381, -5372.6015625;
382, -5405.056640625;
383, -5455.888671875;
384, -5356.9677734375;
385, -5412.7280273438;
386, -5241.83984375;
387, -5352.1860351562;
388, -5513.7958984375;
389, -5340.1708984375;
390, -4998.8452148438;
391, -5490.3364257812;
392, -5498.3374023438;
393, -5421.6684570312;
394, -5537.4946289062;
395, -5477.3950195312;
396, -5575.5361328125;
397, -5626.880859375;
398, -5690.861328125;
399, -5743.31640625;
400, -5681.662109375;
401, -5668.779296875;
402, -5357.7768554688;
403, -5386.5375976562;
404, -5643.380859375;
405, -5764.7290039062;
406, -5599.4418945312;
407, -5885.4130859375;
408, -5780.4233398438;
409, -5782.0395507812;
410, -5804.3115234375;
411, -5696.7924804688;
412, -5601.6513671875;
413, -5578.0053710938;
414, -5974.3666992188;
415, -6035.654296875;
416, -5737.0444335938;
417, -5912.298828125;
418, -5997.4106445312;
419, -6026.6157226562;
420, -5930.7934570312;
421, -5974.5493164062;
422, -5752.1611328125;
423, -6052.1870117188;
424, -5852.8115234375;
425, -5687.0600585938;
426, -5878.6713867188;
427, -5586.431640625;
428, -6115.1215820312;
429, -5605.5;
430, -5734.884765625;
431, -5639.9560546875;
432, -5764.3520507812;
433, -5989.2553710938;
434, -5691.8374023438;
435, -3655.8010253906;
436, -2448.6206054688;
437, -5579.1860351562;
438, -5726.1225585938;
439, -5723.7802734375;
440, -5463.0620117188;
441, -5123.9252929688;
442, -5417.6782226562;
443, -5314.5595703125;
444, -5237.5493164062;
445, -5129.8022460938;
446, -5223.7163085938;
447, -4936.1821289062;
448, -4909.0986328125;
449, -4920.0219726562;
450, -4949.0717773438;
451, -4047.4418945312;
452, -4255.6665039062;
453, -3340.7705078125;
454, -3866.5385742188;
455, -4575.0205078125;
456, -4755.0463867188;
457, -4772.2221679688;
458, -4806.75;
459, -4799.5244140625;
460, -4785.88671875;
461, -4794.0112304688;
462, -4656.48046875;
463, -4412.5224609375;
464, -3194.2973632812;
465, -2358.9802246094;
466, -2609.1325683594;
467, -3256.4438476562;
468, -3825.6184082031;
469, -4315.3735351562;
470, -4873.26171875;
471, -5249.77734375;
472, -5527.3608398438;
473, -5611.4731445312;
474, -5680.958984375;
475, -5644.0625;
476, -5750.2783203125;
477, -5741.9096679688;
478, -5714.2744140625;
479, -5708.2841796875;
480, -5780.2241210938;
481, -5558.0512695312;
482, -5574.4516601562;
483, -5578.30859375;
484, -5585.703125;
485, -5637.025390625;
486, -5313.6889648438;
487, -5342.73828125;
488, -5332.1655273438;
489, -5383.9946289062;
490, -5311.5361328125;
491, -5442.228515625;
492, -5370.4248046875;
493, -5419.0546875;
494, -5211.5717773438;
495, -5125.2299804688;
496, -5189.751953125;
497, -5191.5263671875;
498, -5147.8793945312;
499, -5344.3852539062;
