0, 957.06427001953;
1, 969.22064208984;
2, 982.78240966797;
3, 998.33966064453;
4, 1017.0798950195;
5, 1037.6944580078;
6, 1062.3402099609;
7, 1094.4875488281;
8, 1135.2922363281;
9, 1174.6600341797;
10, 1213.1656494141;
11, 1252.767578125;
12, 1283.5888671875;
13, 1310.9344482422;
14, 1334.3638916016;
15, 1349.8371582031;
16, 1360.2698974609;
17, 1370.5200195312;
18, 1383.9503173828;
19, 1400.2873535156;
20, 1418.6872558594;
21, 1439.0933837891;
22, 1459.6650390625;
23, 1474.0177001953;
24, 1484.1326904297;
25, 1492.2174072266;
26, 1497.9968261719;
27, 1502.3117675781;
28, 1503.2716064453;
29, 1501.8084716797;
30, 1499.7897949219;
31, 1497.0120849609;
32, 1491.2873535156;
33, 1483.4063720703;
34, 1476.5946044922;
35, 1471.1918945312;
36, 1467.0025634766;
37, 1463.5534667969;
38, 1460.0140380859;
39, 1456.9851074219;
40, 1454.0728759766;
41, 1452.0385742188;
42, 1450.4521484375;
43, 1449.8890380859;
44, 1449;
45, 1448.9572753906;
46, 1448.7639160156;
47, 1448.1029052734;
48, 1448;
49, 1448.0021972656;
50, 1448;
51, 1447.9985351562;
52, 1448;
53, 1448.2260742188;
54, 1448.9390869141;
55, 1449.2995605469;
56, 1449.9990234375;
57, 1450.4763183594;
58, 1451.2034912109;
59, 1451.7869873047;
60, 1453.0747070312;
61, 1454.5892333984;
62, 1456.5590820312;
63, 1458.4287109375;
64, 1460.8225097656;
65, 1463.2358398438;
66, 1465.9104003906;
67, 1468.5693359375;
68, 1471.6708984375;
69, 1474.3623046875;
70, 1477.6896972656;
71, 1480.4891357422;
72, 1483.8942871094;
73, 1487.0095214844;
74, 1490.1737060547;
75, 1493.4797363281;
76, 1496.1984863281;
77, 1498.7327880859;
78, 1500.7121582031;
79, 1502.9587402344;
80, 1506.0532226562;
81, 1509.5170898438;
82, 1513.5408935547;
83, 1517.6697998047;
84, 1521.4810791016;
85, 1525.5828857422;
86, 1529.5687255859;
87, 1533.3248291016;
88, 1536.9047851562;
89, 1540.1237792969;
90, 1543.4625244141;
91, 1546.6440429688;
92, 1549.5394287109;
93, 1552.3927001953;
94, 1555.5085449219;
95, 1558.1663818359;
96, 1561.3165283203;
97, 1564.4896240234;
98, 1567.1342773438;
99, 1570.0355224609;
100, 1572.7017822266;
101, 1575.2563476562;
102, 1577.7708740234;
103, 1580.3759765625;
104, 1582.8542480469;
105, 1585.1290283203;
106, 1587.7580566406;
107, 1589.7130126953;
108, 1591.9606933594;
109, 1593.9125976562;
110, 1595.9468994141;
111, 1597.5596923828;
112, 1599.302734375;
113, 1600.70703125;
114, 1602.6619873047;
115, 1604.5249023438;
116, 1606.1229248047;
117, 1608.1578369141;
118, 1609.9696044922;
119, 1611.7178955078;
120, 1613.7438964844;
121, 1615.4151611328;
122, 1617.1771240234;
123, 1619.0904541016;
124, 1620.9171142578;
125, 1622.7253417969;
126, 1624.4407958984;
127, 1626.0903320312;
128, 1627.9141845703;
129, 1629.544921875;
130, 1631.0883789062;
131, 1632.7764892578;
132, 1634.1295166016;
133, 1635.5615234375;
134, 1636.974609375;
135, 1638.4653320312;
136, 1639.6069335938;
137, 1640.8508300781;
138, 1642.3892822266;
139, 1643.5;
140, 1645.2080078125;
141, 1646.4729003906;
142, 1647.6346435547;
143, 1648.8790283203;
144, 1650.3077392578;
145, 1651.5272216797;
146, 1652.6794433594;
147, 1653.865234375;
148, 1655.0334472656;
149, 1656.5982666016;
150, 1657.9798583984;
151, 1659.1397705078;
152, 1660.5380859375;
153, 1661.8682861328;
154, 1663.2724609375;
155, 1665.1158447266;
156, 1667.0139160156;
157, 1668.7855224609;
158, 1670.5684814453;
159, 1672.462890625;
160, 1674.2457275391;
161, 1676.1942138672;
162, 1678.1784667969;
163, 1680.2901611328;
164, 1682.1480712891;
165, 1684.4102783203;
166, 1686.3564453125;
167, 1688.5716552734;
168, 1690.9389648438;
169, 1693.4516601562;
170, 1695.7038574219;
171, 1697.8724365234;
172, 1700.041015625;
173, 1702.1090087891;
174, 1704.08203125;
175, 1706.1820068359;
176, 1707.9676513672;
177, 1710.2585449219;
178, 1712.1893310547;
179, 1714.0541992188;
180, 1716.189453125;
181, 1717.9967041016;
182, 1719.8884277344;
183, 1721.3511962891;
184, 1723.1872558594;
185, 1724.7152099609;
186, 1726.6583251953;
187, 1728.7219238281;
188, 1730.8876953125;
189, 1732.7860107422;
190, 1735.2120361328;
191, 1737.4519042969;
192, 1739.4940185547;
193, 1741.6033935547;
194, 1743.7181396484;
195, 1745.6281738281;
196, 1747.8275146484;
197, 1749.7485351562;
198, 1751.8792724609;
199, 1754.1177978516;
200, 1756.2126464844;
201, 1758.2132568359;
202, 1760.4001464844;
203, 1762.1773681641;
204, 1764.0668945312;
205, 1766.0185546875;
206, 1767.6247558594;
207, 1769.7325439453;
208, 1771.4743652344;
209, 1773.6387939453;
210, 1775.3063964844;
211, 1777.4727783203;
212, 1779.5017089844;
213, 1781.3919677734;
214, 1783.0551757812;
215, 1784.7290039062;
216, 1786.3823242188;
217, 1787.66796875;
218, 1789.5087890625;
219, 1790.9989013672;
220, 1792.6605224609;
221, 1794.6630859375;
222, 1796.2552490234;
223, 1797.7811279297;
224, 1799.3022460938;
225, 1800.8284912109;
226, 1802.4904785156;
227, 1803.2698974609;
228, 1803.9791259766;
229, 1805.1558837891;
230, 1805.6650390625;
231, 1806.6036376953;
232, 1806.9031982422;
233, 1807.8228759766;
234, 1808.2239990234;
235, 1808.5385742188;
236, 1808.8103027344;
237, 1808.9213867188;
238, 1808.9090576172;
239, 1808.845703125;
240, 1808.728515625;
241, 1808.9810791016;
242, 1809.1149902344;
243, 1809.3524169922;
244, 1809.8001708984;
245, 1810.2684326172;
246, 1810.6468505859;
247, 1811.1263427734;
248, 1811.4097900391;
249, 1811.6678466797;
250, 1811.9943847656;
251, 1812.3165283203;
252, 1813.1242675781;
253, 1813.6583251953;
254, 1814.146484375;
255, 1814.5241699219;
256, 1815.0310058594;
257, 1814.9729003906;
258, 1815.3797607422;
259, 1815.7365722656;
260, 1816.1312255859;
261, 1816.5557861328;
262, 1816.7170410156;
263, 1816.8962402344;
264, 1816.9937744141;
265, 1817.0695800781;
266, 1817.1330566406;
267, 1817.2023925781;
268, 1817.4655761719;
269, 1817.8409423828;
270, 1818.4763183594;
271, 1819.1036376953;
272, 1820.3054199219;
273, 1820.8311767578;
274, 1821.9350585938;
275, 1823.1618652344;
276, 1824.3784179688;
277, 1825.0963134766;
278, 1826.6628417969;
279, 1828.1883544922;
280, 1829.5014648438;
281, 1830.8980712891;
282, 1832.6409912109;
283, 1834.1422119141;
284, 1836.0981445312;
285, 1838.064453125;
286, 1839.947265625;
287, 1842.3200683594;
288, 1844.6748046875;
289, 1847.5334472656;
290, 1850.2572021484;
291, 1853.4349365234;
292, 1856.7202148438;
293, 1860.0457763672;
294, 1863.3731689453;
295, 1866.7203369141;
296, 1870.8624267578;
297, 1875.0671386719;
298, 1879.3032226562;
299, 1883.5382080078;
300, 1887.5246582031;
301, 1891.7916259766;
302, 1896.0828857422;
303, 1900.3214111328;
304, 1904.7205810547;
305, 1909.0372314453;
306, 1912.5914306641;
307, 1916.2236328125;
308, 1919.8831787109;
309, 1923.3088378906;
310, 1926.9200439453;
311, 1930.3454589844;
312, 1933.4445800781;
313, 1936.37890625;
314, 1939.0521240234;
315, 1942.0869140625;
316, 1945.0087890625;
317, 1947.4987792969;
318, 1950.2476806641;
319, 1952.4266357422;
320, 1954.7749023438;
321, 1956.9750976562;
322, 1959.2703857422;
323, 1961.2961425781;
324, 1963.2415771484;
325, 1965.2396240234;
326, 1967.0883789062;
327, 1969.0456542969;
328, 1970.7465820312;
329, 1972.4929199219;
330, 1974.0198974609;
331, 1975.8547363281;
332, 1977.8302001953;
333, 1979.5994873047;
334, 1981.7255859375;
335, 1984.2244873047;
336, 1986.5144042969;
337, 1989.0489501953;
338, 1991.8255615234;
339, 1994.470703125;
340, 1997.0836181641;
341, 1999.7531738281;
342, 2002.4058837891;
343, 2005.2508544922;
344, 2007.6654052734;
345, 2010.1112060547;
346, 2012.4268798828;
347, 2015.0983886719;
348, 2017.2696533203;
349, 2019.763671875;
350, 2022.5354003906;
351, 2024.8868408203;
352, 2027.8157958984;
353, 2030.2239990234;
354, 2033.2125244141;
355, 2035.4362792969;
356, 2038.4379882812;
357, 2041.3267822266;
358, 2043.8995361328;
359, 2047.1328125;
360, 2050.4897460938;
361, 2053.9348144531;
362, 2057.3911132812;
363, 2061.1821289062;
364, 2064.7951660156;
365, 2068.1774902344;
366, 2072.0590820312;
367, 2075.8610839844;
368, 2079.8850097656;
369, 2084.4985351562;
370, 2088.9865722656;
371, 2094.1687011719;
372, 2099.4047851562;
373, 2104.4775390625;
374, 2109.9929199219;
375, 2115.5393066406;
376, 2121.0556640625;
377, 2126.7150878906;
378, 2132.2917480469;
379, 2138.2238769531;
380, 2143.9848632812;
381, 2149.9831542969;
382, 2156.1818847656;
383, 2162.5993652344;
384, 2168.935546875;
385, 2175.3977050781;
386, 2181.74609375;
387, 2188.5327148438;
388, 2196.2736816406;
389, 2203.6767578125;
390, 2211.1022949219;
391, 2219.4602050781;
392, 2227.0690917969;
393, 2235.2348632812;
394, 2243.0595703125;
395, 2251.1157226562;
396, 2259.3393554688;
397, 2266.9245605469;
398, 2274.3227539062;
399, 2281.61328125;
400, 2288.5932617188;
401, 2295.0373535156;
402, 2301.5031738281;
403, 2307.6103515625;
404, 2313.0666503906;
405, 2318.34375;
406, 2323.7729492188;
407, 2328.5661621094;
408, 2333.4077148438;
409, 2338.2224121094;
410, 2342.6520996094;
411, 2347.3032226562;
412, 2351.6865234375;
413, 2356.0305175781;
414, 2360.4331054688;
415, 2364.8078613281;
416, 2369.1809082031;
417, 2373.5490722656;
418, 2377.888671875;
419, 2382.3283691406;
420, 2386.6750488281;
421, 2390.7055664062;
422, 2395.0056152344;
423, 2399.4235839844;
424, 2403.7927246094;
425, 2408.3947753906;
426, 2413.068359375;
427, 2417.2106933594;
428, 2422.1704101562;
429, 2426.6005859375;
430, 2431.5061035156;
431, 2436.1860351562;
432, 2440.6264648438;
433, 2444.8869628906;
434, 2449.3815917969;
435, 2453.5239257812;
436, 2457.4165039062;
437, 2461.7114257812;
438, 2465.2556152344;
439, 2468.7277832031;
440, 2472.3229980469;
441, 2475.5327148438;
442, 2478.8017578125;
443, 2481.85546875;
444, 2484.6254882812;
445, 2487.318359375;
446, 2490.1423339844;
447, 2492.6872558594;
448, 2495.3093261719;
449, 2497.7236328125;
450, 2500.13671875;
451, 2502.6083984375;
452, 2504.8024902344;
453, 2507.1796875;
454, 2509.7055664062;
455, 2512.0400390625;
456, 2514.2153320312;
457, 2516.3737792969;
458, 2518.0244140625;
459, 2520.1665039062;
460, 2522.2919921875;
461, 2524.2495117188;
462, 2526.3415527344;
463, 2528.2253417969;
464, 2530.1950683594;
465, 2532.1904296875;
466, 2534.0454101562;
467, 2535.8017578125;
468, 2537.7729492188;
469, 2539.7421875;
470, 2541.0598144531;
471, 2542.8405761719;
472, 2544.6359863281;
473, 2546.1691894531;
474, 2547.8029785156;
475, 2549.2783203125;
476, 2551.0241699219;
477, 2552.3732910156;
478, 2553.8596191406;
479, 2555.3273925781;
480, 2556.7841796875;
481, 2558.1540527344;
482, 2559.6711425781;
483, 2561.0366210938;
484, 2562.3000488281;
485, 2563.8474121094;
486, 2565.4731445312;
487, 2566.9626464844;
488, 2568.490234375;
489, 2570.1083984375;
490, 2571.7604980469;
491, 2573.3662109375;
492, 2574.8852539062;
493, 2576.5144042969;
494, 2578.0063476562;
495, 2579.6274414062;
496, 2581.8391113281;
497, 2583.4304199219;
498, 2585.7443847656;
499, 2588.2546386719;
