0, -3988.3857421875;
1, -4311.892578125;
2, -4439.7905273438;
3, -4577.2978515625;
4, -4377.1274414062;
5, -4564.2529296875;
6, -3955.1130371094;
7, -4543.5395507812;
8, -4558.6538085938;
9, -4574.4731445312;
10, -4538.755859375;
11, -4610.2734375;
12, -4549.3198242188;
13, -4906.1669921875;
14, -4436.3134765625;
15, -5084.392578125;
16, -4556.4658203125;
17, -4847.6108398438;
18, -4978.0029296875;
19, -5906.2846679688;
20, -4693.880859375;
21, -4584.2099609375;
22, -4824.3959960938;
23, -4631.1948242188;
24, -4621.5288085938;
25, -5292.6806640625;
26, -5644.7514648438;
27, -5214.9404296875;
28, -5554.1625976562;
29, -5339.5283203125;
30, -4965.7993164062;
31, -4752.7836914062;
32, -4969.0649414062;
33, -5126.5341796875;
34, -4911.0654296875;
35, -5169.13671875;
36, -4921.8461914062;
37, -4739.7392578125;
38, -5419.4091796875;
39, -4931.0849609375;
40, -5594.2944335938;
41, -5412.8315429688;
42, -5636.220703125;
43, -4821.5444335938;
44, -5528.7568359375;
45, -5361.0576171875;
46, -5097.1352539062;
47, -4844.9404296875;
48, -4777.6552734375;
49, -5155.1958007812;
50, -4765.16796875;
51, -4711.3779296875;
52, -4877.2822265625;
53, -5073.2661132812;
54, -4751.546875;
55, -5156.9731445312;
56, -4930.7749023438;
57, -5545.5961914062;
58, -4821.9516601562;
59, -5052.595703125;
60, -5798.7915039062;
61, -5008.5947265625;
62, -5015.6259765625;
63, -4862.9741210938;
64, -5274.9809570312;
65, -4991.7314453125;
66, -4835.6459960938;
67, -5574.6069335938;
68, -4880.1411132812;
69, -5050.8334960938;
70, -5029.5395507812;
71, -5801.0185546875;
72, -5812.2065429688;
73, -5342.8017578125;
74, -5556.9750976562;
75, -5585.7080078125;
76, -5507.1640625;
77, -5180.48828125;
78, -5530.671875;
79, -5163.9799804688;
80, -5194.2993164062;
81, -4823.6264648438;
82, -3306.89453125;
83, -4842.5205078125;
84, -5252.3759765625;
85, -5364.9453125;
86, -5570.4345703125;
87, -5322.1616210938;
88, -3277.4086914062;
89, -5038.1352539062;
90, -5456.2319335938;
91, -5015.9145507812;
92, -5228.4584960938;
93, -4983.505859375;
94, -4728.013671875;
95, -4865.8012695312;
96, -4881.2192382812;
97, -4384.6850585938;
98, -4357.4384765625;
99, -4407.7338867188;
100, -4478.4716796875;
101, -4378.8491210938;
102, -3757.5231933594;
103, -4253.1782226562;
104, -4022.1494140625;
105, -4154.3564453125;
106, -4149.0131835938;
107, -4142.68359375;
108, -4378.7685546875;
109, -4206.0024414062;
110, -4710.109375;
111, -5013.4755859375;
112, -4776.4047851562;
113, -4442.1479492188;
114, -4692.7934570312;
115, -4353.12890625;
116, -4664.3071289062;
117, -4432.6723632812;
118, -4347.052734375;
119, -4591.341796875;
120, -4819.0385742188;
121, -4785.3276367188;
122, -4995.3833007812;
123, -4346.841796875;
124, -4717.0952148438;
125, -4659.9858398438;
126, -4639.0234375;
127, -4745.8637695312;
128, -4946.1411132812;
129, -4953.7294921875;
130, -4864.6875;
131, -4938.8232421875;
132, -4998.6728515625;
133, -5015.4409179688;
134, -5010.08984375;
135, -5059.9790039062;
136, -5049.0380859375;
137, -5059.4760742188;
138, -5055.2290039062;
139, -5058.1923828125;
140, -5085.3623046875;
141, -5093.43359375;
142, -5100.826171875;
143, -5076.4130859375;
144, -5153.75390625;
145, -5044.9018554688;
146, -5032.119140625;
147, -5020.98046875;
148, -4866.7885742188;
149, -4713.62890625;
150, -4202.3115234375;
151, -130.98107910156;
152, -51.977855682373;
153, -15.477220535278;
154, -18.321208953857;
155, 63.549057006836;
156, 167.21022033691;
157, 134.47651672363;
158, 106.42495727539;
159, 152.59425354004;
160, 188.01947021484;
161, 205.10877990723;
162, 272.97348022461;
163, 441.15878295898;
164, 133.33032226562;
165, 188.08261108398;
166, 177.43618774414;
167, 163.72763061523;
168, 135.22406005859;
169, 122.70543670654;
170, 100.0936126709;
171, 116.7660446167;
172, 106.65534973145;
173, 115.39183807373;
174, 118.32211303711;
175, 150.43855285645;
176, 250.74440002441;
177, 138.49029541016;
178, 153.73454284668;
179, 186.90180969238;
180, 302.87759399414;
181, 279.73718261719;
182, 299.11663818359;
183, 267.44281005859;
184, 311.12301635742;
185, 317.44787597656;
186, 302.62060546875;
187, 290.29916381836;
188, 328.67349243164;
189, 286.76593017578;
190, 322.0451965332;
191, 324.57647705078;
192, 337.8671875;
193, 332.17367553711;
194, 318.36029052734;
195, 323.86743164062;
196, 271.02453613281;
197, 267.43353271484;
198, 272.08602905273;
199, 289.32983398438;
200, 303.44958496094;
201, 290.39889526367;
202, 313.04446411133;
203, 294.71737670898;
204, 281.73886108398;
205, 280.9440612793;
206, 263.34042358398;
207, 264.94012451172;
208, 276.60626220703;
209, 288.69134521484;
210, 295.8962097168;
211, 302.89990234375;
212, 313.30505371094;
213, 311.9621887207;
214, 340.44741821289;
215, 340.77459716797;
216, 344.99096679688;
217, 309.56414794922;
218, 332.12261962891;
219, 344.75381469727;
220, 362.57098388672;
221, 338.11032104492;
222, 331.81329345703;
223, 315.90823364258;
224, 301.80981445312;
225, 287.17034912109;
226, 289.69900512695;
227, 281.29840087891;
228, 319.50152587891;
229, 338.41052246094;
230, 333.36553955078;
231, 331.66430664062;
232, 318.9189453125;
233, 314.54458618164;
234, 308.54693603516;
235, 302.7307434082;
236, 294.52496337891;
237, 272.29113769531;
238, 267.65484619141;
239, 269.38751220703;
240, 268.49508666992;
241, 258.33432006836;
242, 255.64414978027;
243, 255.82968139648;
244, 262.38092041016;
245, 278.98519897461;
246, 281.53967285156;
247, 292.71798706055;
248, 287.0583190918;
249, 300.09490966797;
250, 291.59466552734;
251, 295.30758666992;
252, 303.36416625977;
253, 303.67086791992;
254, 306.41418457031;
255, 321.11227416992;
256, 304.40701293945;
257, 340.98831176758;
258, 361.37844848633;
259, 381.95880126953;
260, 381.47549438477;
261, 349.70785522461;
262, 449.77453613281;
263, 495.71588134766;
264, 528.74554443359;
265, 572.54272460938;
266, 620.59399414062;
267, 649.14270019531;
268, 725.23742675781;
269, 708.84387207031;
270, 756.54388427734;
271, 822.96789550781;
272, 801.64019775391;
273, 1360.6567382812;
274, 1411.6262207031;
275, 1210.5358886719;
276, 1322.6535644531;
277, 1305.1019287109;
278, 1191.9450683594;
279, 1121.4766845703;
280, 1028.3928222656;
281, 1128.5139160156;
282, 1248.7067871094;
283, 1174.9207763672;
284, 1417.2723388672;
285, 775.25347900391;
286, 135.55191040039;
287, 183.76416015625;
288, -262.56893920898;
289, -273.68130493164;
290, -2085.6762695312;
291, -2184.5541992188;
292, -2385.7932128906;
293, -2028.8189697266;
294, -1353.9755859375;
295, -1859.7430419922;
296, -954.05389404297;
297, 421.4619140625;
298, 317.06927490234;
299, 348.86923217773;
300, 259.3310546875;
301, 536.10614013672;
302, 763.39630126953;
303, 909.39874267578;
304, 675.40167236328;
305, 720.00823974609;
306, 691.06713867188;
307, 1021.7575073242;
308, 1258.8100585938;
309, 1530.9825439453;
310, 1493.3946533203;
311, 1358.2550048828;
312, 1027.8109130859;
313, 887.76751708984;
314, 680.64935302734;
315, 708.31628417969;
316, 604.70477294922;
317, 311.30422973633;
318, 350.79388427734;
319, 686.15759277344;
320, 504.39575195312;
321, 1018.7647094727;
322, 528.92834472656;
323, 15.880799293518;
324, -174.79197692871;
325, -77.33869934082;
326, -70.874855041504;
327, -89.639465332031;
328, -58.976951599121;
329, -47.197658538818;
330, -66.426452636719;
331, -64.533866882324;
332, -42.034133911133;
333, -46.008934020996;
334, -28.948463439941;
335, -14.945741653442;
336, 0.42885389924049;
337, 60.706920623779;
338, 43.168869018555;
339, 5.0958800315857;
340, 53.171714782715;
341, 61.40465927124;
342, 77.604598999023;
343, 44.759456634521;
344, 77.757171630859;
345, 101.11915588379;
346, -16.615356445312;
347, -18.069770812988;
348, -13.755410194397;
349, 33.252063751221;
350, 60.342426300049;
351, -54.050727844238;
352, -60.456439971924;
353, -47.692371368408;
354, -34.807884216309;
355, 20.996175765991;
356, 50.243549346924;
357, 107.48948669434;
358, 163.77613830566;
359, 79.268898010254;
360, 185.0412902832;
361, 78.956504821777;
362, 132.03784179688;
363, 70.160034179688;
364, 72.77220916748;
365, 145.17460632324;
366, 238.84915161133;
367, 400.29028320312;
368, 134.98539733887;
369, 164.21002197266;
370, 234.05709838867;
371, 129.14653015137;
372, 141.51303100586;
373, 230.99278259277;
374, 52.805404663086;
375, 62.544410705566;
376, 69.03833770752;
377, -51.918495178223;
378, -58.026927947998;
379, -45.836925506592;
380, -44.40657043457;
381, -60.832927703857;
382, -74.617645263672;
383, -74.075523376465;
384, -56.245452880859;
385, -21.190093994141;
386, -75.59342956543;
387, -100.22798156738;
388, -95.049224853516;
389, -101.95785522461;
390, -91.97102355957;
391, -90.244483947754;
392, -76.371726989746;
393, -90.255355834961;
394, -93.051704406738;
395, -103.22244262695;
396, -78.842208862305;
397, -55.930168151855;
398, -103.65990447998;
399, -120.71858978271;
400, -157.0389251709;
401, -457.99325561523;
402, -739.29620361328;
403, -1307.5472412109;
404, -1524.1254882812;
405, -1641.3350830078;
406, -1730.9893798828;
407, -1564.5209960938;
408, -1788.2489013672;
409, -1958.8076171875;
410, -2119.7612304688;
411, -2427.0739746094;
412, -2676.71484375;
413, -2714.1181640625;
414, -2852.4018554688;
415, -2908.2790527344;
416, -2953.2456054688;
417, -3029.7492675781;
418, -3098.9477539062;
419, -3167.7243652344;
420, -3209.3947753906;
421, -3279.626953125;
422, -3324.9011230469;
423, -3513.9663085938;
424, -3484.1252441406;
425, -3519.7827148438;
426, -3439.7734375;
427, -3437.4809570312;
428, -3703.3171386719;
429, -3669.2092285156;
430, -3410.0329589844;
431, -3201.7355957031;
432, -3667.6142578125;
433, -3741.2827148438;
434, -3703.7197265625;
435, -3659.0168457031;
436, -3385.0590820312;
437, -3432.9677734375;
438, -3280.4274902344;
439, -3137.4069824219;
440, -2753.9345703125;
441, -3009.8515625;
442, -2571.3459472656;
443, -3169.6645507812;
444, -2868.5529785156;
445, -2280.5888671875;
446, -2119.1149902344;
447, -2020.8942871094;
448, -1732.7366943359;
449, -2181.8796386719;
450, -2659.2485351562;
451, -2965.447265625;
452, -2890.6335449219;
453, -3073.6643066406;
454, -3033.9521484375;
455, -3017.0471191406;
456, -3099.0561523438;
457, -3402.5197753906;
458, -3350.4868164062;
459, -3685.7438964844;
460, -3625.212890625;
461, -3680.1499023438;
462, -3498.9448242188;
463, -3644.0415039062;
464, -3634.845703125;
465, -3667.5751953125;
466, -3704.6994628906;
467, -3733.4187011719;
468, -3701.697265625;
469, -2811.9880371094;
470, -2984.4265136719;
471, -3056.6323242188;
472, -3034.4030761719;
473, -2977.4597167969;
474, -2894.4653320312;
475, -2828.365234375;
476, -2813.6032714844;
477, -2561.0278320312;
478, -2542.8793945312;
479, -2468.1274414062;
480, -2288.7482910156;
481, -2281.5747070312;
482, -2431.3923339844;
483, -2422.1162109375;
484, -2558.3005371094;
485, -3086.31640625;
486, -3233.5319824219;
487, -3461.8591308594;
488, -3647.8134765625;
489, -3427.74609375;
490, -3878.095703125;
491, -4002.2380371094;
492, -4011.6872558594;
493, -3632.7697753906;
494, -3019.9143066406;
495, -2498.1384277344;
496, -3159.2150878906;
497, -3561.2236328125;
498, -2741.498046875;
499, -3973.7456054688;
