0, 1592.1413574219;
1, 1558.5467529297;
2, 1522.7883300781;
3, 1488.7058105469;
4, 1452.9083251953;
5, 1435.0329589844;
6, 1414.3843994141;
7, 1390.2902832031;
8, 1348.6232910156;
9, 1288.904296875;
10, 1200.9659423828;
11, 1131.0319824219;
12, 1086.5615234375;
13, 1053.5887451172;
14, 1029.5437011719;
15, 1000.4178466797;
16, 985.36291503906;
17, 974.23120117188;
18, 964.06646728516;
19, 955.86773681641;
20, 950.73101806641;
21, 959.19812011719;
22, 977.65026855469;
23, 989.45245361328;
24, 1001.8272705078;
25, 1017.7236328125;
26, 1019.6867675781;
27, 1012.4701538086;
28, 994.13732910156;
29, 952.78527832031;
30, 888.71527099609;
31, 803.69769287109;
32, 755.65972900391;
33, 713.59619140625;
34, 681.51702880859;
35, 643.42193603516;
36, 554.02557373047;
37, 408.54797363281;
38, 308.45938110352;
39, 181.98954772949;
40, 193.71891784668;
41, 275.35092163086;
42, 339.46978759766;
43, 389.15765380859;
44, 411.60577392578;
45, 415.63610839844;
46, 412.88192749023;
47, 419.73501586914;
48, 450.14874267578;
49, 507.07144165039;
50, 604.43829345703;
51, 731.06854248047;
52, 857.02966308594;
53, 940.81726074219;
54, 971.73608398438;
55, 999.30712890625;
56, 1032.6838378906;
57, 1058.0970458984;
58, 1070.296875;
59, 1067.4680175781;
60, 1067.4094238281;
61, 1063.3198242188;
62, 1059.1846923828;
63, 1047.8841552734;
64, 1039.6091308594;
65, 1036.8249511719;
66, 1029.1281738281;
67, 1013.2237548828;
68, 975.27923583984;
69, 916.50219726562;
70, 865.76867675781;
71, 813.46447753906;
72, 750.30816650391;
73, 659.55780029297;
74, 553.88366699219;
75, 282.47128295898;
76, 43.920001983643;
77, 0.023224223405123;
78, 100.69966125488;
79, 10.138606071472;
80, -141.60739135742;
81, -394.39123535156;
82, -384.97937011719;
83, -482.91326904297;
84, -563.30456542969;
85, -688.15551757812;
86, -936.99249267578;
87, -1034.4039306641;
88, -1081.8498535156;
89, -1112.6240234375;
90, -1128.6452636719;
91, -1106.2121582031;
92, -1054.7694091797;
93, -1010.6455688477;
94, -991.79089355469;
95, -955.28399658203;
96, -920.21832275391;
97, -871.31390380859;
98, -819.11944580078;
99, -442.60473632812;
100, -32.473159790039;
101, 0;
102, -541.53161621094;
103, -471.32446289062;
104, -429.72525024414;
105, -356.68304443359;
106, -282.46701049805;
107, -206.17317199707;
108, -93.535461425781;
109, 2.8798592090607;
110, 111.34963989258;
111, 176.22816467285;
112, 177.60540771484;
113, 104.62326812744;
114, 40.406562805176;
115, 39.466117858887;
116, 47.546249389648;
117, 49.876800537109;
118, 56.086078643799;
119, 59.173515319824;
120, 59.23885345459;
121, 59.287261962891;
122, 58.318737030029;
123, 58.999767303467;
124, 58.988655090332;
125, 57.198986053467;
126, 56.711471557617;
127, 55.221965789795;
128, 55.143924713135;
129, 54.064739227295;
130, 54.960777282715;
131, 54.842853546143;
132, 55;
133, 54;
134, 54.376388549805;
135, 54;
136, 55;
137, 55;
138, 56;
139, 55;
140, 55.106384277344;
141, 55.709678649902;
142, 56.267185211182;
143, 58.830936431885;
144, 58.978847503662;
145, 58.387454986572;
146, 59;
147, 61.09525680542;
148, 63.547843933105;
149, 64.841659545898;
150, 65.384483337402;
151, 67.011756896973;
152, 68.531051635742;
153, 70.012474060059;
154, 72.015914916992;
155, 70.596908569336;
156, 69.999710083008;
157, 69.627258300781;
158, 73.305564880371;
159, 77.453765869141;
160, 82;
161, 83.8408203125;
162, 84.048843383789;
163, 83.171928405762;
164, 84.998306274414;
165, 87.972152709961;
166, 90;
167, 92.719696044922;
168, 95.006500244141;
169, 98.313323974609;
170, 101.13786315918;
171, 104.88845825195;
172, 106.99356079102;
173, 108;
174, 112;
175, 113.80367279053;
176, 115.43865203857;
177, 116.13833618164;
178, 117.93970489502;
179, 133.28675842285;
180, 135.14674377441;
181, 141.17581176758;
182, 182.86268615723;
183, 401.5666809082;
184, 597.25689697266;
185, 365.64801025391;
186, 566.51037597656;
187, 668.73693847656;
188, 690.37487792969;
189, 683.56713867188;
190, 684.64447021484;
191, 729.94995117188;
192, 775.13604736328;
193, 769.50885009766;
194, 799.23376464844;
195, 862.14141845703;
196, 905.14654541016;
197, 930.16546630859;
198, 998.17523193359;
199, 1007.1278686523;
200, 1028.14453125;
201, 1031.6649169922;
202, 1069.8433837891;
203, 1083.2750244141;
204, 1137.8642578125;
205, 1172.0640869141;
206, 1215.8555908203;
207, 1239.4459228516;
208, 1252.4985351562;
209, 1266.9235839844;
210, 1261.1789550781;
211, 1235.3637695312;
212, 1209.1312255859;
213, 1173.9611816406;
214, 1129.7741699219;
215, 1111.9221191406;
216, 1066.9757080078;
217, 1062.5140380859;
218, 1082.4525146484;
219, 1059.0916748047;
220, 1038.8602294922;
221, 1019.6605224609;
222, 998.97979736328;
223, 1006.1228637695;
224, 978.19982910156;
225, 983.45959472656;
226, 1003.2368164062;
227, 969.61291503906;
228, 960.35662841797;
229, 946.07757568359;
230, 1014.9895629883;
231, 1082.9637451172;
232, 1164.2231445312;
233, 1205.8642578125;
234, 1229.1416015625;
235, 1237.6634521484;
236, 1195.1467285156;
237, 1095.4763183594;
238, 996.42059326172;
239, 692.43768310547;
240, 494.44940185547;
241, 365.69683837891;
242, 294.5537109375;
243, 255.08143615723;
244, 184.72039794922;
245, 105.57688903809;
246, 44.730861663818;
247, 30.447820663452;
248, 34.222633361816;
249, 37.535495758057;
250, 40.475128173828;
251, 45.548770904541;
252, 41;
253, 36;
254, 122.49642181396;
255, 77.39769744873;
256, 27.070873260498;
257, 34.150451660156;
258, 36.30184173584;
259, 27.109683990479;
260, 280.23059082031;
261, 602.31268310547;
262, 732.78216552734;
263, 638.16229248047;
264, 221.45755004883;
265, 0.32648348808289;
266, -83.477661132812;
267, -443.20947265625;
268, -459.5627746582;
269, -646.51312255859;
270, -720.66088867188;
271, -729.44384765625;
272, -639.65087890625;
273, -520.73565673828;
274, -494.11605834961;
275, -588.00146484375;
276, -590.93109130859;
277, -994.67498779297;
278, -1475.4926757812;
279, -1827.8699951172;
280, -2147.7036132812;
281, -2693.9074707031;
282, -3076.3483886719;
283, -3290.1223144531;
284, -3287.4001464844;
285, -3492.189453125;
286, -3530.306640625;
287, -3496.4050292969;
288, -3587.5378417969;
289, -3676.6630859375;
290, -3771.4560546875;
291, -3621.2407226562;
292, -3767.95703125;
293, -3905.2270507812;
294, -3930.3518066406;
295, -4029.7280273438;
296, -4030.8974609375;
297, -4033.97265625;
298, -3886.4870605469;
299, -3783.3862304688;
300, -3787.2351074219;
301, -3949.2744140625;
302, -4111.228515625;
303, -4162.9184570312;
304, -4122.2724609375;
305, -4231.14453125;
306, -4254.3540039062;
307, -4222.0546875;
308, -4198.095703125;
309, -4144.7446289062;
310, -4073.5895996094;
311, -3902.9111328125;
312, -3948.8520507812;
313, -4050.6708984375;
314, -4034.2719726562;
315, -4139.6450195312;
316, -4138.6616210938;
317, -4233.7919921875;
318, -4190.17578125;
319, -4190.0322265625;
320, -4227.9790039062;
321, -4229.8149414062;
322, -4253.2622070312;
323, -4274.3701171875;
324, -4325.998046875;
325, -4363.0922851562;
326, -4390.9848632812;
327, -4442.9794921875;
328, -4494.00390625;
329, -4574.3071289062;
330, -4659.3354492188;
331, -4654.7631835938;
332, -4683.8715820312;
333, -4725.78125;
334, -4760.28515625;
335, -4783.5708007812;
336, -4798.2875976562;
337, -4809.9711914062;
338, -4827.4282226562;
339, -4836.3857421875;
340, -4817.166015625;
341, -4844.7119140625;
342, -4828.0078125;
343, -4864.4404296875;
344, -4856.0546875;
345, -4846.4243164062;
346, -4863.298828125;
347, -4907.84375;
348, -4866.5322265625;
349, -4885.0952148438;
350, -4896.345703125;
351, -4914.8935546875;
352, -4963.7875976562;
353, -4953.2192382812;
354, -4976.0654296875;
355, -4956.3959960938;
356, -4947.3686523438;
357, -4941.0346679688;
358, -4963.6689453125;
359, -4964.603515625;
360, -4986.6098632812;
361, -5000.9233398438;
362, -5025.5654296875;
363, -5018.0859375;
364, -5046.203125;
365, -5056.1733398438;
366, -5062.9379882812;
367, -5059.4326171875;
368, -5066.7084960938;
369, -5073.9194335938;
370, -5098.5615234375;
371, -5094.8671875;
372, -5089.9418945312;
373, -5099.4028320312;
374, -5131.8461914062;
375, -5147.7119140625;
376, -5124.3916015625;
377, -5067.0864257812;
378, -5036.0595703125;
379, -4931.0361328125;
380, -4950.2182617188;
381, -4813.25;
382, -4828.3759765625;
383, -4899.6665039062;
384, -4857.1005859375;
385, -4890.7255859375;
386, -4929.5336914062;
387, -4928.84375;
388, -4807.564453125;
389, -4946.884765625;
390, -4949.3793945312;
391, -4993.2065429688;
392, -5172.4194335938;
393, -4829.15234375;
394, -4911.9770507812;
395, -4769.3569335938;
396, -4971.7827148438;
397, -4867.2158203125;
398, -4659.2822265625;
399, -4872.5229492188;
400, -4975.1254882812;
401, -5010.0190429688;
402, -4906.5102539062;
403, -4932.9360351562;
404, -4918.6650390625;
405, -4982.390625;
406, -4870.3364257812;
407, -4613.4638671875;
408, -4446.5229492188;
409, -4822.0341796875;
410, -4938.9536132812;
411, -4868.9663085938;
412, -4613.9306640625;
413, -4897.9580078125;
414, -4881.23828125;
415, -4434.2719726562;
416, -4744.4155273438;
417, -4995.1752929688;
418, -5041.8676757812;
419, -4857.3481445312;
420, -4535.4443359375;
421, -4539.8120117188;
422, -4684.0512695312;
423, -4685.7553710938;
424, -4698.9443359375;
425, -4555.6166992188;
426, -4735.96875;
427, -4607.9638671875;
428, -4733.0141601562;
429, -4703.6840820312;
430, -4648.8471679688;
431, -4648.654296875;
432, -4677.1157226562;
433, -4450.76171875;
434, -4504.7924804688;
435, -4436.7534179688;
436, -4368.6333007812;
437, -4342.8969726562;
438, -4346.638671875;
439, -4396.3188476562;
440, -4280.3393554688;
441, -4397.9658203125;
442, -4206.5092773438;
443, -4085.6635742188;
444, -4151.9243164062;
445, -3998.9846191406;
446, -3991.537109375;
447, -4089.3916015625;
448, -4297.294921875;
449, -4001.1499023438;
450, -3937.5134277344;
451, -3858.8059082031;
452, -4016.3825683594;
453, -4542.451171875;
454, -4544.42578125;
455, -4378.8779296875;
456, -4602.943359375;
457, -3669.6831054688;
458, -3477.4040527344;
459, -3562.3784179688;
460, -3409.5029296875;
461, -3713.2243652344;
462, -2542.2692871094;
463, -5180.7934570312;
464, -3574.8786621094;
465, -3106.7958984375;
466, -3738.3352050781;
467, -3587.4650878906;
468, -3046.4699707031;
469, -3218.0341796875;
470, -2948.1784667969;
471, -3339.1335449219;
472, -3395.83984375;
473, -3337.7641601562;
474, -3265.2250976562;
475, -3328.1335449219;
476, -3452.8862304688;
477, -3109.7905273438;
478, -3300.2038574219;
479, -3466.4104003906;
480, -3633.6008300781;
481, -3522.203125;
482, -3442.9450683594;
483, -3651.8405761719;
484, -3647.9133300781;
485, -3670.5261230469;
486, -3675.1611328125;
487, -3629.3825683594;
488, -3510.3403320312;
489, -3658.8774414062;
490, -3545.8779296875;
491, -3918.1811523438;
492, -4050.5947265625;
493, -3888.6069335938;
494, -3621.08984375;
495, -3668.8059082031;
496, -3671.4064941406;
497, -3363.1208496094;
498, -3494.9375;
499, -3758.9099121094;
