0, -4805.8002929688;
1, -4923.298828125;
2, -4865.5327148438;
3, -4920.2084960938;
4, -5004.5341796875;
5, -5057.1474609375;
6, -4887.076171875;
7, -4662.265625;
8, -4770.4477539062;
9, -4307.1499023438;
10, -4312.3979492188;
11, -3858.2373046875;
12, -3768.974609375;
13, -3618.8317871094;
14, -3156.2263183594;
15, -2518.7043457031;
16, -3419.095703125;
17, -3245.2861328125;
18, -5373.1293945312;
19, -5302.2202148438;
20, -5338.7836914062;
21, -5643.76953125;
22, -5707.1518554688;
23, -5738.3208007812;
24, -5943.0776367188;
25, -5606.2739257812;
26, -5839.283203125;
27, -5922.6142578125;
28, -5723.0620117188;
29, -5859.869140625;
30, -5849.9252929688;
31, -5713.5043945312;
32, -5722.4721679688;
33, -5813.86328125;
34, -5688.6831054688;
35, -5792.2880859375;
36, -5835.3862304688;
37, -5829.2568359375;
38, -5777.5756835938;
39, -5726.3989257812;
40, -5935.005859375;
41, -5887.875;
42, -5955.033203125;
43, -5895.546875;
44, -5883.6240234375;
45, -5935.0502929688;
46, -5806.8706054688;
47, -5784.3803710938;
48, -5699.6176757812;
49, -5854.4370117188;
50, -5818.5385742188;
51, -5643.8671875;
52, -5751.2124023438;
53, -5822.4897460938;
54, -5770.6137695312;
55, -5842.2661132812;
56, -5689.3647460938;
57, -5656.8642578125;
58, -5627.3500976562;
59, -5599.931640625;
60, -5703.0625;
61, -5681.3286132812;
62, -5639.7153320312;
63, -5643.2041015625;
64, -4514.7192382812;
65, -5580.8330078125;
66, -5496.5834960938;
67, -5691.17578125;
68, -5774.4497070312;
69, -5631.4345703125;
70, -5655.4975585938;
71, -5584.8022460938;
72, -5490.9873046875;
73, -5473.4926757812;
74, -5398.5961914062;
75, -5346.396484375;
76, -5130.9057617188;
77, -5532.7856445312;
78, -5556.6049804688;
79, -5600.5849609375;
80, -5487.08203125;
81, -5917.0004882812;
82, -5474.1689453125;
83, -5601.8002929688;
84, -5261.1772460938;
85, -5559.1655273438;
86, -5575.6171875;
87, -5503.6748046875;
88, -5414.3920898438;
89, -4150.4907226562;
90, -5536.4604492188;
91, -5471.7724609375;
92, -5466.0463867188;
93, -5283.9096679688;
94, -5452.5927734375;
95, -5342.84765625;
96, -5234.0751953125;
97, -5342.9780273438;
98, -5414.9204101562;
99, -5380.4174804688;
100, -5436.076171875;
101, -5382.1567382812;
102, -5284.87890625;
103, -5432.775390625;
104, -5206.1049804688;
105, -5183.9711914062;
106, -5252.7231445312;
107, -5296.9321289062;
108, -5306.5551757812;
109, -5275.1826171875;
110, -5241.9609375;
111, -5330.0732421875;
112, -5333.8588867188;
113, -5368.525390625;
114, -5339.0786132812;
115, -5306.2133789062;
116, -5351.7915039062;
117, -5366.2690429688;
118, -5409.5708007812;
119, -5378.9594726562;
120, -5412.490234375;
121, -5487.1748046875;
122, -5334.7827148438;
123, -5495.4111328125;
124, -5345.4067382812;
125, -4946.1806640625;
126, -5475.6635742188;
127, -5200.5610351562;
128, -5470.2626953125;
129, -5585.560546875;
130, -5277.787109375;
131, -5405.2172851562;
132, -5526.9497070312;
133, -4944.8276367188;
134, -4785.1811523438;
135, -5239.1513671875;
136, -5313.43359375;
137, -5299.3666992188;
138, -5342.4995117188;
139, -5501.6806640625;
140, -5569.9970703125;
141, -5294.0546875;
142, -5362.720703125;
143, -5368.63671875;
144, -5381.099609375;
145, -5329.8237304688;
146, -5339.3325195312;
147, -5409.8325195312;
148, -5372.8828125;
149, -5403.7290039062;
150, -5492.5717773438;
151, -5586.6616210938;
152, -5424.8823242188;
153, -5339.9501953125;
154, -5363.8833007812;
155, -5350.224609375;
156, -5412.1118164062;
157, -5440.0053710938;
158, -5319.9638671875;
159, -5410.4604492188;
160, -5185.583984375;
161, -5337.5;
162, -5422.6987304688;
163, -5446.9907226562;
164, -5472.626953125;
165, -5480.7041015625;
166, -5471.4599609375;
167, -5436.8642578125;
168, -5504.1821289062;
169, -5470.1025390625;
170, -5476.1708984375;
171, -5456.6040039062;
172, -5523.9545898438;
173, -5455.3413085938;
174, -5420.4384765625;
175, -5430.6655273438;
176, -5335.9897460938;
177, -5304.89453125;
178, -5449.2504882812;
179, -5446.0620117188;
180, -4666.5766601562;
181, -4902.9575195312;
182, -4828.5688476562;
183, -4839.359375;
184, -4782.837890625;
185, -4795.92578125;
186, -4771.1030273438;
187, -4819.5600585938;
188, -4831.7270507812;
189, -4887.5151367188;
190, -4760.2998046875;
191, -4675.2490234375;
192, -4671.9936523438;
193, -4709.3491210938;
194, -4920.3315429688;
195, -4746.6528320312;
196, -4797.1918945312;
197, -4700.5546875;
198, -4713.0991210938;
199, -4718.2241210938;
200, -4788.3256835938;
201, -4755.3359375;
202, -4810.7265625;
203, -4848.2875976562;
204, -4941.5893554688;
205, -4934.2260742188;
206, -4861.2548828125;
207, -4814.25;
208, -4723.4912109375;
209, -4928.7109375;
210, -4858.1694335938;
211, -4861.466796875;
212, -4930.1713867188;
213, -4914.7353515625;
214, -4906.1752929688;
215, -4895.9038085938;
216, -4931.4243164062;
217, -5022.4331054688;
218, -4988.5625;
219, -4957.1665039062;
220, -4925.458984375;
221, -4893.9291992188;
222, -4880.0375976562;
223, -4865.580078125;
224, -4901.427734375;
225, -4835.0200195312;
226, -4827.044921875;
227, -4792.6000976562;
228, -4785.5258789062;
229, -4730.6923828125;
230, -4744.8896484375;
231, -4765.5600585938;
232, -4751.0395507812;
233, -4688.2856445312;
234, -4667.46484375;
235, -4509.212890625;
236, -4453.2114257812;
237, -4639.0288085938;
238, -4476.1474609375;
239, -4515.5078125;
240, -4526.6826171875;
241, -4547.2236328125;
242, -4445.5859375;
243, -4482.8623046875;
244, -4392.7216796875;
245, -4315.3657226562;
246, -4386.4345703125;
247, -4273.0727539062;
248, -4358.0239257812;
249, -4342.052734375;
250, -4413.7114257812;
251, -4334.6088867188;
252, -4418.4731445312;
253, -4531.5927734375;
254, -4448.416015625;
255, -4350.2778320312;
256, -4790.3403320312;
257, -4308.2182617188;
258, -4476.544921875;
259, -4507.1489257812;
260, -4632.048828125;
261, -4551.4086914062;
262, -4497.2578125;
263, -4587.5073242188;
264, -4584.7954101562;
265, -4617.5278320312;
266, -4574.4370117188;
267, -4509.9672851562;
268, -4536.9672851562;
269, -4546.0732421875;
270, -4474.4204101562;
271, -4534.5712890625;
272, -4541.1303710938;
273, -4545.9848632812;
274, -4482.5317382812;
275, -4383.7465820312;
276, -4325.7397460938;
277, -4302.7392578125;
278, -4389.8466796875;
279, -4365.6455078125;
280, -4307.32421875;
281, -4409.4868164062;
282, -4203.5883789062;
283, -4131.9057617188;
284, -4129.7485351562;
285, -4091.2380371094;
286, -4014.9919433594;
287, -4038.4704589844;
288, -4060.2087402344;
289, -4074.4448242188;
290, -4163.9887695312;
291, -4142.779296875;
292, -4158.12890625;
293, -4183.3803710938;
294, -4186.271484375;
295, -4208.56640625;
296, -4244.28125;
297, -4326.7651367188;
298, -4299.5512695312;
299, -4325.1362304688;
300, -4364.5522460938;
301, -4150.083984375;
302, -4174.4321289062;
303, -4130.8032226562;
304, -4370.7734375;
305, -4137.1333007812;
306, -4176.4165039062;
307, -4290.744140625;
308, -4272.333984375;
309, -4229.9262695312;
310, -4252.9497070312;
311, -4286.6782226562;
312, -4383.1010742188;
313, -4376.8134765625;
314, -4297.2260742188;
315, -4288.787109375;
316, -4269.0795898438;
317, -4226.763671875;
318, -4242.0102539062;
319, -4224.8422851562;
320, -4230.2890625;
321, -4204.10546875;
322, -4151.4184570312;
323, -4097.9326171875;
324, -4061.5139160156;
325, -4118.6650390625;
326, -3940.2485351562;
327, -3981.44921875;
328, -4131.9653320312;
329, -3727.7084960938;
330, -3721.7526855469;
331, -3712.8996582031;
332, -3719.1135253906;
333, -3692.1479492188;
334, -3537.3637695312;
335, -3558.2468261719;
336, -3520.3032226562;
337, -3348.7805175781;
338, -3425.0793457031;
339, -3401.8693847656;
340, -3479.9658203125;
341, -3452.3264160156;
342, -3326.8168945312;
343, -3190.7026367188;
344, -3927.6049804688;
345, -3188.0812988281;
346, -3679.51953125;
347, -3175.3188476562;
348, -2991.4689941406;
349, -3360.0471191406;
350, -3516.1823730469;
351, -3452.4938964844;
352, -3451.2612304688;
353, -3491.7570800781;
354, -3725.4165039062;
355, -3848.4069824219;
356, -3651.6286621094;
357, -3680.2517089844;
358, -3664.3354492188;
359, -3553.3884277344;
360, -3648.271484375;
361, -3760.3061523438;
362, -3797.7348632812;
363, -3973.7426757812;
364, -3982.8395996094;
365, -3920.0908203125;
366, -3878.9821777344;
367, -4186.2084960938;
368, -3997.9416503906;
369, -4180.478515625;
370, -4134.7724609375;
371, -4340.8842773438;
372, -4295.798828125;
373, -4251.078125;
374, -4303.7548828125;
375, -4237.859375;
376, -4219.748046875;
377, -4004.6125488281;
378, -4122.0673828125;
379, -4276.388671875;
380, -4137.5478515625;
381, -4417.5791015625;
382, -4057.6350097656;
383, -4134.0341796875;
384, -3947.5393066406;
385, -4042.439453125;
386, -3363.3637695312;
387, -3403.6733398438;
388, -4001.5197753906;
389, -3820.390625;
390, -3696.1696777344;
391, -3724.064453125;
392, -3332.1108398438;
393, -3618.6950683594;
394, -3577.3312988281;
395, -3536.3205566406;
396, -3944.0922851562;
397, -4086.7055664062;
398, -3771.8327636719;
399, -3335.3342285156;
400, -3797.7329101562;
401, -3789.0075683594;
402, -4170.51171875;
403, -4006.8664550781;
404, -4080.6157226562;
405, -4351.5122070312;
406, -4134.455078125;
407, -4227.0610351562;
408, -3921.4245605469;
409, -3733.470703125;
410, -4195.123046875;
411, -4193.51953125;
412, -4157.2084960938;
413, -4060.0266113281;
414, -4219.0874023438;
415, -4268.4892578125;
416, -4184.7670898438;
417, -4220.5283203125;
418, -4268.60546875;
419, -4272.8784179688;
420, -4226.2568359375;
421, -4362.654296875;
422, -3736.6062011719;
423, -4012.7937011719;
424, -3820.1125488281;
425, -4228.48046875;
426, -3561.3024902344;
427, -3903.3212890625;
428, -4209.4848632812;
429, -4052.3820800781;
430, -4162.30078125;
431, -4230.7578125;
432, -4160.6889648438;
433, -3977.6254882812;
434, -4231.1079101562;
435, -3615.845703125;
436, -4250.7412109375;
437, -3992.4140625;
438, -3933.5358886719;
439, -3927.0275878906;
440, -4021.25390625;
441, -3938.3720703125;
442, -4055.6396484375;
443, -4064.7114257812;
444, -3751.5952148438;
445, -3925.1376953125;
446, -4014.3837890625;
447, -3757.5129394531;
448, -4117.2841796875;
449, -3976.4929199219;
450, -4071.9619140625;
451, -4139.2890625;
452, -3933.2375488281;
453, -3974.0590820312;
454, -4088.9953613281;
455, -4016.4228515625;
456, -2818.6096191406;
457, -2676.2468261719;
458, -3877;
459, -3773.2426757812;
460, -3986.6496582031;
461, -3532.7421875;
462, -3679.7407226562;
463, -2967.4450683594;
464, -3329.9074707031;
465, -2824.5500488281;
466, -3858.5383300781;
467, -3181.3002929688;
468, -3417.1501464844;
469, -3397.0217285156;
470, -730.12103271484;
471, -3678.3532714844;
472, -4059.4814453125;
473, -4052.794921875;
474, -4089.4377441406;
475, -3900.767578125;
476, -3362.8715820312;
477, -3646.2387695312;
478, -3609.3400878906;
479, -3724.6469726562;
480, -3539.26171875;
481, -3810.7624511719;
482, -3907.3283691406;
483, -3925.4782714844;
484, -3937.2265625;
485, -4119.5390625;
486, -3983.7368164062;
487, -3874.9829101562;
488, -3728.9104003906;
489, -4328.1186523438;
490, -4236.1674804688;
491, -4140.1801757812;
492, -3976.8571777344;
493, -3778.220703125;
494, -4053.2084960938;
495, -3914.2453613281;
496, -3766.7885742188;
497, -3832.8112792969;
498, -3786.1242675781;
499, -4375.4916992188;
