0, -4177.9697265625;
1, -4146.3989257812;
2, -4109.9208984375;
3, -4110.9697265625;
4, -4096.56640625;
5, -4171.9375;
6, -4037.5297851562;
7, -3842.11328125;
8, -4050.6259765625;
9, -2311.58203125;
10, -2457.3132324219;
11, -1688.2298583984;
12, -1726.6297607422;
13, -1423.2434082031;
14, -1236.8314208984;
15, -1771.9725341797;
16, -2495.3657226562;
17, -3372.8669433594;
18, -3889.3881835938;
19, -3887.9172363281;
20, -3891.9770507812;
21, -3788.4753417969;
22, -3567.6550292969;
23, -3602.1618652344;
24, -3602.1833496094;
25, -3722.3913574219;
26, -3636.3701171875;
27, -3474.791015625;
28, -3393.4284667969;
29, -3336.2365722656;
30, -3114.9587402344;
31, -3041.9721679688;
32, -2970.412109375;
33, -3006.8090820312;
34, -3079.2895507812;
35, -3196.984375;
36, -3220.9260253906;
37, -3232.1186523438;
38, -3208.3198242188;
39, -3253.02734375;
40, -3073.3249511719;
41, -3082.65234375;
42, -3116.7644042969;
43, -3242.7763671875;
44, -3207.26171875;
45, -3000.3410644531;
46, -2596.9655761719;
47, -2571.83203125;
48, -2735.1596679688;
49, -2417.5339355469;
50, -2160.8933105469;
51, -2423.0524902344;
52, -2613.2333984375;
53, -2590.2475585938;
54, -2388.8112792969;
55, -2355.4812011719;
56, -2352.3630371094;
57, -2333.533203125;
58, -2259.427734375;
59, -2194.9272460938;
60, -2193.7915039062;
61, -2178.9799804688;
62, -2177.7751464844;
63, -2209.1694335938;
64, -2264.0759277344;
65, -2260.3557128906;
66, -2084.9331054688;
67, -1972.8218994141;
68, -1941.9467773438;
69, -2006.4483642578;
70, -1890.21875;
71, -2142.2355957031;
72, -2376.0092773438;
73, -2664.4521484375;
74, -2614.3159179688;
75, -2793.3029785156;
76, -2879.3247070312;
77, -2876.849609375;
78, -2416.0173339844;
79, -2675.7932128906;
80, -3033.7106933594;
81, -3157.8703613281;
82, -3215.7719726562;
83, -3191.6413574219;
84, -3049.2607421875;
85, -3007.6118164062;
86, -3020.935546875;
87, -3018.3601074219;
88, -3066.671875;
89, -3065.1313476562;
90, -3007.9770507812;
91, -2998.7749023438;
92, -2997.6862792969;
93, -3196.5725097656;
94, -3158.5383300781;
95, -3088.6398925781;
96, -3005.2766113281;
97, -2971.95703125;
98, -3087.4108886719;
99, -3222.9606933594;
100, -3298.0815429688;
101, -3701.673828125;
102, -3799.3813476562;
103, -3804.3483886719;
104, -3806.9208984375;
105, -3806.2727050781;
106, -3643.55078125;
107, -3804.2438964844;
108, -3790.3359375;
109, -3756.9631347656;
110, -3782.9436035156;
111, -3795.8371582031;
112, -3805.6997070312;
113, -3814.404296875;
114, -3817.4072265625;
115, -3820.0178222656;
116, -3825.9958496094;
117, -3829.9265136719;
118, -3833.5026855469;
119, -3836.7880859375;
120, -3839.775390625;
121, -3842.5693359375;
122, -3844.8227539062;
123, -3845.2648925781;
124, -3843.6284179688;
125, -3841.6223144531;
126, -3839.7197265625;
127, -3837.5764160156;
128, -3836.0583496094;
129, -3834.3229980469;
130, -3829.076171875;
131, -3823.1965332031;
132, -3831.9597167969;
133, -3836.5590820312;
134, -3840.8486328125;
135, -3837.8962402344;
136, -3664.306640625;
137, -3455.8212890625;
138, -3576.4033203125;
139, -3265.1164550781;
140, -2729.3229980469;
141, -3088.4233398438;
142, -3173.3894042969;
143, -3068.2290039062;
144, -3304.0241699219;
145, -3805.7443847656;
146, -3846.234375;
147, -3845.0869140625;
148, -3847.8557128906;
149, -3842.5451660156;
150, -3839.0524902344;
151, -3849.5773925781;
152, -3848.4792480469;
153, -3844.5119628906;
154, -3839.9982910156;
155, -3840.0383300781;
156, -3839.5524902344;
157, -3842.5964355469;
158, -3850.2006835938;
159, -3851.015625;
160, -3852.7934570312;
161, -3850.5104980469;
162, -3850.0036621094;
163, -3850.0146484375;
164, -3850.0017089844;
165, -3849.9909667969;
166, -3849.9868164062;
167, -3850.7783203125;
168, -3852.7473144531;
169, -3855.1442871094;
170, -3859.0625;
171, -3857.2561035156;
172, -3855.4016113281;
173, -3854.5534667969;
174, -3854.3247070312;
175, -3852.7507324219;
176, -3853.3527832031;
177, -3856.1750488281;
178, -3853.7294921875;
179, -3855.7102050781;
180, -3856.486328125;
181, -3856.4475097656;
182, -3857.8203125;
183, -3849.2333984375;
184, -3853.0808105469;
185, -3860.0231933594;
186, -3881.5151367188;
187, -3849.021484375;
188, -3885.0559082031;
189, -3853.8425292969;
190, -3857.4716796875;
191, -3855.9624023438;
192, -3858.0285644531;
193, -3875.2905273438;
194, -3856.6437988281;
195, -3842.7404785156;
196, -3819.1411132812;
197, -3780.0439453125;
198, -3605.4704589844;
199, -3474.5375976562;
200, -3298.8015136719;
201, -3084.9841308594;
202, -2726.3425292969;
203, -2540.1315917969;
204, -2292.763671875;
205, -1505.869140625;
206, -1150.8781738281;
207, -1189.1942138672;
208, -230.48057556152;
209, -124.92070007324;
210, -54.026786804199;
211, -54.424369812012;
212, -58.504203796387;
213, -55.376369476318;
214, -43.659351348877;
215, -32.846549987793;
216, -21.226564407349;
217, -13.68989944458;
218, -6.3985462188721;
219, 1.6793191432953;
220, 3.7459104061127;
221, 1.0700000524521;
222, 1.0700000524521;
223, 1.0700000524521;
224, 25.087991714478;
225, 34.789836883545;
226, 38.127143859863;
227, 41.641174316406;
228, 57.748870849609;
229, 54.221279144287;
230, 76.3974609375;
231, 70.413719177246;
232, 84.178062438965;
233, 105.208984375;
234, 125.65549468994;
235, 136.06132507324;
236, 182.46591186523;
237, 199.87101745605;
238, 227.20927429199;
239, 186.93203735352;
240, 282.11447143555;
241, 366.67892456055;
242, 468.88873291016;
243, 445.01797485352;
244, 625.0625;
245, 760.94506835938;
246, 818.26287841797;
247, 1205.9342041016;
248, 1389.2598876953;
249, 1402.7979736328;
250, 1154.5095214844;
251, 1436.7374267578;
252, 1336.3891601562;
253, 1192.0103759766;
254, 746.49523925781;
255, 650.17852783203;
256, 969.50988769531;
257, 678.55340576172;
258, 642.07501220703;
259, 813.90686035156;
260, 961.71759033203;
261, 772.48162841797;
262, 548.40069580078;
263, 432.99642944336;
264, 315.95001220703;
265, 283.20147705078;
266, 311.49331665039;
267, 235.19734191895;
268, 390.1462097168;
269, 390.59426879883;
270, 147.69451904297;
271, 410.50592041016;
272, 586.64990234375;
273, 642.15991210938;
274, 254.92738342285;
275, 279.69012451172;
276, 317.77261352539;
277, 329.75628662109;
278, 259.81494140625;
279, 437.13116455078;
280, 592.00244140625;
281, 650.97058105469;
282, 638.63800048828;
283, 687.11779785156;
284, 50.035495758057;
285, 57.393360137939;
286, 78.627731323242;
287, 141.31809997559;
288, 161.83876037598;
289, 110.99758911133;
290, 256.51922607422;
291, 132.2691192627;
292, 405.58151245117;
293, 162.50860595703;
294, 135.02906799316;
295, 121.27816772461;
296, 148.78988647461;
297, 300.53622436523;
298, 498.70031738281;
299, 610.82971191406;
300, 681.84161376953;
301, 459.54913330078;
302, 314.49212646484;
303, 162.95503234863;
304, 138.64123535156;
305, 364.38491821289;
306, 136.96240234375;
307, 149.40855407715;
308, 168.67056274414;
309, 205.00651550293;
310, 242.89981079102;
311, 307.83728027344;
312, 389.88116455078;
313, 630.6787109375;
314, 585.408203125;
315, 674.91058349609;
316, 1363.7114257812;
317, 945.94641113281;
318, 1843.8714599609;
319, 1378.0618896484;
320, 977.65765380859;
321, 2102.6215820312;
322, 1209.45703125;
323, 1066.8255615234;
324, 1729.7989501953;
325, 1661.0821533203;
326, 1468.9765625;
327, 1270.5676269531;
328, 466.26043701172;
329, 337.11233520508;
330, 857.61785888672;
331, 917.82690429688;
332, 697.39263916016;
333, 1076.1552734375;
334, 806.08728027344;
335, 542.28930664062;
336, 570.9296875;
337, 105.0453414917;
338, 311.54013061523;
339, 863.53491210938;
340, 783.52557373047;
341, 675.64654541016;
342, 394.43264770508;
343, 51.447151184082;
344, 445.7236328125;
345, 281.66082763672;
346, 302.8815612793;
347, 125.45824432373;
348, 127.23361206055;
349, 67.145156860352;
350, 120.46025085449;
351, 11.602645874023;
352, 40.648941040039;
353, 373.13510131836;
354, 705.50604248047;
355, 630.85974121094;
356, 718.14739990234;
357, 565.25531005859;
358, 46.833530426025;
359, 44.457424163818;
360, 271.68682861328;
361, -60.205654144287;
362, -246.15199279785;
363, -209.17903137207;
364, -199.10646057129;
365, -204.58624267578;
366, 60.194190979004;
367, 201.14942932129;
368, 171.01972961426;
369, 252.25704956055;
370, 300.26440429688;
371, 81.738304138184;
372, 64.779418945312;
373, 137.35649108887;
374, 37.534488677979;
375, 19.107875823975;
376, -46.620399475098;
377, -18.221639633179;
378, 180.28652954102;
379, 32.330875396729;
380, -36.604652404785;
381, -96.523323059082;
382, -130.57736206055;
383, -99.718124389648;
384, -131.56585693359;
385, -203.57914733887;
386, -731.89270019531;
387, -798.26086425781;
388, -384.80200195312;
389, -478.09197998047;
390, -1370.3739013672;
391, -2186.6567382812;
392, -3346.3969726562;
393, -4183.267578125;
394, -4947.9545898438;
395, -5478.8891601562;
396, -5424.87109375;
397, -5258.55078125;
398, -4991.7060546875;
399, -4900.6430664062;
400, -4825.1376953125;
401, -4751.1928710938;
402, -4729.2890625;
403, -4642.5947265625;
404, -4598.6953125;
405, -4570.892578125;
406, -4600.4936523438;
407, -4590.7270507812;
408, -4590.8779296875;
409, -4560.828125;
410, -4523.5297851562;
411, -4497.568359375;
412, -4480.6547851562;
413, -4463.443359375;
414, -4413.4252929688;
415, -4484.0014648438;
416, -4506.875;
417, -4511.1293945312;
418, -4492.7138671875;
419, -4501.0952148438;
420, -4511.947265625;
421, -4530.3979492188;
422, -4643.2509765625;
423, -4553.8471679688;
424, -4554.0439453125;
425, -4580.90625;
426, -4602.3715820312;
427, -4621.1162109375;
428, -4633.9282226562;
429, -4609.8173828125;
430, -4612.4213867188;
431, -4620.6923828125;
432, -4627.08203125;
433, -4693.3989257812;
434, -4708.1240234375;
435, -4680.0727539062;
436, -4742.8876953125;
437, -4748.03515625;
438, -4711.1293945312;
439, -4681.4536132812;
440, -4705.0146484375;
441, -4807.0083007812;
442, -4839.208984375;
443, -4821.212890625;
444, -4669.8178710938;
445, -4815.2998046875;
446, -4836.5395507812;
447, -4818.9360351562;
448, -4809.4404296875;
449, -4881.24609375;
450, -4923.3881835938;
451, -4465.8120117188;
452, -4894.62109375;
453, -4931.7934570312;
454, -4863.2431640625;
455, -4858.3891601562;
456, -4845.8408203125;
457, -4875.3364257812;
458, -4928.4243164062;
459, -4967.5737304688;
460, -5029.93359375;
461, -4943.6430664062;
462, -4692.3046875;
463, -5023.6875;
464, -4976.3266601562;
465, -4999.5927734375;
466, -5076.1440429688;
467, -5003.9814453125;
468, -5039.607421875;
469, -5047.3735351562;
470, -5036.9291992188;
471, -5071.775390625;
472, -5046.5590820312;
473, -5097.5322265625;
474, -5131.6157226562;
475, -5100.3510742188;
476, -5145.8159179688;
477, -5138.9013671875;
478, -5187.8564453125;
479, -5187.8505859375;
480, -5176.875;
481, -5169.5439453125;
482, -5171.0322265625;
483, -5182.6728515625;
484, -5167.1997070312;
485, -5179.849609375;
486, -5204.2294921875;
487, -5227.0512695312;
488, -5133.6196289062;
489, -5208.1850585938;
490, -5247.3969726562;
491, -5234.8413085938;
492, -5256.6948242188;
493, -5272.0673828125;
494, -5280.5532226562;
495, -5252.9243164062;
496, -5237.685546875;
497, -5352.44140625;
498, -5367.2231445312;
499, -5290.03125;
