0, 377.87106323242;
1, 375.08227539062;
2, 399.76614379883;
3, 417.89318847656;
4, 393.32870483398;
5, 383.23095703125;
6, 381.63040161133;
7, 352.58114624023;
8, 359.57861328125;
9, 346.96035766602;
10, 391.97445678711;
11, 449.90844726562;
12, 462.67156982422;
13, 453.07318115234;
14, 412.75985717773;
15, 400.48217773438;
16, 371.46401977539;
17, 463.20291137695;
18, 316.66885375977;
19, 392.35650634766;
20, 384.31457519531;
21, 351.70278930664;
22, 401.73318481445;
23, 279.90924072266;
24, 326.70724487305;
25, 319.44085693359;
26, 197.3084564209;
27, 147.83609008789;
28, 102.42372894287;
29, -54.627880096436;
30, -292.57574462891;
31, -142.70449829102;
32, -131.04893493652;
33, 11.314626693726;
34, 145.63540649414;
35, 152.9256439209;
36, 164.6357421875;
37, 107.88037872314;
38, 151.86422729492;
39, 178.18151855469;
40, 193.75714111328;
41, 245.45951843262;
42, 265.85000610352;
43, 205.72233581543;
44, 184.21339416504;
45, 37.498611450195;
46, -21.334384918213;
47, -49.863662719727;
48, -8.0279502868652;
49, 93.502349853516;
50, 308.98403930664;
51, 265.10250854492;
52, 275.50677490234;
53, 179.51969909668;
54, 347.25775146484;
55, 262.98318481445;
56, 258.12268066406;
57, 244.91859436035;
58, 301.30236816406;
59, 233.76205444336;
60, 169.00752258301;
61, 68.57056427002;
62, 84.847076416016;
63, 173.65324401855;
64, 184.16233825684;
65, 132.55047607422;
66, 51.712669372559;
67, -103.93202972412;
68, 120.4782333374;
69, 219.21089172363;
70, 268.96459960938;
71, 257.40481567383;
72, 365.10470581055;
73, 366.61544799805;
74, 220.33479309082;
75, 48.963878631592;
76, -414.8034362793;
77, -443.75625610352;
78, -424.02191162109;
79, -409.62622070312;
80, -372.67175292969;
81, -416.2385559082;
82, -419.25527954102;
83, -462.5715637207;
84, -406.85092163086;
85, -400.72491455078;
86, -381.77679443359;
87, -339.01095581055;
88, -118.71537017822;
89, 0.17313839495182;
90, 0;
91, -9.396632194519;
92, -81.044303894043;
93, -164.19328308105;
94, -250.51411437988;
95, -318.34686279297;
96, -358.90365600586;
97, -488.70959472656;
98, -594.34350585938;
99, -936.04693603516;
100, -1650.6363525391;
101, -1884.5017089844;
102, -2313.4094238281;
103, -2792.9946289062;
104, -2912.2963867188;
105, -2806.1545410156;
106, -2859.8703613281;
107, -2968.7111816406;
108, -3079.376953125;
109, -3205.6098632812;
110, -3361.7614746094;
111, -3443.0910644531;
112, -3505.3803710938;
113, -3552.9174804688;
114, -3606.2919921875;
115, -3591.7900390625;
116, -3622.1276855469;
117, -3655.5246582031;
118, -3666.2944335938;
119, -3679.2778320312;
120, -3693.5485839844;
121, -3711.5310058594;
122, -3723.8334960938;
123, -3725.744140625;
124, -3738.8901367188;
125, -3746.2250976562;
126, -3753.4897460938;
127, -3764.0666503906;
128, -3765.2189941406;
129, -3775.85546875;
130, -3780.40234375;
131, -3782.8391113281;
132, -3786.3374023438;
133, -3789.4423828125;
134, -3795.3369140625;
135, -3800.2189941406;
136, -3806.7744140625;
137, -3774.6081542969;
138, -3769.8503417969;
139, -3683.7722167969;
140, -3644.1872558594;
141, -3270.2885742188;
142, -2642.0166015625;
143, -3063.333984375;
144, -3235.0275878906;
145, -3467.73828125;
146, -3640.48828125;
147, -3755.60546875;
148, -3764.7297363281;
149, -3774.9416503906;
150, -3776.1689453125;
151, -3768.8354492188;
152, -3757.8879394531;
153, -3754.8579101562;
154, -3797.3601074219;
155, -3797.6447753906;
156, -3720.453125;
157, -3801.2126464844;
158, -3705.2094726562;
159, -3601.5983886719;
160, -3379.0517578125;
161, -3253.3715820312;
162, -3373.6606445312;
163, -3192.7619628906;
164, -3029.0007324219;
165, -2836.447265625;
166, -2519.0227050781;
167, -2265.4189453125;
168, -2273.43359375;
169, -2678.8813476562;
170, -2759.1684570312;
171, -2686.1254882812;
172, -2493.25390625;
173, -2445.8752441406;
174, -2550.92578125;
175, -2856.576171875;
176, -2788.0397949219;
177, -2673.8403320312;
178, -2795.0905761719;
179, -2798.5109863281;
180, -2839.3312988281;
181, -2858.0285644531;
182, -2864.826171875;
183, -2820.0661621094;
184, -2811.3308105469;
185, -2816.2761230469;
186, -2815.1328125;
187, -2819.1057128906;
188, -2812.3933105469;
189, -2805.4736328125;
190, -2781.0380859375;
191, -2764.3249511719;
192, -2769.26171875;
193, -2761.0671386719;
194, -2751.5810546875;
195, -2759.4052734375;
196, -2685.1596679688;
197, -2608.0673828125;
198, -2581.3537597656;
199, -2494.2163085938;
200, -2427.4323730469;
201, -2340.7409667969;
202, -2107.9458007812;
203, -1837.7579345703;
204, -1546.1987304688;
205, -968.00451660156;
206, -817.91497802734;
207, -851.56774902344;
208, -1457.39453125;
209, -1546.1474609375;
210, -1659.5153808594;
211, -1975.6202392578;
212, -2429.6452636719;
213, -2905.3708496094;
214, -3177.7351074219;
215, -3433.6674804688;
216, -3467.0004882812;
217, -3498.9609375;
218, -3590.9106445312;
219, -3582.6872558594;
220, -3539.9841308594;
221, -3518.4301757812;
222, -3407.5;
223, -3399.7216796875;
224, -3370.2392578125;
225, -3286.041015625;
226, -3213.3220214844;
227, -3157.0952148438;
228, -3058.1979980469;
229, -2997.8696289062;
230, -3015.4645996094;
231, -2795.7741699219;
232, -2835.8139648438;
233, -2825.9545898438;
234, -2574.0129394531;
235, -2525.9599609375;
236, -2443.875;
237, -2374.7478027344;
238, -2250.7106933594;
239, -2100.7426757812;
240, -2007.4592285156;
241, -1590.6827392578;
242, -1184.3020019531;
243, -638.60797119141;
244, -231.64346313477;
245, -88.310401916504;
246, -89.53369140625;
247, -82.644622802734;
248, -70.414733886719;
249, -59.592456817627;
250, -52.528419494629;
251, -48.32848739624;
252, -40.89429473877;
253, -41.161766052246;
254, -39.193389892578;
255, -34.993793487549;
256, -24.74499130249;
257, -20.078235626221;
258, -25.494438171387;
259, -28.123807907104;
260, -38.046970367432;
261, -41.074382781982;
262, -40.855121612549;
263, -29.112064361572;
264, -29.264789581299;
265, -35.187717437744;
266, -24.102722167969;
267, -17.915786743164;
268, -3.7740743160248;
269, -2.7831048965454;
270, -26.580093383789;
271, -6.9414954185486;
272, -3.3289318084717;
273, 35.883163452148;
274, 44.455497741699;
275, 18.687694549561;
276, 37.254688262939;
277, 53.086994171143;
278, 23.136037826538;
279, 32.902709960938;
280, 48.770698547363;
281, 70.43675994873;
282, 22.830718994141;
283, 16.136911392212;
284, 82.170036315918;
285, 185.97439575195;
286, 80.422416687012;
287, 188.85540771484;
288, 260.44815063477;
289, 264.64831542969;
290, 333.92700195312;
291, 376.33197021484;
292, 547.47418212891;
293, 576.02972412109;
294, 557.55236816406;
295, 627.92907714844;
296, 521.00970458984;
297, 447.46081542969;
298, 578.42327880859;
299, 592.55187988281;
300, 563.69256591797;
301, 477.21621704102;
302, 466.29193115234;
303, 475.54312133789;
304, 694.86566162109;
305, 496.46810913086;
306, 546.43414306641;
307, 302.73956298828;
308, 273.37396240234;
309, 255.37852478027;
310, 246.81312561035;
311, 211.53143310547;
312, 255.08067321777;
313, 276.68963623047;
314, 343.47015380859;
315, 324.23315429688;
316, 377.83715820312;
317, 440.55236816406;
318, 440.30676269531;
319, 458.63940429688;
320, 434.44049072266;
321, 470.67785644531;
322, 438.09414672852;
323, 448.67001342773;
324, 460.09405517578;
325, 454.10446166992;
326, 515.95910644531;
327, 486.5166015625;
328, 506.36965942383;
329, 532.94458007812;
330, 514.31500244141;
331, 497.14822387695;
332, 590.19641113281;
333, 589.16870117188;
334, 544.82318115234;
335, 537.73712158203;
336, 488.81228637695;
337, 386.49935913086;
338, 508.68960571289;
339, 348.18899536133;
340, 516.61279296875;
341, 559.10961914062;
342, 471.3752746582;
343, 286.20642089844;
344, 455.52813720703;
345, 496.86727905273;
346, 421.63031005859;
347, 451.66494750977;
348, 591.36315917969;
349, 719.48449707031;
350, 543.83959960938;
351, 337.98156738281;
352, 275.70843505859;
353, 266.56130981445;
354, 289.38961791992;
355, 381.27047729492;
356, 391.44702148438;
357, 401.63922119141;
358, 415.68444824219;
359, 376.30569458008;
360, 380.88299560547;
361, 338.77124023438;
362, 318.77041625977;
363, 392.08151245117;
364, 378.23043823242;
365, 411.29748535156;
366, 394.34637451172;
367, 415.84127807617;
368, 350.39874267578;
369, 225.80337524414;
370, 314.14312744141;
371, 336.15902709961;
372, 327.26138305664;
373, 302.47555541992;
374, 278.82669067383;
375, 337.67559814453;
376, 301.03021240234;
377, 243.54313659668;
378, 183.50009155273;
379, 257.8701171875;
380, 316.45239257812;
381, 283.64974975586;
382, 315.18557739258;
383, 316.76956176758;
384, 282.65301513672;
385, 257.34725952148;
386, 278.29312133789;
387, 351.30670166016;
388, 415.46762084961;
389, 376.88192749023;
390, 362.14614868164;
391, 290.49417114258;
392, 306.75811767578;
393, 298.74829101562;
394, 327.36947631836;
395, 250.08757019043;
396, 254.10987854004;
397, 337.39685058594;
398, 324.55868530273;
399, 387.50842285156;
400, 267.06698608398;
401, 414.40573120117;
402, 446.17428588867;
403, 345.58978271484;
404, 650.4375;
405, 849.61096191406;
406, 600.77319335938;
407, 708.95611572266;
408, 784.4853515625;
409, 648.640625;
410, 756.91394042969;
411, 1085.3937988281;
412, 1254.3859863281;
413, 1529.2004394531;
414, 1699.7038574219;
415, 2329.1518554688;
416, 1901.3001708984;
417, 2050.0727539062;
418, 2395.6166992188;
419, 1940.0031738281;
420, 1553.5891113281;
421, 1314.5799560547;
422, 1268.2600097656;
423, 1276.724609375;
424, 1100.7331542969;
425, 1022.326171875;
426, 1017.7349853516;
427, 1172.6669921875;
428, 1414.9764404297;
429, 1665.5932617188;
430, 1560.30078125;
431, 1616.7728271484;
432, 973.31964111328;
433, 884.26806640625;
434, 1412.3624267578;
435, 1495.5152587891;
436, 1877.6403808594;
437, 1725.4091796875;
438, 2440.3605957031;
439, 1988.3469238281;
440, 2002.0480957031;
441, 1988.9202880859;
442, 1674.7740478516;
443, 1397.8388671875;
444, 1288.3463134766;
445, 1419.5589599609;
446, 1657.4041748047;
447, 1679.5261230469;
448, 1819.8864746094;
449, 1641.9985351562;
450, 1893.3406982422;
451, 1757.0162353516;
452, 1566.1805419922;
453, 1649.0386962891;
454, 1652.1557617188;
455, 1781.8399658203;
456, 1884.8118896484;
457, 1723.6365966797;
458, 1525.3872070312;
459, 1452.7041015625;
460, 1392.5142822266;
461, 1624.9427490234;
462, 1655.564453125;
463, 1608.9516601562;
464, 1558.3367919922;
465, 1495.3740234375;
466, 1750.8624267578;
467, 1329.9200439453;
468, 1075.7711181641;
469, 1099.8630371094;
470, 1371.8553466797;
471, 2111.3500976562;
472, 2656.2507324219;
473, 2001.4584960938;
474, 1597.1062011719;
475, 1164.0196533203;
476, 1169.4813232422;
477, 1583.7994384766;
478, 1139.4156494141;
479, 1006.76171875;
480, 945.62408447266;
481, 747.72399902344;
482, 676.60009765625;
483, 479.21850585938;
484, 629.44641113281;
485, 1125.2426757812;
486, 2000.4215087891;
487, 2274.9689941406;
488, 2693.1701660156;
489, 2339.052734375;
490, 2242.826171875;
491, 1339.1939697266;
492, 869.52276611328;
493, 756.4853515625;
494, 672.06427001953;
495, 644.40765380859;
496, 765.33459472656;
497, 897.36968994141;
498, 1022.4395751953;
499, 1145.6636962891;
