0, 363.0966796875;
1, 392.49517822266;
2, 400.4801940918;
3, 389.06307983398;
4, 390.12573242188;
5, 359.44400024414;
6, 351.40133666992;
7, 284.03860473633;
8, 315.66564941406;
9, 264.33303833008;
10, 302.49395751953;
11, 375.08340454102;
12, 341.46786499023;
13, 314.13833618164;
14, 383.4147644043;
15, 376.99630737305;
16, 422.66683959961;
17, 495.26489257812;
18, 522.35546875;
19, 443.56115722656;
20, 545.01806640625;
21, 502.24499511719;
22, 430.96176147461;
23, 407.64593505859;
24, 547.07568359375;
25, 514.91931152344;
26, 514.29248046875;
27, 713.72680664062;
28, 632.50054931641;
29, 635.07330322266;
30, 672.99822998047;
31, 773.11737060547;
32, 886.35632324219;
33, 900.29986572266;
34, 767.68798828125;
35, 191.40364074707;
36, 56.75085067749;
37, 47.628890991211;
38, 10.568818092346;
39, -17.782028198242;
40, -32.800708770752;
41, -32.934909820557;
42, -55.727626800537;
43, -72.605278015137;
44, -75.661712646484;
45, -104.84466552734;
46, -125.53649902344;
47, -164.6700592041;
48, -198.11720275879;
49, -418.71160888672;
50, -527.76611328125;
51, -721.54107666016;
52, -1427.7027587891;
53, -2111.3081054688;
54, -2201.2446289062;
55, -2358.5349121094;
56, -2657.716796875;
57, -2600.4792480469;
58, -2562.7629394531;
59, -2696.81640625;
60, -2912.1772460938;
61, -2827.3005371094;
62, -3005.7827148438;
63, -3276.3801269531;
64, -3461.7702636719;
65, -3482.7563476562;
66, -3516.2556152344;
67, -3558.7004394531;
68, -3640.1923828125;
69, -4080.2080078125;
70, -4106.2607421875;
71, -3929.166015625;
72, -3974.6499023438;
73, -3971.4001464844;
74, -4018.5595703125;
75, -3920.7573242188;
76, -3987.20703125;
77, -3947.5947265625;
78, -3801.6794433594;
79, -3684.0236816406;
80, -3879.1943359375;
81, -3554.7907714844;
82, -3260.6687011719;
83, -3144.9826660156;
84, -3945.8210449219;
85, -3741.09375;
86, -3817.9565429688;
87, -3994.0881347656;
88, -3846.3515625;
89, -4111.2822265625;
90, -4361.671875;
91, -4478.7529296875;
92, -4626.65625;
93, -4193.8852539062;
94, -4157.2680664062;
95, -4168.9345703125;
96, -4317.1401367188;
97, -4294.7348632812;
98, -4447.2802734375;
99, -4310.9692382812;
100, -4433.265625;
101, -4418.3569335938;
102, -4464.6630859375;
103, -4507.4116210938;
104, -4617.5776367188;
105, -4526.72265625;
106, -4556.3759765625;
107, -3995.5502929688;
108, -4261.9458007812;
109, -4082.7185058594;
110, -4283.1137695312;
111, -4390.7265625;
112, -4419.9291992188;
113, -4369.9150390625;
114, -4380.951171875;
115, -4453.8525390625;
116, -4057.4052734375;
117, -4439.8461914062;
118, -4352.0122070312;
119, -4330.0952148438;
120, -4444.3681640625;
121, -4492.0380859375;
122, -4556.712890625;
123, -4839.0610351562;
124, -4643.1489257812;
125, -4636.6166992188;
126, -4455.6352539062;
127, -4465.5869140625;
128, -4491.8627929688;
129, -4480.8823242188;
130, -4522.9252929688;
131, -4637.2709960938;
132, -4337.6513671875;
133, -4343.6030273438;
134, -4197.2836914062;
135, -4480.3383789062;
136, -4209.8159179688;
137, -4023.0112304688;
138, -4224.6025390625;
139, -4412.009765625;
140, -4594.89453125;
141, -4405.9262695312;
142, -4404.5952148438;
143, -4278.15625;
144, -4215.369140625;
145, -4050.7888183594;
146, -4198.6650390625;
147, -4378.8754882812;
148, -4377.5;
149, -4339.6235351562;
150, -4296.916015625;
151, -4267.68359375;
152, -4136.2958984375;
153, -4018.7241210938;
154, -4060.9619140625;
155, -4177.0595703125;
156, -4216.4633789062;
157, -3926.4919433594;
158, -3984.2844238281;
159, -4015.70703125;
160, -4575.9609375;
161, -3989.0327148438;
162, -4359.1811523438;
163, -4202.927734375;
164, -4204.427734375;
165, -4283.6396484375;
166, -4152.3032226562;
167, -4050.2478027344;
168, -3893.3684082031;
169, -4051.2922363281;
170, -4103.8754882812;
171, -4221.05078125;
172, -4118.8427734375;
173, -3909.7204589844;
174, -3987.7307128906;
175, -3952.5639648438;
176, -4025.7006835938;
177, -4101.0786132812;
178, -4125.2270507812;
179, -4190.3735351562;
180, -4039.1437988281;
181, -4054.4265136719;
182, -4034.0424804688;
183, -3857.6101074219;
184, -3684.2138671875;
185, -3621.1086425781;
186, -3852.3833007812;
187, -3958.7082519531;
188, -3873.6906738281;
189, -3825.0515136719;
190, -3804.0986328125;
191, -3776.3312988281;
192, -3552.5512695312;
193, -3599.6298828125;
194, -3477.6499023438;
195, -3585.4311523438;
196, -3542.3408203125;
197, -3529.1218261719;
198, -3464.8125;
199, -3505.3916015625;
200, -3322.4548339844;
201, -3268.029296875;
202, -3331.6484375;
203, -3250.8793945312;
204, -3652.3193359375;
205, -2901.5202636719;
206, -3192.4099121094;
207, -2970.2526855469;
208, -3036.4252929688;
209, -3138.6232910156;
210, -3033.2268066406;
211, -2628.2822265625;
212, -2617.3327636719;
213, -3411.1545410156;
214, -3039.8562011719;
215, -3155.6149902344;
216, -3508.9008789062;
217, -3557.8583984375;
218, -3332.8820800781;
219, -3111.0993652344;
220, -2786.5515136719;
221, -3348.0844726562;
222, -3201.4226074219;
223, -3394.9506835938;
224, -3413.3312988281;
225, -2961.2905273438;
226, -3450.2219238281;
227, -3342.48046875;
228, -3251.0969238281;
229, -3208.7099609375;
230, -3549.970703125;
231, -4024.3188476562;
232, -3795.5251464844;
233, -3713.2302246094;
234, -3657.7172851562;
235, -3713.9711914062;
236, -3585.8405761719;
237, -3581.6350097656;
238, -4120.693359375;
239, -4031.4074707031;
240, -4025.2036132812;
241, -3459.4934082031;
242, -3661.0627441406;
243, -3658.6770019531;
244, -3606.0524902344;
245, -3629.5083007812;
246, -3621.1220703125;
247, -3547.3259277344;
248, -3627.017578125;
249, -3733.8481445312;
250, -3571.5615234375;
251, -3294.8249511719;
252, -3324.1665039062;
253, -3323.1323242188;
254, -3955.7277832031;
255, -3844.9992675781;
256, -3625.4914550781;
257, -3781.9604492188;
258, -4050.0417480469;
259, -4215.8720703125;
260, -4223.6411132812;
261, -3505.2277832031;
262, -3800.7717285156;
263, -4025.1862792969;
264, -3843.490234375;
265, -4196.2666015625;
266, -4242.1655273438;
267, -4237.6284179688;
268, -4166.8618164062;
269, -4006.1359863281;
270, -4161.189453125;
271, -4098.3696289062;
272, -4038.0913085938;
273, -3970.3193359375;
274, -4094.1076660156;
275, -3976.1298828125;
276, -3981.8615722656;
277, -4056.3857421875;
278, -4013.9072265625;
279, -3959.7995605469;
280, -3817.5710449219;
281, -3683.5458984375;
282, -4217.5458984375;
283, -3851.3405761719;
284, -3810.8833007812;
285, -3827.9748535156;
286, -4408.6831054688;
287, -4352.0673828125;
288, -4304.255859375;
289, -4183.302734375;
290, -4419.888671875;
291, -4539.9711914062;
292, -4583.5288085938;
293, -4610.103515625;
294, -4581.5170898438;
295, -4572.2690429688;
296, -4740.7578125;
297, -4588.5766601562;
298, -4583.3115234375;
299, -4358.43359375;
300, -4220.625;
301, -4177.6772460938;
302, -4437.8095703125;
303, -4513.1840820312;
304, -3836.6501464844;
305, -4286.4365234375;
306, -3770.9470214844;
307, -3022.8869628906;
308, -2036.3824462891;
309, -2580.2873535156;
310, -2312.6235351562;
311, -3069.8549804688;
312, -3478.6865234375;
313, -3870.8032226562;
314, -3996.4946289062;
315, -4069.3479003906;
316, -3599.7307128906;
317, -1387.8891601562;
318, -3418.1591796875;
319, -4208.3012695312;
320, -4412.0874023438;
321, -4403.7807617188;
322, -4450.2133789062;
323, -4469.1225585938;
324, -4635.3862304688;
325, -4607.982421875;
326, -4411.4868164062;
327, -4524.2900390625;
328, -4525.890625;
329, -4428.3525390625;
330, -4612.263671875;
331, -4843.9921875;
332, -4131.1572265625;
333, -4451.4892578125;
334, -4884.0981445312;
335, -4275.7895507812;
336, -4519.693359375;
337, -4007.0378417969;
338, -4652.5791015625;
339, -4700.3598632812;
340, -3886.0048828125;
341, -4121.615234375;
342, -4067.638671875;
343, -4211.486328125;
344, -4410.3862304688;
345, -4344.3530273438;
346, -4372.6762695312;
347, -4887.4077148438;
348, -4567.6108398438;
349, -4748.41796875;
350, -4720.408203125;
351, -4710.6430664062;
352, -4946.119140625;
353, -4708.2216796875;
354, -4794.7021484375;
355, -4623.771484375;
356, -4705.7397460938;
357, -4728.2509765625;
358, -4566.447265625;
359, -4948.541015625;
360, -4759.1762695312;
361, -4603.9990234375;
362, -5389.837890625;
363, -3568.5178222656;
364, -4725.708984375;
365, -5255.1000976562;
366, -5157.40234375;
367, -4508.5893554688;
368, -5194.2788085938;
369, -4890.5180664062;
370, -4744.8383789062;
371, -5673.2973632812;
372, -5040.1469726562;
373, -5079.5703125;
374, -5219.2153320312;
375, -5338.267578125;
376, -4515.1840820312;
377, -5408.1811523438;
378, -5168.8969726562;
379, -4591.71875;
380, -5776.7211914062;
381, -5574.861328125;
382, -5030.2768554688;
383, -5863.3662109375;
384, -4992.865234375;
385, -4837.841796875;
386, -5261.5434570312;
387, -5279.8525390625;
388, -4638.5014648438;
389, -4714.46875;
390, -5273.2578125;
391, -5322.3486328125;
392, -4952.974609375;
393, -4084.5810546875;
394, -4424.0400390625;
395, -4314.9423828125;
396, -4462.8549804688;
397, -4499.08984375;
398, -2738.3913574219;
399, -2388.9956054688;
400, -4772.0473632812;
401, -4308.9155273438;
402, -3401.6203613281;
403, -2114.4682617188;
404, -2618.1276855469;
405, -4020.7458496094;
406, -4387.1630859375;
407, -1297.9180908203;
408, -2840.0871582031;
409, -3194.1799316406;
410, -4447.2485351562;
411, -1465.3237304688;
412, -2739.0075683594;
413, -3388.6223144531;
414, -3221.3686523438;
415, -3260.0161132812;
416, -3034.4631347656;
417, -3145.1330566406;
418, -2786.2351074219;
419, -3125.8686523438;
420, -3173.5515136719;
421, -531.19079589844;
422, -2432.6430664062;
423, -2784.9724121094;
424, -2736.0061035156;
425, -2086.5048828125;
426, -2704.7365722656;
427, -952.00115966797;
428, -2655.1564941406;
429, -2643.2866210938;
430, -2655.9558105469;
431, -2411.9228515625;
432, -2172.5590820312;
433, -1917.8441162109;
434, -1735.4487304688;
435, -1482.9888916016;
436, -1403.0977783203;
437, -1697.0529785156;
438, -1192.1434326172;
439, -665.53656005859;
440, -1675.4405517578;
441, -1666.3696289062;
442, -1622.7362060547;
443, -1554.0867919922;
444, -1896.6140136719;
445, -1745.5600585938;
446, -1153.8920898438;
447, -1171.6888427734;
448, -1366.3259277344;
449, -1277.6566162109;
450, -1248.486328125;
451, -1380.5687255859;
452, -1678.8645019531;
453, -1693.2888183594;
454, -1718.0676269531;
455, -1725.2702636719;
456, -1975.5692138672;
457, -2097.4724121094;
458, -2318.7751464844;
459, -2404.0942382812;
460, -2358.2321777344;
461, -2598.6472167969;
462, -2684.3527832031;
463, -2786.1967773438;
464, -2761.2814941406;
465, -2617.9729003906;
466, -2539.6928710938;
467, -2380.4050292969;
468, -2315.1804199219;
469, -2378.6901855469;
470, -2309.7958984375;
471, -2343.376953125;
472, -2430.421875;
473, -2423.9799804688;
474, -2575.6293945312;
475, -3421.4172363281;
476, -3525.0288085938;
477, -3265.359375;
478, -3384.6145019531;
479, -3291.2783203125;
480, -3304.6926269531;
481, -3742.7341308594;
482, -3898.0727539062;
483, -3725.1843261719;
484, -3774.9240722656;
485, -3891.0927734375;
486, -3456.8090820312;
487, -3211.5830078125;
488, -3401.9245605469;
489, -3513.4887695312;
490, -3696.1950683594;
491, -3894.2551269531;
492, -4164.375;
493, -3975.7202148438;
494, -4404.7646484375;
495, -4515.1943359375;
496, -4628.91015625;
497, -4589.4814453125;
498, -4596.7368164062;
499, -4601.7075195312;
