0, 65.835418701172;
1, 23.645725250244;
2, 49.545185089111;
3, 35.008197784424;
4, 51.764678955078;
5, 120.23770904541;
6, 157.45639038086;
7, 75.893478393555;
8, -7.1451826095581;
9, -18;
10, -28.802183151245;
11, 16.023918151855;
12, 131.26678466797;
13, 231.87619018555;
14, 299.5432434082;
15, 289.2409362793;
16, 315.5827331543;
17, 390.41937255859;
18, 427.18569946289;
19, 383.64208984375;
20, 498.09194946289;
21, 462.39688110352;
22, 431.42199707031;
23, 431.99606323242;
24, 464.90686035156;
25, 445.57473754883;
26, 449.14346313477;
27, 517.83343505859;
28, 625.39166259766;
29, 624.19012451172;
30, 665.27770996094;
31, 663.04040527344;
32, 618.52862548828;
33, 586.02502441406;
34, 554.90441894531;
35, 483.29309082031;
36, 493.88342285156;
37, 510.64077758789;
38, 564.91168212891;
39, 563.93487548828;
40, 594.95458984375;
41, 589.89733886719;
42, 594.31634521484;
43, 685.06658935547;
44, 810.84930419922;
45, 871.30572509766;
46, 963.71118164062;
47, 1072.3383789062;
48, 965.85992431641;
49, 894.875;
50, 999.1328125;
51, 1070.3140869141;
52, 938.72393798828;
53, 779.72430419922;
54, 797.44537353516;
55, 721.59735107422;
56, 676.41375732422;
57, 621.24426269531;
58, 584.76593017578;
59, 555.82122802734;
60, 529.84869384766;
61, 513.84576416016;
62, 502.05084228516;
63, 484.61209106445;
64, 466.93264770508;
65, 450.00143432617;
66, 449.29620361328;
67, 448.44320678711;
68, 447.05853271484;
69, 445.2614440918;
70, 441.57302856445;
71, 443.24963378906;
72, 436.91970825195;
73, 436.31942749023;
74, 436.29559326172;
75, 446.62295532227;
76, 440.41888427734;
77, 444.98678588867;
78, 437.07067871094;
79, 439.08905029297;
80, 426.96740722656;
81, 419.60720825195;
82, 414.34509277344;
83, 422.29235839844;
84, 432.15780639648;
85, 438.78005981445;
86, 431.66119384766;
87, 432.95562744141;
88, 437.93984985352;
89, 450.96572875977;
90, 384.53393554688;
91, 375.92251586914;
92, 358.55941772461;
93, 351.66818237305;
94, 345.59643554688;
95, 339.32638549805;
96, 344.88955688477;
97, 348.9817199707;
98, 355.79141235352;
99, 370.53289794922;
100, 379.06488037109;
101, 443.73699951172;
102, 451.16510009766;
103, 375.31994628906;
104, 453.50765991211;
105, 457.08724975586;
106, 310.46057128906;
107, 330.69696044922;
108, 454.4196472168;
109, 248.27574157715;
110, 206.08992004395;
111, 190.90696716309;
112, 142.1095123291;
113, 165.42112731934;
114, 267.26397705078;
115, 148.25454711914;
116, 275.07559204102;
117, 576.64599609375;
118, 641.26281738281;
119, 287.22549438477;
120, 621.68756103516;
121, 1531.5678710938;
122, 1983.0496826172;
123, 1285.1151123047;
124, 1233.5483398438;
125, 1177.2668457031;
126, 972.27020263672;
127, 897.26416015625;
128, 738.92431640625;
129, 851.69494628906;
130, 971.09375;
131, 365.19775390625;
132, 345.40570068359;
133, 220.5958404541;
134, 446.63800048828;
135, 515.06243896484;
136, 755.77075195312;
137, 594.18218994141;
138, 567.07403564453;
139, 563.54571533203;
140, 458.96179199219;
141, 633.99786376953;
142, 679.89624023438;
143, 717.96466064453;
144, 509.89663696289;
145, 504.5309753418;
146, 386.09545898438;
147, 351.24359130859;
148, 273.82299804688;
149, 146.85995483398;
150, 319.74230957031;
151, 351.10916137695;
152, 455.84234619141;
153, 297.46545410156;
154, 106.48829650879;
155, 117.53369140625;
156, 184.73945617676;
157, 325.16436767578;
158, 204.30429077148;
159, 159.00833129883;
160, 153.36224365234;
161, 354.54602050781;
162, 108.54220581055;
163, -15.654792785645;
164, -17.240146636963;
165, -138.22421264648;
166, -264.18057250977;
167, -1273.705078125;
168, -1743.4500732422;
169, -1804.2229003906;
170, -1514.6735839844;
171, -1432.5070800781;
172, -1544.7325439453;
173, -1471.3531494141;
174, -1588.0823974609;
175, -1628.0859375;
176, -1734.6065673828;
177, -1897.4743652344;
178, -2031.8568115234;
179, -2321.4543457031;
180, -2315.0180664062;
181, -2773.9321289062;
182, -2760.6564941406;
183, -2968.8229980469;
184, -3140.3332519531;
185, -3008.0241699219;
186, -2967.7849121094;
187, -2754.34765625;
188, -2751.7727050781;
189, -2875.6047363281;
190, -3519.5979003906;
191, -3911.7709960938;
192, -3861.0322265625;
193, -3798.0036621094;
194, -3833.4504394531;
195, -3757.1472167969;
196, -3643.7319335938;
197, -3596.4575195312;
198, -3494.7844238281;
199, -3422.2111816406;
200, -3511.6359863281;
201, -3693.3188476562;
202, -3642.8967285156;
203, -3590.6181640625;
204, -3524.9809570312;
205, -3329.7436523438;
206, -3202.3981933594;
207, -3263.2626953125;
208, -3178.6665039062;
209, -2980.1611328125;
210, -2879.0366210938;
211, -2728.7062988281;
212, -2666.6066894531;
213, -2530.2282714844;
214, -2586.5034179688;
215, -2484.3171386719;
216, -1826.2561035156;
217, -1922.2946777344;
218, -1579.7061767578;
219, -1345.28125;
220, -2022.9647216797;
221, -1764.5935058594;
222, -2507.5046386719;
223, -1960.3591308594;
224, -1429.0883789062;
225, -1109.5614013672;
226, -1099.5864257812;
227, -1026.9487304688;
228, -1121.2403564453;
229, -1134.7552490234;
230, -1288.9323730469;
231, -1365.1169433594;
232, -1521.1323242188;
233, -2129.6491699219;
234, -2470.9638671875;
235, -2675.7873535156;
236, -2912.7121582031;
237, -2793.3686523438;
238, -3115.2807617188;
239, -3281.4948730469;
240, -3477.2153320312;
241, -3491.5183105469;
242, -3506.5251464844;
243, -3493.2309570312;
244, -3515.724609375;
245, -3562.3208007812;
246, -3663.4907226562;
247, -3780.4912109375;
248, -3986.6328125;
249, -4041.1127929688;
250, -4104.0825195312;
251, -4182.5649414062;
252, -4248.2778320312;
253, -4275.5268554688;
254, -4292.5463867188;
255, -4319.1176757812;
256, -4434.5;
257, -4455.4047851562;
258, -4521.06640625;
259, -4601.4477539062;
260, -4566.3559570312;
261, -4595.1484375;
262, -4603.64453125;
263, -4576.1938476562;
264, -4537.5600585938;
265, -4522.98828125;
266, -4346.5712890625;
267, -4199.3579101562;
268, -4150.0649414062;
269, -4188.9819335938;
270, -4173.2275390625;
271, -4307.4487304688;
272, -4379.5561523438;
273, -4451.9921875;
274, -4494.4638671875;
275, -4532.8017578125;
276, -4426.8525390625;
277, -4456.26953125;
278, -4620.1064453125;
279, -4642.2446289062;
280, -4642.0502929688;
281, -4679.2216796875;
282, -4727.9189453125;
283, -4783.1611328125;
284, -4748.1127929688;
285, -4715.3129882812;
286, -4861.4697265625;
287, -4897.5703125;
288, -4924.2788085938;
289, -4897.72265625;
290, -4917.7998046875;
291, -4984.7358398438;
292, -4972.498046875;
293, -4973.4140625;
294, -4965.2509765625;
295, -5001.6557617188;
296, -5024.6606445312;
297, -4965.1020507812;
298, -5039.4536132812;
299, -5013.23828125;
300, -5194.861328125;
301, -5068.2778320312;
302, -5176.724609375;
303, -5306.87890625;
304, -5101.169921875;
305, -5144.7177734375;
306, -5062.9838867188;
307, -4770.0107421875;
308, -5057.787109375;
309, -4897.8046875;
310, -4840.9443359375;
311, -4817.9926757812;
312, -4712.3515625;
313, -4845.3803710938;
314, -4660.4736328125;
315, -4487.3134765625;
316, -4594.6069335938;
317, -4636.4106445312;
318, -4613.859375;
319, -2203.2854003906;
320, -4865.740234375;
321, -3885.3718261719;
322, -4752.8276367188;
323, -4731.369140625;
324, -4649.0590820312;
325, -4456.0854492188;
326, -4788.28515625;
327, -4997.8208007812;
328, -4826.8100585938;
329, -4496.71484375;
330, -4730.3979492188;
331, -4927.9077148438;
332, -5119.8188476562;
333, -4646.8657226562;
334, -4717.14453125;
335, -4606.23828125;
336, -4471.802734375;
337, -4821.701171875;
338, -4609.3813476562;
339, -4669.8930664062;
340, -4707.83203125;
341, -4541.4287109375;
342, -4673.2465820312;
343, -4611.7915039062;
344, -4439.79296875;
345, -3999.3615722656;
346, -3671.75390625;
347, -3894.5974121094;
348, -3919.31640625;
349, -4074.6791992188;
350, -4104.953125;
351, -4390.4052734375;
352, -3836.7890625;
353, -3403.0146484375;
354, -3785.5822753906;
355, -3728.7475585938;
356, -3664.9047851562;
357, -3026.1779785156;
358, -3335.1203613281;
359, -1139.0830078125;
360, -3082.1479492188;
361, -3473.814453125;
362, -2883.3898925781;
363, -3899.7678222656;
364, -3529.3984375;
365, -3312.6928710938;
366, -3696.8708496094;
367, -3232.6428222656;
368, -3433.4287109375;
369, -3814.6467285156;
370, -4052.3684082031;
371, -4736.1684570312;
372, -4667.0913085938;
373, -4911.6245117188;
374, -5461.6586914062;
375, -4830.0776367188;
376, -5301.2109375;
377, -5614.8754882812;
378, -5446.0874023438;
379, -5402.2641601562;
380, -5207.4951171875;
381, -5481.1669921875;
382, -6055.0698242188;
383, -5572.0883789062;
384, -5297.6557617188;
385, -5224.2333984375;
386, -5467.9702148438;
387, -5534.9536132812;
388, -5334.658203125;
389, -5461.4790039062;
390, -5358.8657226562;
391, -5284.029296875;
392, -4992.2739257812;
393, -5224.138671875;
394, -5107.8828125;
395, -5033.927734375;
396, -4972.33203125;
397, -4814.7856445312;
398, -4817.8984375;
399, -4727.1577148438;
400, -5075.0258789062;
401, -5004.8344726562;
402, -5069.0639648438;
403, -5304.1391601562;
404, -5369.1962890625;
405, -5340.3642578125;
406, -4726.0439453125;
407, -5493.6000976562;
408, -5327.6455078125;
409, -5040.4736328125;
410, -4913.3896484375;
411, -4698.177734375;
412, -4330.986328125;
413, -4185.6665039062;
414, -3921.7468261719;
415, -3395.8083496094;
416, -3005.6354980469;
417, -2827.8010253906;
418, -2983.7998046875;
419, -3317.494140625;
420, -3265.2521972656;
421, -3131.28515625;
422, -3255.3745117188;
423, -3329.7885742188;
424, -2702.7590332031;
425, -2465.046875;
426, -2647.4328613281;
427, -2127.6037597656;
428, -2018.4848632812;
429, -1709.57421875;
430, -916.46966552734;
431, -208.42651367188;
432, -128.43557739258;
433, -345.05871582031;
434, 31.746841430664;
435, 148.5867767334;
436, 255.88359069824;
437, 485.23965454102;
438, 909.19122314453;
439, 1423.4337158203;
440, 1876.9855957031;
441, 2211.1176757812;
442, 2551.1352539062;
443, 2813.9040527344;
444, 3061.6354980469;
445, 3154.4553222656;
446, 3215.9501953125;
447, 3260.8122558594;
448, 3305.9963378906;
449, 3331.0280761719;
450, 3359.6767578125;
451, 3388.8100585938;
452, 3411.7661132812;
453, 3420.1333007812;
454, 3414.5622558594;
455, 3400.8894042969;
456, 3383.6555175781;
457, 3366.1708984375;
458, 3336.1547851562;
459, 3308.9792480469;
460, 3294.388671875;
461, 3253.955078125;
462, 3240.544921875;
463, 3230.2976074219;
464, 3193.2341308594;
465, 3172.32421875;
466, 3141.2346191406;
467, 3116.9702148438;
468, 3097.1940917969;
469, 3074.2722167969;
470, 3043.2106933594;
471, 3027.3676757812;
472, 3000.6413574219;
473, 2969.9663085938;
474, 2944.22265625;
475, 2906.9091796875;
476, 2866.33984375;
477, 2811.6838378906;
478, 2766.4655761719;
479, 2677.1018066406;
480, 2591.3869628906;
481, 2569.0388183594;
482, 2549.7165527344;
483, 2542.4035644531;
484, 2545.4997558594;
485, 2558.4733886719;
486, 2573.9956054688;
487, 2585;
488, 2589.3500976562;
489, 2594.4621582031;
490, 2602.2238769531;
491, 2614.240234375;
492, 2630.625;
493, 2646.6362304688;
494, 2666.1298828125;
495, 2691.1320800781;
496, 2708.6630859375;
497, 2724.6125488281;
498, 2736.7346191406;
499, 2747;
