0, -4899.8046875;
1, -5005.9204101562;
2, -5028.30078125;
3, -5159.7758789062;
4, -5264.0493164062;
5, -5214.9711914062;
6, -5313.3295898438;
7, -5177.1235351562;
8, -5234.615234375;
9, -5344.9252929688;
10, -5139.927734375;
11, -4852.05078125;
12, -4808.6279296875;
13, -5154.9970703125;
14, -5054.5791015625;
15, -5114.0478515625;
16, -5088.2563476562;
17, -4864.486328125;
18, -4656.6044921875;
19, -3902.2800292969;
20, -3463.4311523438;
21, -2691.3051757812;
22, -1858.8618164062;
23, -1625.5432128906;
24, -1153.3820800781;
25, -2178.0202636719;
26, -2772.017578125;
27, -3107.9409179688;
28, -4495.6518554688;
29, -4708.134765625;
30, -4610.8837890625;
31, -4533.783203125;
32, -4571.15625;
33, -4569.3408203125;
34, -4474.8920898438;
35, -4324.8549804688;
36, -4208.607421875;
37, -4034.2932128906;
38, -3863.6057128906;
39, -3702.7075195312;
40, -3519.9169921875;
41, -3184.98828125;
42, -2873.33984375;
43, -2475.8508300781;
44, -1674.5196533203;
45, -846.11004638672;
46, -253.33647155762;
47, -188.5422668457;
48, -115.09275054932;
49, -77.214485168457;
50, 85.516021728516;
51, 390.62170410156;
52, 623.671875;
53, 847.35894775391;
54, 1048.3342285156;
55, 1155.9434814453;
56, 1445.7302246094;
57, 1583.6746826172;
58, 1505.2626953125;
59, 1480.5416259766;
60, 1408.5479736328;
61, 1335.0584716797;
62, 1286.4067382812;
63, 1271.4807128906;
64, 1319.6281738281;
65, 1286.7834472656;
66, 1281.9031982422;
67, 1251.1169433594;
68, 1220.0181884766;
69, 1207.3776855469;
70, 1202.5500488281;
71, 1153.8752441406;
72, 1170.666015625;
73, 1111.8885498047;
74, 1056.3697509766;
75, 1005.5217895508;
76, 992.17193603516;
77, 985.96588134766;
78, 985.44848632812;
79, 969.88507080078;
80, 956.10473632812;
81, 950.80126953125;
82, 947.61779785156;
83, 938.16790771484;
84, 935.42590332031;
85, 931.29766845703;
86, 928.10150146484;
87, 928.1982421875;
88, 986.30920410156;
89, 1040.1691894531;
90, 1094.6066894531;
91, 1247.9962158203;
92, 1284.2210693359;
93, 1328.4342041016;
94, 1250.6229248047;
95, 1168.6893310547;
96, 881.54711914062;
97, 673.60443115234;
98, 741.14013671875;
99, 498.24877929688;
100, 402.31549072266;
101, 455.1116027832;
102, 423.64651489258;
103, 426.61434936523;
104, 380.22625732422;
105, 622.65081787109;
106, 480.50805664062;
107, 855.87713623047;
108, 901.15594482422;
109, 890.17657470703;
110, 1007.1386108398;
111, 970.14245605469;
112, 998.24829101562;
113, 738.55700683594;
114, 968.77575683594;
115, 978.16015625;
116, 1160.8410644531;
117, 1144.9820556641;
118, 1185.7426757812;
119, 909.32464599609;
120, 478.87274169922;
121, 476;
122, 919.93243408203;
123, 1301.6806640625;
124, 1056.4903564453;
125, 1336.8177490234;
126, 900.18188476562;
127, 722.89892578125;
128, 623.65600585938;
129, 546.68005371094;
130, 518.31378173828;
131, 461.5556640625;
132, 533.61822509766;
133, 282.59405517578;
134, 218.40121459961;
135, 234.35638427734;
136, 238.52011108398;
137, 180.26528930664;
138, 91.930366516113;
139, 49.509674072266;
140, 58.683727264404;
141, 65.395248413086;
142, 61.991027832031;
143, -672.66748046875;
144, -1996.5197753906;
145, -2766.9592285156;
146, -1993.072265625;
147, -2440.3706054688;
148, -3007.5251464844;
149, -3078.8969726562;
150, -3272.0583496094;
151, -3475.5520019531;
152, -3614.3967285156;
153, -3747.0231933594;
154, -3825.291015625;
155, -3922.4895019531;
156, -3986.2587890625;
157, -4052.3479003906;
158, -4122.6557617188;
159, -4190.9018554688;
160, -4243.7758789062;
161, -4064.3571777344;
162, -4201.837890625;
163, -4331.0874023438;
164, -4306.3603515625;
165, -4256.2861328125;
166, -4454.666015625;
167, -4556.5888671875;
168, -4665.7290039062;
169, -4647.3188476562;
170, -4657.9438476562;
171, -4728.0766601562;
172, -4893.4296875;
173, -4509.2802734375;
174, -4800.1938476562;
175, -4443.4282226562;
176, -3800.8125;
177, -4149.955078125;
178, -4532.1298828125;
179, -5128.0922851562;
180, -5024.9135742188;
181, -5128.6401367188;
182, -4674.0395507812;
183, -5105.4833984375;
184, -5091.7143554688;
185, -4685.3828125;
186, -4424.6586914062;
187, -4344.162109375;
188, -4150.1884765625;
189, -3904.8664550781;
190, -4107.658203125;
191, -3600.4755859375;
192, -2594.9284667969;
193, -2998.2124023438;
194, -3424.0795898438;
195, -3858.8054199219;
196, -4068.9956054688;
197, -2993.8244628906;
198, -3771.6091308594;
199, -3959.5881347656;
200, -4393.5419921875;
201, -4449.4555664062;
202, -4484.5415039062;
203, -4418.8969726562;
204, -4405.501953125;
205, -4450.7470703125;
206, -4502.0063476562;
207, -4443.7114257812;
208, -4541.4135742188;
209, -4559.9677734375;
210, -4582.9536132812;
211, -4591.830078125;
212, -4633.0483398438;
213, -4652.7158203125;
214, -4651.2446289062;
215, -4729.2802734375;
216, -4541.3666992188;
217, -4505.396484375;
218, -4454.3940429688;
219, -4569.0600585938;
220, -4688.6088867188;
221, -4847.9228515625;
222, -4751.728515625;
223, -3718.55859375;
224, -4210.6108398438;
225, -4278.7373046875;
226, -4093.7485351562;
227, -3758.8940429688;
228, -3968.6330566406;
229, -3945.2268066406;
230, -3636.37890625;
231, -3556.9143066406;
232, -3188.9614257812;
233, -3483.6591796875;
234, -2719.5454101562;
235, -2917.8837890625;
236, -3348.234375;
237, -3298.7673339844;
238, -2709.861328125;
239, -2982.9763183594;
240, -3073.4445800781;
241, -3265.2578125;
242, -3252.83203125;
243, -3292.9750976562;
244, -3433.4494628906;
245, -3540.5622558594;
246, -3864.96875;
247, -3890.1225585938;
248, -3800.9128417969;
249, -3818.8051757812;
250, -4120.75;
251, -3673.6320800781;
252, -3797.8503417969;
253, -3864.9904785156;
254, -3819.1350097656;
255, -4363.3349609375;
256, -3775.2021484375;
257, -4009.9645996094;
258, -3995.537109375;
259, -3958.1428222656;
260, -3804.806640625;
261, -3440.3913574219;
262, -2686.1625976562;
263, -1829.8002929688;
264, -1335.6960449219;
265, -149.12716674805;
266, -1817.9796142578;
267, -1978.2696533203;
268, -2264.791015625;
269, -2774.1201171875;
270, -2760.8640136719;
271, -2780.541015625;
272, -2740.2028808594;
273, -2832.4694824219;
274, -2616.2358398438;
275, -1481.4593505859;
276, -559.34808349609;
277, -246.92224121094;
278, -50.449928283691;
279, 15.042538642883;
280, 78.593055725098;
281, 671.86071777344;
282, 920.42297363281;
283, 266.56967163086;
284, 136.14624023438;
285, 128.35656738281;
286, 127.17258453369;
287, 113.86242675781;
288, 69.150428771973;
289, 23.982055664062;
290, 9.7697467803955;
291, 2.6494204998016;
292, -55.874877929688;
293, -703.17864990234;
294, -2049.2900390625;
295, -3217.5756835938;
296, -3408.5222167969;
297, -3497.0388183594;
298, -3600.4609375;
299, -3515.97265625;
300, -3519.0146484375;
301, -3477.1140136719;
302, -3446.7646484375;
303, -3424.6669921875;
304, -3414.8103027344;
305, -3391.0366210938;
306, -3363.9196777344;
307, -3311.3100585938;
308, -3268.8999023438;
309, -3234.3259277344;
310, -3207.9907226562;
311, -3173.8251953125;
312, -3130.0092773438;
313, -3108.9653320312;
314, -3091.5864257812;
315, -3064.6828613281;
316, -3036.7814941406;
317, -2993.6887207031;
318, -2960.806640625;
319, -2924.6723632812;
320, -2900.7314453125;
321, -2872.607421875;
322, -2865.0346679688;
323, -2844.0947265625;
324, -2796.6098632812;
325, -2756.2309570312;
326, -2705.2158203125;
327, -2652.5578613281;
328, -2611.8395996094;
329, -2577.7849121094;
330, -2534.5788574219;
331, -2510.4248046875;
332, -2419.3049316406;
333, -2300.1997070312;
334, -2361.60546875;
335, -2413.017578125;
336, -2432.1645507812;
337, -2404.7126464844;
338, -2343.3784179688;
339, -2511.4379882812;
340, -2499.3586425781;
341, -2187.8227539062;
342, -826.79736328125;
343, -73.406112670898;
344, -2.9972887039185;
345, 368.37734985352;
346, 28.199136734009;
347, 16.66402053833;
348, 23.529064178467;
349, 347.93591308594;
350, 190.95973205566;
351, 29.988843917847;
352, 319.7555847168;
353, 1198.6745605469;
354, 249.24066162109;
355, 793.15728759766;
356, 897.212890625;
357, 1053.072265625;
358, 1124.8288574219;
359, 766.97985839844;
360, 581.23309326172;
361, 491.21188354492;
362, 461.10824584961;
363, 455.95358276367;
364, 905.87152099609;
365, 827.08874511719;
366, 904.67230224609;
367, 811.57019042969;
368, 855.68975830078;
369, 1022.7733154297;
370, 887.72937011719;
371, 506.0888671875;
372, 830.90374755859;
373, 1090.9256591797;
374, 1206.7628173828;
375, 822.70867919922;
376, 967.55230712891;
377, 408.81201171875;
378, 1636.7545166016;
379, 578.89428710938;
380, 32.959060668945;
381, 115.27548980713;
382, 171.18051147461;
383, 515.44061279297;
384, 472.30419921875;
385, 232.69413757324;
386, 318.01568603516;
387, 141.76019287109;
388, 139.45066833496;
389, 110.41841888428;
390, 130.01675415039;
391, 78.1025390625;
392, 118.38824462891;
393, 89.658981323242;
394, 53.462371826172;
395, 49.262615203857;
396, 53.325298309326;
397, 115.81467437744;
398, 129.35577392578;
399, 92.304885864258;
400, 32.331340789795;
401, 198.57810974121;
402, 274.3635559082;
403, 78.804191589355;
404, 561.99676513672;
405, 170.93399047852;
406, 71.605026245117;
407, 294.72595214844;
408, 106.34944915771;
409, 211.35850524902;
410, 734.65887451172;
411, 485.64651489258;
412, 488.16754150391;
413, 855.76342773438;
414, 261.5299987793;
415, 316.22320556641;
416, 696.11309814453;
417, 366.63543701172;
418, 695.51940917969;
419, 902.39099121094;
420, 407.74578857422;
421, 347.38656616211;
422, 639.13250732422;
423, 587.61126708984;
424, 704.15521240234;
425, 343.67877197266;
426, 83.635498046875;
427, -23.573043823242;
428, -37.77946472168;
429, -61.173294067383;
430, -73.287406921387;
431, -79.695755004883;
432, -77.542854309082;
433, -111.86744689941;
434, -104.27418518066;
435, -100.22372436523;
436, -113.73171234131;
437, -136.84231567383;
438, -141.7220916748;
439, -100.64016723633;
440, -151.63362121582;
441, -124.53635406494;
442, -112.08679962158;
443, -115.71390533447;
444, -145.61996459961;
445, -177.51922607422;
446, -1077.4716796875;
447, -1588.3875732422;
448, -1826.8392333984;
449, -1476.4757080078;
450, -1092.8234863281;
451, -568.94750976562;
452, -805.58026123047;
453, -1127.0384521484;
454, -1059.7396240234;
455, -427.24349975586;
456, -928.75549316406;
457, -1727.3319091797;
458, -2355.5458984375;
459, -3276.7922363281;
460, -6461.5830078125;
461, -4994.01953125;
462, -4578.857421875;
463, -2837.64453125;
464, -2339.0678710938;
465, -2693.4333496094;
466, -2581.1252441406;
467, -3655.9208984375;
468, -4280.6801757812;
469, -4543.5390625;
470, -4229.705078125;
471, -3664.5163574219;
472, -3964.2907714844;
473, -4906.2666015625;
474, -5025.4619140625;
475, -4930.9829101562;
476, -4750.6206054688;
477, -4781.8193359375;
478, -4749.4741210938;
479, -4619.6166992188;
480, -4306.9477539062;
481, -4549.0405273438;
482, -4272.16015625;
483, -4022.7180175781;
484, -3559.5095214844;
485, -2859.91796875;
486, -2919.50390625;
487, -3443.6938476562;
488, -2660.3881835938;
489, -2853.9350585938;
490, -3247.0505371094;
491, -4027.537109375;
492, -4008.9479980469;
493, -2441.02734375;
494, -3597.115234375;
495, -5354.8823242188;
496, -9398.1484375;
497, -7927.66015625;
498, -5503.9384765625;
499, -5829.5126953125;
