0, -3507.0434570312;
1, -3510.6293945312;
2, -3442.9455566406;
3, -3501.6337890625;
4, -3636.9130859375;
5, -3357.3771972656;
6, -3562.6584472656;
7, -3615.5424804688;
8, -3559.037109375;
9, -3370.4494628906;
10, -3293.4868164062;
11, -3259.0283203125;
12, -3483.05078125;
13, -3348.109375;
14, -3649.05078125;
15, -3596.0344238281;
16, -3551.8034667969;
17, -3587.5361328125;
18, -3620.1022949219;
19, -3520.7133789062;
20, -3588.2709960938;
21, -3429.5515136719;
22, -4042.4807128906;
23, -3959.6667480469;
24, -4009.6193847656;
25, -4305.904296875;
26, -4427.2583007812;
27, -4470.6884765625;
28, -4567.9155273438;
29, -4594.9536132812;
30, -4680.861328125;
31, -4672.8676757812;
32, -4579.3330078125;
33, -4889.671875;
34, -4834.2275390625;
35, -4716.5883789062;
36, -4998.0122070312;
37, -5082.4951171875;
38, -5042.56640625;
39, -4981.9521484375;
40, -5304.0043945312;
41, -4856.5014648438;
42, -4799.2055664062;
43, -4991.142578125;
44, -4926.0014648438;
45, -4708.5532226562;
46, -4666.6069335938;
47, -4701.7470703125;
48, -4842.3857421875;
49, -4839.5766601562;
50, -4975.3305664062;
51, -4875.5561523438;
52, -4901.3603515625;
53, -4860.6958007812;
54, -4792.1030273438;
55, -4746.6899414062;
56, -4778.2573242188;
57, -4717.470703125;
58, -4689.9345703125;
59, -4528.6806640625;
60, -4598.4750976562;
61, -4480.9384765625;
62, -4597.8569335938;
63, -4196.2919921875;
64, -4120.8549804688;
65, -3880.0969238281;
66, -4369.021484375;
67, -3964.4333496094;
68, -3530.1494140625;
69, -4041.4353027344;
70, -3894.2568359375;
71, -3920.5034179688;
72, -3780.3872070312;
73, -3281.2143554688;
74, -2922.8286132812;
75, -3081.5126953125;
76, -2213.6569824219;
77, -1688.494140625;
78, -2406.8395996094;
79, -2090.7529296875;
80, -1967.1160888672;
81, -2823.5146484375;
82, -2871.1076660156;
83, -3436.5249023438;
84, -3393.1472167969;
85, -3383.0065917969;
86, -4033.0334472656;
87, -3740.4724121094;
88, -3753.3505859375;
89, -4447.5263671875;
90, -2982.8957519531;
91, -3500.9865722656;
92, -3698.361328125;
93, -2972.39453125;
94, -2828.3525390625;
95, -2539.5031738281;
96, -2006.6278076172;
97, -1671.8850097656;
98, -1572.0074462891;
99, -1469.8225097656;
100, -1435.1807861328;
101, -2184.6782226562;
102, -2042.2183837891;
103, -2331.1655273438;
104, -2429.6625976562;
105, -2819.6928710938;
106, -4543.3935546875;
107, -4284.232421875;
108, -4230.8549804688;
109, -4458.0546875;
110, -4713.6875;
111, -4670.3530273438;
112, -4769.5698242188;
113, -4709.330078125;
114, -4919.193359375;
115, -4970.8247070312;
116, -4959.2900390625;
117, -4976.556640625;
118, -4986.7602539062;
119, -4992.2973632812;
120, -4986.75390625;
121, -4995.033203125;
122, -4990.982421875;
123, -5006.2221679688;
124, -5032.1557617188;
125, -5016.7260742188;
126, -4983.3349609375;
127, -4950.5234375;
128, -5078.9248046875;
129, -5005.0810546875;
130, -4118.5673828125;
131, -3170.8986816406;
132, -2267.2507324219;
133, -2243.9782714844;
134, -2227.455078125;
135, -2084.5334472656;
136, -1970.5631103516;
137, -1750.0828857422;
138, -1604.3706054688;
139, -1486.7663574219;
140, -1491.05859375;
141, -1459.0205078125;
142, -1206.3680419922;
143, -834.58563232422;
144, -802.59948730469;
145, -697.63684082031;
146, -440.15209960938;
147, -124.82221221924;
148, -9.1262636184692;
149, 47.095718383789;
150, 126.65687561035;
151, 82.202507019043;
152, 191.90606689453;
153, 304.24774169922;
154, 395.21865844727;
155, 478.72265625;
156, 452.51052856445;
157, 402.35516357422;
158, 510.3674621582;
159, 495.4172668457;
160, 957.02679443359;
161, 882.08319091797;
162, 1004.6978149414;
163, 843.91778564453;
164, 789.00299072266;
165, 812.26116943359;
166, 706.64428710938;
167, 639.25299072266;
168, 674.05047607422;
169, 744.33581542969;
170, 859.30065917969;
171, 879.29718017578;
172, 962.72717285156;
173, 1007.5587768555;
174, 1078.7012939453;
175, 1107.0532226562;
176, 1116.7517089844;
177, 1021.9409790039;
178, 960.36151123047;
179, 936.92822265625;
180, 935.21820068359;
181, 977.54357910156;
182, 994.09765625;
183, 1021.2549438477;
184, 1005.4674682617;
185, 1025.5513916016;
186, 1024.7799072266;
187, 998.91656494141;
188, 992.70855712891;
189, 931.36822509766;
190, 933.54187011719;
191, 974.90594482422;
192, 1022.5517578125;
193, 1014.7346801758;
194, 1014.2006835938;
195, 1009.5023193359;
196, 1009.78125;
197, 1018.0581665039;
198, 1019.1289672852;
199, 1033.8591308594;
200, 1045.1383056641;
201, 1041.6723632812;
202, 1053.9184570312;
203, 1066.2290039062;
204, 1099.3499755859;
205, 1153.5251464844;
206, 1206.4393310547;
207, 1229.1291503906;
208, 1257.2431640625;
209, 1225.830078125;
210, 1230.6843261719;
211, 1260.0141601562;
212, 1391.0242919922;
213, 1367.6031494141;
214, 1445.7014160156;
215, 1456.4998779297;
216, 1410.0991210938;
217, 1435.3560791016;
218, 1395.3540039062;
219, 1416.4427490234;
220, 1353.4340820312;
221, 1304.2396240234;
222, 1224.4010009766;
223, 1220.2830810547;
224, 1127.484375;
225, 1102.7725830078;
226, 1119.9830322266;
227, 1080.9403076172;
228, 1087.6480712891;
229, 1101.8149414062;
230, 1075.0621337891;
231, 1154.9516601562;
232, 1161.8439941406;
233, 1203.0233154297;
234, 973.99719238281;
235, 1155.6665039062;
236, 1247.5025634766;
237, 1348.3756103516;
238, 1116.5916748047;
239, 903.14581298828;
240, 851.27490234375;
241, 594.70703125;
242, 430.32501220703;
243, 588.13970947266;
244, 499.48547363281;
245, 430.33993530273;
246, 397.27618408203;
247, 417.54806518555;
248, 343.09262084961;
249, 162.3719329834;
250, 34.492580413818;
251, 115.67987823486;
252, 116.61315917969;
253, 55.580013275146;
254, 39.299060821533;
255, 70.223052978516;
256, 57.360652923584;
257, 25.34125328064;
258, 26.942876815796;
259, 61.696453094482;
260, 30.593286514282;
261, 69.730850219727;
262, 153.06425476074;
263, 284.62554931641;
264, 148.02230834961;
265, 95.351173400879;
266, 42.397716522217;
267, 70.701606750488;
268, 47.136867523193;
269, 62.171878814697;
270, 39.55797958374;
271, 23.35643196106;
272, 5.6763920783997;
273, 17.084609985352;
274, 6.2981567382812;
275, -9.3097143173218;
276, -658.65966796875;
277, -1111.1153564453;
278, -1857.3187255859;
279, -2312.5231933594;
280, -2627.6689453125;
281, -2789.6704101562;
282, -2589.0107421875;
283, -2719.7690429688;
284, -2371.5446777344;
285, -2679.6403808594;
286, -3101.4619140625;
287, -3209.9099121094;
288, -3222.0832519531;
289, -3134.7026367188;
290, -3228.896484375;
291, -3162.7346191406;
292, -2897.6828613281;
293, -2686.9780273438;
294, -2570.8078613281;
295, -2529.3100585938;
296, -2650.1713867188;
297, -2526.8002929688;
298, -1705.10546875;
299, -1879.3098144531;
300, -1862.4837646484;
301, -1904.1970214844;
302, -2282.3913574219;
303, -2278.7377929688;
304, -2317.9299316406;
305, -2322.97265625;
306, -2408.185546875;
307, -2834.9753417969;
308, -2651.669921875;
309, -634.27001953125;
310, -95.423042297363;
311, 0;
312, 71.77912902832;
313, 21.647518157959;
314, 101.03643798828;
315, 188.99003601074;
316, 153.59700012207;
317, 161.36180114746;
318, 223.21022033691;
319, 282.08609008789;
320, 669.31066894531;
321, 438.92620849609;
322, 179.00756835938;
323, 102.53002166748;
324, 197.69343566895;
325, 193.29949951172;
326, 199.84690856934;
327, 164.32104492188;
328, 144.46742248535;
329, 115.922996521;
330, 125.08850860596;
331, 174.90455627441;
332, 180.79620361328;
333, 291.123046875;
334, 355.73178100586;
335, 314.77304077148;
336, 330.12496948242;
337, 291.83367919922;
338, 281.39691162109;
339, 283.45343017578;
340, 257.16156005859;
341, 323.78115844727;
342, 262.50961303711;
343, 258.82138061523;
344, 257.43966674805;
345, 271.6064453125;
346, 393.08038330078;
347, 311.58987426758;
348, 271.96490478516;
349, 269.44671630859;
350, 270.99792480469;
351, 271.70709228516;
352, 271.50994873047;
353, 272.6760559082;
354, 279.38397216797;
355, 288.00866699219;
356, 305.44116210938;
357, 296.21243286133;
358, 317.39697265625;
359, 308.6291809082;
360, 329.5061340332;
361, 363.0461730957;
362, 389.5573425293;
363, 391.36917114258;
364, 206.12519836426;
365, 237.66351318359;
366, 226.60426330566;
367, 228.50961303711;
368, 238.2645111084;
369, 241.71298217773;
370, 251.84350585938;
371, 328.62869262695;
372, 351.25155639648;
373, 372.04330444336;
374, 379.4504699707;
375, 382.88488769531;
376, 393.28723144531;
377, 400.54763793945;
378, 403.04150390625;
379, 390.71713256836;
380, 388.67608642578;
381, 381.05422973633;
382, 388.99160766602;
383, 410.11404418945;
384, 420.93124389648;
385, 382.27612304688;
386, 591.806640625;
387, 317.19958496094;
388, 360.63455200195;
389, 274.31286621094;
390, 303.07876586914;
391, 333.90875244141;
392, 300.95684814453;
393, 304.00061035156;
394, 338.20156860352;
395, 327.53335571289;
396, 314.3251953125;
397, 315.38989257812;
398, 281.57247924805;
399, 226.47015380859;
400, 198.18081665039;
401, 180.9688873291;
402, 98.764656066895;
403, -18.452102661133;
404, -29.647394180298;
405, -47.367263793945;
406, -96.850685119629;
407, -256.25582885742;
408, -1206.1765136719;
409, -2666.6962890625;
410, -3370.5705566406;
411, -3486.8420410156;
412, -3561.0009765625;
413, -3611.1484375;
414, -3647.4929199219;
415, -3696.5981445312;
416, -3736.6384277344;
417, -3799.5617675781;
418, -3865.2104492188;
419, -3980.123046875;
420, -4118.3564453125;
421, -4233.7368164062;
422, -4304.263671875;
423, -4412.9653320312;
424, -4483.6303710938;
425, -4590.3134765625;
426, -4642.8310546875;
427, -4689.2109375;
428, -4722.21875;
429, -4762.2358398438;
430, -4834.1010742188;
431, -4892.271484375;
432, -4947.4887695312;
433, -4990.2680664062;
434, -5058.9970703125;
435, -5111.990234375;
436, -5139.1020507812;
437, -5218.8764648438;
438, -5287.8842773438;
439, -5332.859375;
440, -5372.0581054688;
441, -5428.7729492188;
442, -5425.0854492188;
443, -5429.1684570312;
444, -5440.6357421875;
445, -5443.9609375;
446, -5221.1889648438;
447, -5078.3579101562;
448, -5227.9165039062;
449, -4723.685546875;
450, -4469.2719726562;
451, -4217.3666992188;
452, -4764.1713867188;
453, -4434.4345703125;
454, -3626.7653808594;
455, -3963.0676269531;
456, -4263.3134765625;
457, -3917.2570800781;
458, -3206.9936523438;
459, -3127.8608398438;
460, -3358.0329589844;
461, -3285.2587890625;
462, -3734.498046875;
463, -3476.4987792969;
464, -3293.6950683594;
465, -3070.2570800781;
466, -2954.7741699219;
467, -3122.2834472656;
468, -3372.7763671875;
469, -3010.5510253906;
470, -2790.2253417969;
471, -2694.9287109375;
472, -2766.6708984375;
473, -2792.0886230469;
474, -1592.4658203125;
475, -2007.7427978516;
476, -2721.8181152344;
477, -1607.8607177734;
478, -976.037109375;
479, -1720.1988525391;
480, -2648.9873046875;
481, -2388.67578125;
482, -2270.9633789062;
483, -4103.0180664062;
484, -4009.0485839844;
485, -3935.9387207031;
486, -4033.1909179688;
487, -4162.5078125;
488, -4023.5693359375;
489, -4345.9985351562;
490, -4516.1181640625;
491, -4415.6645507812;
492, -4320.9819335938;
493, -4314.8662109375;
494, -4525.1801757812;
495, -4318.62109375;
496, -4940.6264648438;
497, -4832.390625;
498, -4613.1235351562;
499, -4741.6704101562;
