0, 3220;
1, 3216.6457519531;
2, 3204.4670410156;
3, 3200.8676757812;
4, 3199.9448242188;
5, 3186.8671875;
6, 3175.3405761719;
7, 3164.2492675781;
8, 3150.0075683594;
9, 3137.642578125;
10, 3126.4138183594;
11, 3116.3618164062;
12, 3116.8315429688;
13, 3098.5734863281;
14, 3074.1403808594;
15, 3064.1704101562;
16, 3021.6513671875;
17, 2960.0009765625;
18, 2898.8444824219;
19, 2871.93359375;
20, 2844.6882324219;
21, 2801.3381347656;
22, 2729.6484375;
23, 2677.1560058594;
24, 2647.3527832031;
25, 2617.8581542969;
26, 2589.0559082031;
27, 2484.1540527344;
28, 2442.2270507812;
29, 2422.5583496094;
30, 2379.251953125;
31, 2280.2048339844;
32, 2201.9545898438;
33, 2111.5642089844;
34, 2078.5932617188;
35, 1905.7852783203;
36, 1954.6732177734;
37, 2001.0782470703;
38, 1927.0408935547;
39, 1878.7506103516;
40, 1882.7659912109;
41, 1797.6275634766;
42, 1752.3156738281;
43, 1702.2603759766;
44, 1652.3315429688;
45, 1604.6921386719;
46, 1578.953125;
47, 1547.4104003906;
48, 1515.9736328125;
49, 1490.7396240234;
50, 1450.9145507812;
51, 1404.5578613281;
52, 1339.8411865234;
53, 1302.5831298828;
54, 1293.5305175781;
55, 1201.6885986328;
56, 1109.3536376953;
57, 1046.3466796875;
58, 991.83093261719;
59, 920.53411865234;
60, 864.57427978516;
61, 801.90863037109;
62, 749.23468017578;
63, 695.57391357422;
64, 638.20147705078;
65, 579.99273681641;
66, 509.6025390625;
67, 457.79272460938;
68, 415.14489746094;
69, 383.61352539062;
70, 346.34078979492;
71, 311.41851806641;
72, 277.19253540039;
73, 229.85543823242;
74, 192.61685180664;
75, 168.78256225586;
76, 155.65830993652;
77, 150.58714294434;
78, 143.66217041016;
79, 132.76397705078;
80, 118.81980133057;
81, 100.50765991211;
82, 80.143692016602;
83, 53.429237365723;
84, 39.030769348145;
85, 43.57209777832;
86, 51.651504516602;
87, 54.314853668213;
88, 52.066757202148;
89, 47.341270446777;
90, 49;
91, 49;
92, 49;
93, 49;
94, 48.031879425049;
95, 47.001148223877;
96, 45.96838760376;
97, 44.290534973145;
98, 43.008918762207;
99, 41.74475479126;
100, 38.453319549561;
101, 35.01416015625;
102, 34.781578063965;
103, 33.268684387207;
104, 20.631650924683;
105, 0.27918836474419;
106, 0;
107, 0;
108, 0;
109, 0;
110, 0;
111, 0;
112, -459.24249267578;
113, -448.06753540039;
114, -298.14495849609;
115, -447.68399047852;
116, -940.30828857422;
117, -1462.8315429688;
118, -1791.0367431641;
119, -2031.9193115234;
120, -2156.9694824219;
121, -2231.9069824219;
122, -2362.076171875;
123, -2569.9680175781;
124, -2704.3581542969;
125, -2728.1408691406;
126, -2787.6857910156;
127, -2922.4887695312;
128, -3042.4848632812;
129, -3055.7175292969;
130, -3131.564453125;
131, -3295.1276855469;
132, -3310.31640625;
133, -3334.8813476562;
134, -3365.3720703125;
135, -3345.7199707031;
136, -3445.1088867188;
137, -3490.8234863281;
138, -3545.9313964844;
139, -3639.7866210938;
140, -3706.2001953125;
141, -3723.9328613281;
142, -3738.8872070312;
143, -3729.3850097656;
144, -3684.9165039062;
145, -3643.7814941406;
146, -3667.4750976562;
147, -3692.9750976562;
148, -3694.5986328125;
149, -3696.4890136719;
150, -3718.8249511719;
151, -3718.9396972656;
152, -3662.7395019531;
153, -3609.5974121094;
154, -3608.0708007812;
155, -3616.6396484375;
156, -3657.0693359375;
157, -3787.1945800781;
158, -3933.8635253906;
159, -3982.2944335938;
160, -3948.6630859375;
161, -3920.7958984375;
162, -3947.0876464844;
163, -3999.2915039062;
164, -4040.2712402344;
165, -4074.171875;
166, -4102.6591796875;
167, -4121.90625;
168, -4157.1176757812;
169, -4222.8969726562;
170, -4278.5942382812;
171, -4287.3793945312;
172, -4287.625;
173, -4314.2060546875;
174, -4285.2211914062;
175, -4237.4189453125;
176, -4195.4404296875;
177, -4188.837890625;
178, -4202.123046875;
179, -4183.7958984375;
180, -4179.1450195312;
181, -4256.8012695312;
182, -4323.787109375;
183, -4307.25;
184, -4230.0415039062;
185, -4220.6806640625;
186, -4305.4853515625;
187, -4359.6875;
188, -4367.5771484375;
189, -4348.4609375;
190, -4329.607421875;
191, -4315.7016601562;
192, -4306.6899414062;
193, -4297.6762695312;
194, -4295.7001953125;
195, -4312.8588867188;
196, -4345.4965820312;
197, -4304.6923828125;
198, -4002.5158691406;
199, -3341.5720214844;
200, -2727.0532226562;
201, -2682.3891601562;
202, -3305.90625;
203, -4087.3579101562;
204, -4319.9204101562;
205, -4360.3813476562;
206, -4338.4130859375;
207, -4311.9438476562;
208, -4254.3247070312;
209, -4130.8178710938;
210, -3908.6394042969;
211, -3407.8723144531;
212, -2831.9155273438;
213, -2418.0056152344;
214, -2373.7219238281;
215, -2692.3342285156;
216, -3140.0141601562;
217, -3568.7065429688;
218, -3951.9155273438;
219, -4110.0087890625;
220, -4187.375;
221, -4232.4682617188;
222, -4259.4248046875;
223, -4286.3955078125;
224, -4321.2329101562;
225, -4361.7182617188;
226, -4393.630859375;
227, -4421.6616210938;
228, -4454.6962890625;
229, -4484.3178710938;
230, -4509.1567382812;
231, -4534.7807617188;
232, -4556.1811523438;
233, -4576.51953125;
234, -4605.5444335938;
235, -4649.2275390625;
236, -4686.5024414062;
237, -4711.1142578125;
238, -4729.8872070312;
239, -4756.787109375;
240, -4779.0102539062;
241, -4793.6015625;
242, -4804.0639648438;
243, -4812.8544921875;
244, -4817.1528320312;
245, -4788.6518554688;
246, -4711.2158203125;
247, -4655.7221679688;
248, -4636.5922851562;
249, -4678.9184570312;
250, -4788.2509765625;
251, -4933.056640625;
252, -4999.1811523438;
253, -5049.466796875;
254, -5078.7548828125;
255, -5086.0087890625;
256, -5072.1962890625;
257, -5051.4873046875;
258, -5032.9448242188;
259, -5018.921875;
260, -4984.2421875;
261, -4941.8959960938;
262, -4925.2387695312;
263, -4961.8491210938;
264, -5030.3935546875;
265, -5063.7739257812;
266, -5053.4912109375;
267, -4999.34375;
268, -4938.5610351562;
269, -4926.5991210938;
270, -4953.7939453125;
271, -4970.7421875;
272, -4944.60546875;
273, -4898.1899414062;
274, -4884.16796875;
275, -4917.86328125;
276, -4958.5190429688;
277, -4978.740234375;
278, -4993.1953125;
279, -5024.7119140625;
280, -5065.5668945312;
281, -5085.5502929688;
282, -5076.6704101562;
283, -5059.8984375;
284, -5044.0615234375;
285, -5032.6733398438;
286, -5022.5703125;
287, -5018.8969726562;
288, -5019.4912109375;
289, -5027.5478515625;
290, -5033.8481445312;
291, -5039.3071289062;
292, -5050.2172851562;
293, -5057.4345703125;
294, -5065.8232421875;
295, -5068.1040039062;
296, -5073.2275390625;
297, -5083.990234375;
298, -5087.2407226562;
299, -5072.154296875;
300, -5040.8481445312;
301, -5011.259765625;
302, -4988.4912109375;
303, -4980.1591796875;
304, -4987.328125;
305, -4992.8627929688;
306, -4987.005859375;
307, -4971.3198242188;
308, -4964.3071289062;
309, -4969.4140625;
310, -4993.9243164062;
311, -5042.0190429688;
312, -5103.0390625;
313, -5127.5678710938;
314, -5118.7470703125;
315, -5087.5712890625;
316, -5031.3686523438;
317, -4963.8266601562;
318, -4900.6083984375;
319, -4881.3647460938;
320, -4903.8408203125;
321, -4929.1533203125;
322, -4966.8090820312;
323, -5035.4672851562;
324, -5098.6157226562;
325, -5100.3046875;
326, -5065.412109375;
327, -5050.603515625;
328, -5073.8022460938;
329, -5116.4663085938;
330, -5142.6655273438;
331, -5116.2607421875;
332, -5042.2993164062;
333, -4956.5795898438;
334, -4882.177734375;
335, -4828.283203125;
336, -4809.623046875;
337, -4825.2260742188;
338, -4854.8344726562;
339, -4904.9560546875;
340, -4992.3701171875;
341, -5085.4868164062;
342, -5150.1162109375;
343, -5172.986328125;
344, -5144.5791015625;
345, -5082.8759765625;
346, -5021.0317382812;
347, -4979.4438476562;
348, -4933.5903320312;
349, -4858.8857421875;
350, -4787.3266601562;
351, -4749.4326171875;
352, -4755.8305664062;
353, -4793.0756835938;
354, -4821.2392578125;
355, -4841.5869140625;
356, -4880.056640625;
357, -4936.44921875;
358, -4979.529296875;
359, -4970.8842773438;
360, -4926.9072265625;
361, -4889.8046875;
362, -4898.3564453125;
363, -4942.0610351562;
364, -4983.6489257812;
365, -5019.9321289062;
366, -5061.3852539062;
367, -5091.9765625;
368, -5100.0346679688;
369, -5078.2612304688;
370, -5026.16796875;
371, -4959.3618164062;
372, -4905.8310546875;
373, -4889.69140625;
374, -4916.9790039062;
375, -4975.6201171875;
376, -5047.9375;
377, -5103.5830078125;
378, -5102.4501953125;
379, -5019.0419921875;
380, -4869.4809570312;
381, -4721.8193359375;
382, -4627.7783203125;
383, -4600.2465820312;
384, -4657.5712890625;
385, -4798.5380859375;
386, -4953.9677734375;
387, -5043.0141601562;
388, -5038.8793945312;
389, -4992.12890625;
390, -4981.0610351562;
391, -5014.802734375;
392, -5028.9013671875;
393, -4987.9682617188;
394, -4941.806640625;
395, -4965.3862304688;
396, -5035.7866210938;
397, -5065.81640625;
398, -5018.4267578125;
399, -4925.1591796875;
400, -4881.2006835938;
401, -4945.4833984375;
402, -5089.2045898438;
403, -5206.1508789062;
404, -5229.8720703125;
405, -5183.466796875;
406, -5149.2744140625;
407, -5160.0727539062;
408, -5178.3369140625;
409, -5169.0249023438;
410, -5136.7739257812;
411, -5090.9956054688;
412, -5025.1640625;
413, -4907.9853515625;
414, -4764.4814453125;
415, -4710.4331054688;
416, -4822.3046875;
417, -4956.7900390625;
418, -5032.337890625;
419, -5042.3974609375;
420, -5023.8081054688;
421, -4893.099609375;
422, -4718.54296875;
423, -4553.4243164062;
424, -4901.4384765625;
425, -5026.2241210938;
426, -5245.6752929688;
427, -5301.6948242188;
428, -5264.5170898438;
429, -5240.1821289062;
430, -5229.205078125;
431, -5230.3466796875;
432, -5220.3286132812;
433, -5113.2006835938;
434, -5233.388671875;
435, -5220.5805664062;
436, -4721.1694335938;
437, -4112.27734375;
438, -4514.201171875;
439, -4843.0434570312;
440, -4825.9262695312;
441, -4776.9936523438;
442, -4774.3217773438;
443, -4763.43359375;
444, -4749.3237304688;
445, -4777.7919921875;
446, -4682.8286132812;
447, -4640.6669921875;
448, -4742.7041015625;
449, -4896.0249023438;
450, -4995.3442382812;
451, -5020.5903320312;
452, -5013.6831054688;
453, -5004.634765625;
454, -5010.0341796875;
455, -5043.2114257812;
456, -5095.796875;
457, -5120.2426757812;
458, -5061.4858398438;
459, -4959.6225585938;
460, -4884.6142578125;
461, -4820.9184570312;
462, -4708.6879882812;
463, -4551.9931640625;
464, -4417.607421875;
465, -4384.81640625;
466, -4432.0141601562;
467, -4478.5458984375;
468, -4493.033203125;
469, -4519.2817382812;
470, -4593.1313476562;
471, -4665.3383789062;
472, -4655.3334960938;
473, -4541.892578125;
474, -4420.3701171875;
475, -4391.4052734375;
476, -4464.8334960938;
477, -4582.9106445312;
478, -4647.2905273438;
479, -4534.5571289062;
480, -4334.9086914062;
481, -4196.4458007812;
482, -4196.7958984375;
483, -4247.4008789062;
484, -4256.9140625;
485, -4282.3364257812;
486, -4455.5922851562;
487, -4887.9233398438;
488, -5315.2919921875;
489, -5438.8564453125;
490, -5231.5307617188;
491, -4931.2944335938;
492, -4778.57421875;
493, -4809.05859375;
494, -4888.5346679688;
495, -4926.7924804688;
496, -4898.1318359375;
497, -4833.1948242188;
498, -4792.0766601562;
499, -4795.0991210938;
