0, -4232.3159179688;
1, -4271.2260742188;
2, -4126.9975585938;
3, -4169.4907226562;
4, -4117.6547851562;
5, -4131.9384765625;
6, -4194.3745117188;
7, -4287.6635742188;
8, -4387.587890625;
9, -4442.076171875;
10, -4389.3012695312;
11, -4460.8872070312;
12, -4474.4370117188;
13, -4313.5732421875;
14, -4320.6743164062;
15, -4087.5227050781;
16, -3986.802734375;
17, -4058.5041503906;
18, -4102.4946289062;
19, -4076.2631835938;
20, -4001.4963378906;
21, -4140.8515625;
22, -4199.3828125;
23, -4077.6237792969;
24, -4120.4267578125;
25, -4183.5219726562;
26, -4073.6042480469;
27, -4117.890625;
28, -4116.849609375;
29, -4182.1186523438;
30, -4082.5026855469;
31, -4123.7036132812;
32, -4099.4887695312;
33, -4002.1552734375;
34, -3776.5073242188;
35, -3650.1694335938;
36, -3859.8374023438;
37, -3986.0095214844;
38, -3839.6345214844;
39, -3792.5183105469;
40, -3853.5341796875;
41, -3841.2416992188;
42, -3833.1459960938;
43, -3814.333984375;
44, -3825.8713378906;
45, -3930.1103515625;
46, -3848.1958007812;
47, -3814.388671875;
48, -3780.8916015625;
49, -3775.4597167969;
50, -3798.1359863281;
51, -3846.8132324219;
52, -3783.4423828125;
53, -3818.3049316406;
54, -3768.5974121094;
55, -3825.9809570312;
56, -3779.4133300781;
57, -3840.3002929688;
58, -3937.8510742188;
59, -3834.548828125;
60, -3776.1865234375;
61, -3739.6420898438;
62, -3789.3286132812;
63, -3823.6015625;
64, -3881.6628417969;
65, -3831.7189941406;
66, -3867.0480957031;
67, -3788.2565917969;
68, -3709.7922363281;
69, -3720.9626464844;
70, -3738.2817382812;
71, -3691.7351074219;
72, -3677.0642089844;
73, -3573.4521484375;
74, -3776.5395507812;
75, -3725.6286621094;
76, -3759.0954589844;
77, -3716.3354492188;
78, -3690.7055664062;
79, -3714.8776855469;
80, -3810.0720214844;
81, -3869.4565429688;
82, -3764.8073730469;
83, -3861.2265625;
84, -3881.5915527344;
85, -3759.5510253906;
86, -3727.23828125;
87, -3627.5827636719;
88, -3581.3725585938;
89, -3692.0864257812;
90, -3709.318359375;
91, -3714.490234375;
92, -3724.2827148438;
93, -3549.4719238281;
94, -3695.2255859375;
95, -3625.2631835938;
96, -3858.5329589844;
97, -3762.9907226562;
98, -3727.9790039062;
99, -3694.796875;
100, -3577.0961914062;
101, -3456.9067382812;
102, -3526.3244628906;
103, -3507.9396972656;
104, -3632.5400390625;
105, -3611.4360351562;
106, -3614.1232910156;
107, -3458.9948730469;
108, -3695.2839355469;
109, -3651.9919433594;
110, -3676.52734375;
111, -3630.9409179688;
112, -3586.3757324219;
113, -3522.083984375;
114, -3555.3132324219;
115, -3726.0625;
116, -3675.1823730469;
117, -3714.2465820312;
118, -3727.1647949219;
119, -3709.9421386719;
120, -3736.3310546875;
121, -3727.6828613281;
122, -3690.6455078125;
123, -3789.3059082031;
124, -3833.2014160156;
125, -3823.6076660156;
126, -3975.2734375;
127, -4246.232421875;
128, -4090.0017089844;
129, -3671.205078125;
130, -3818.9987792969;
131, -3878.8967285156;
132, -3775.4072265625;
133, -3637.6821289062;
134, -3576.4340820312;
135, -3616.3852539062;
136, -3630.8840332031;
137, -3770.5415039062;
138, -3664.943359375;
139, -3585.7849121094;
140, -3544.7534179688;
141, -3567.6752929688;
142, -3620.9799804688;
143, -3607.3100585938;
144, -3556.4321289062;
145, -3571.7058105469;
146, -3651.7526855469;
147, -3588.8854980469;
148, -3561.4328613281;
149, -3675.6594238281;
150, -3744.6677246094;
151, -3640.7529296875;
152, -3788.2036132812;
153, -3793.2058105469;
154, -3716.8671875;
155, -3712.6662597656;
156, -3750.1655273438;
157, -3772.8950195312;
158, -3728.7243652344;
159, -3724.9838867188;
160, -3658.119140625;
161, -3520.8483886719;
162, -3699.3649902344;
163, -3755.7668457031;
164, -3741.5615234375;
165, -3508.5310058594;
166, -3531.4575195312;
167, -3770.4389648438;
168, -3639.6267089844;
169, -3715.9155273438;
170, -3808.7043457031;
171, -3615.5817871094;
172, -3492.0134277344;
173, -3589.6489257812;
174, -3581.7824707031;
175, -3581.4343261719;
176, -3656.779296875;
177, -3618.322265625;
178, -3605.0161132812;
179, -3612.5363769531;
180, -3684.9011230469;
181, -3610.6638183594;
182, -3500.2360839844;
183, -3493.7346191406;
184, -3482.4587402344;
185, -3495.3393554688;
186, -3576.3469238281;
187, -3541.5441894531;
188, -3431.1684570312;
189, -3342.0148925781;
190, -3421.0656738281;
191, -3393.361328125;
192, -3363.1252441406;
193, -3384.8376464844;
194, -3397.4169921875;
195, -3316.4421386719;
196, -3398.1594238281;
197, -3475.4145507812;
198, -3472.0249023438;
199, -3451.703125;
200, -3472.8264160156;
201, -3531.75;
202, -3601.3286132812;
203, -3580.6254882812;
204, -3557.5834960938;
205, -3507.4465332031;
206, -3476.5905761719;
207, -3564.8110351562;
208, -3689.6391601562;
209, -3688.0014648438;
210, -3596.7153320312;
211, -3581.4721679688;
212, -3582.359375;
213, -3491.6784667969;
214, -3571.6022949219;
215, -3724.1096191406;
216, -3719.2922363281;
217, -3552.03515625;
218, -3506.1228027344;
219, -3543.1345214844;
220, -3583.4509277344;
221, -3549.7297363281;
222, -3516.6723632812;
223, -3537.8403320312;
224, -3556.224609375;
225, -3614.4770507812;
226, -3653.3901367188;
227, -3633.1264648438;
228, -3636.0207519531;
229, -3701.044921875;
230, -3619.6931152344;
231, -3605.6909179688;
232, -3686.7199707031;
233, -3857.0361328125;
234, -3827.7819824219;
235, -3899.1228027344;
236, -3793.9377441406;
237, -3574.001953125;
238, -3509.7041015625;
239, -3601.6408691406;
240, -3595.04296875;
241, -3692.1247558594;
242, -3857.8549804688;
243, -3852.3803710938;
244, -3763.0246582031;
245, -3685.6752929688;
246, -3692.5334472656;
247, -3620.1760253906;
248, -3508.3203125;
249, -3563.6545410156;
250, -3686.8576660156;
251, -3767.3940429688;
252, -3769.5759277344;
253, -3671.4653320312;
254, -3532.00390625;
255, -3304.8317871094;
256, -3280.4868164062;
257, -3613.5573730469;
258, -3656.3764648438;
259, -3664.4963378906;
260, -3600.5119628906;
261, -3631.3928222656;
262, -3710.2546386719;
263, -3695.6081542969;
264, -3663.4968261719;
265, -3719.2392578125;
266, -3631.9775390625;
267, -3802.5217285156;
268, -3610.4250488281;
269, -3640.0368652344;
270, -3731.9084472656;
271, -3677.1999511719;
272, -3632.2785644531;
273, -3631.7531738281;
274, -3736.8498535156;
275, -3603.0205078125;
276, -3697.7375488281;
277, -3834.3720703125;
278, -3875.1733398438;
279, -4046.9309082031;
280, -4055.802734375;
281, -3731.0102539062;
282, -3799.9851074219;
283, -4023.1801757812;
284, -3846.2734375;
285, -3541.1171875;
286, -3474.3161621094;
287, -3502.0205078125;
288, -3678.7277832031;
289, -3891.927734375;
290, -3994.5434570312;
291, -4061.1931152344;
292, -3934.3493652344;
293, -3765.7817382812;
294, -3914.7724609375;
295, -3963.7893066406;
296, -3888.9821777344;
297, -3871.1066894531;
298, -3898.7526855469;
299, -3842.0791015625;
300, -3778.4948730469;
301, -3784.6418457031;
302, -3608.1442871094;
303, -3555.9599609375;
304, -3510.2431640625;
305, -3887.0852050781;
306, -3889.6079101562;
307, -3739.2326660156;
308, -3909.6364746094;
309, -4014.4240722656;
310, -3844.4477539062;
311, -3824.5639648438;
312, -4363.6127929688;
313, -4381.8447265625;
314, -3866.5405273438;
315, -3929.9851074219;
316, -4284.14453125;
317, -4103.4462890625;
318, -3967.7824707031;
319, -3959.3994140625;
320, -4161.50390625;
321, -4048.7416992188;
322, -4075.189453125;
323, -4047.4848632812;
324, -3878.1545410156;
325, -4138.9516601562;
326, -4308.1342773438;
327, -4074.1147460938;
328, -3670.4677734375;
329, -3604.0556640625;
330, -3722.6970214844;
331, -3729.3544921875;
332, -3597.3413085938;
333, -4037.2717285156;
334, -4565.8657226562;
335, -4425.8896484375;
336, -4233.4838867188;
337, -3289.4057617188;
338, -3406.0551757812;
339, -3422.4069824219;
340, -3646.9206542969;
341, -3440.4111328125;
342, -4063.9064941406;
343, -4192.529296875;
344, -4494.1528320312;
345, -3827.4382324219;
346, -3395.8439941406;
347, -3873.6352539062;
348, -4688.8076171875;
349, -4368.0708007812;
350, -3657.7431640625;
351, -3904.88671875;
352, -4471.4536132812;
353, -4015.2102050781;
354, -3642.6760253906;
355, -3299.9013671875;
356, -3593.7243652344;
357, -3815.1916503906;
358, -3759.8251953125;
359, -4320.96484375;
360, -3825.7680664062;
361, -4084.1513671875;
362, -3284.1684570312;
363, -3319.7097167969;
364, -3639.5981445312;
365, -3743.7553710938;
366, -3686.783203125;
367, -3812.02734375;
368, -4054.6997070312;
369, -3880.2810058594;
370, -3829.9016113281;
371, -3847.4699707031;
372, -3791.0100097656;
373, -4032.912109375;
374, -3882.189453125;
375, -3778.4987792969;
376, -3700.4326171875;
377, -3744.9665527344;
378, -3812.0534667969;
379, -3817.3566894531;
380, -3924.8444824219;
381, -3980.4897460938;
382, -3889.7155761719;
383, -4007.6303710938;
384, -3928.1875;
385, -3825.4333496094;
386, -3834.9069824219;
387, -3905.6105957031;
388, -3869.7165527344;
389, -3897.9162597656;
390, -3843.6384277344;
391, -3940.3928222656;
392, -3934.9736328125;
393, -3808.1611328125;
394, -3841.9167480469;
395, -3890.8254394531;
396, -3901.8520507812;
397, -3882.8500976562;
398, -3857.083984375;
399, -3870.3962402344;
400, -4002.0314941406;
401, -3895.5561523438;
402, -3852.8435058594;
403, -3826.8020019531;
404, -3816.95703125;
405, -3805.39453125;
406, -3884.623046875;
407, -3867.4133300781;
408, -3908.56640625;
409, -3915.3022460938;
410, -3927.7385253906;
411, -3909.3388671875;
412, -3895.45703125;
413, -3899.4040527344;
414, -3961.3854980469;
415, -3912.3654785156;
416, -3922.65625;
417, -3921.9521484375;
418, -3976.8176269531;
419, -3982.6369628906;
420, -3923.4135742188;
421, -3916.66015625;
422, -3838.3547363281;
423, -4032.650390625;
424, -4120.30859375;
425, -4200.251953125;
426, -4125.6123046875;
427, -4163.759765625;
428, -4041.1889648438;
429, -3917.5007324219;
430, -3986.525390625;
431, -4083.2312011719;
432, -4031.712890625;
433, -4069.5107421875;
434, -4013.6281738281;
435, -4167.560546875;
436, -4157.5546875;
437, -4034.9665527344;
438, -4001.673828125;
439, -4128.7197265625;
440, -4082.3845214844;
441, -4176.1469726562;
442, -4036.2021484375;
443, -4179.5419921875;
444, -4339.33203125;
445, -4189.5673828125;
446, -4028.8576660156;
447, -4125.2724609375;
448, -4258.1284179688;
449, -4135.416015625;
450, -4110.7934570312;
451, -4045.3811035156;
452, -4049.6640625;
453, -4023.1970214844;
454, -4029.6169433594;
455, -4042.3566894531;
456, -4029.8232421875;
457, -4028.650390625;
458, -4118.9282226562;
459, -4111.4780273438;
460, -4017.6118164062;
461, -4052.5563964844;
462, -3982.0932617188;
463, -3955.5324707031;
464, -3986.1169433594;
465, -4080.0270996094;
466, -4067.638671875;
467, -4060.8413085938;
468, -4021.771484375;
469, -4121.9541015625;
470, -4039.2922363281;
471, -4031.7026367188;
472, -4057.7380371094;
473, -4100.7138671875;
474, -4197.8022460938;
475, -4167.8759765625;
476, -4116.6372070312;
477, -4084.7395019531;
478, -3991.7648925781;
479, -4041.6977539062;
480, -3968.5847167969;
481, -4084.8742675781;
482, -4066.4821777344;
483, -3945.8649902344;
484, -3982.27734375;
485, -3676.2353515625;
486, -3205.9411621094;
487, -3745.2155761719;
488, -4354.9418945312;
489, -4184.4951171875;
490, -4261.3491210938;
491, -4244.169921875;
492, -4078.318359375;
493, -4013.494140625;
494, -3908.2797851562;
495, -3855.71875;
496, -3749.0056152344;
497, -4223.919921875;
498, -4778.421875;
499, -4882.669921875;
