0, -3882.6943359375;
1, -3898.4138183594;
2, -3915.4506835938;
3, -3889.771484375;
4, -3871.0969238281;
5, -4006.1196289062;
6, -3888.9228515625;
7, -3804.0537109375;
8, -3822.9174804688;
9, -3844.3444824219;
10, -3780.0378417969;
11, -3728.62890625;
12, -3817.8227539062;
13, -3850.6904296875;
14, -3710.8596191406;
15, -3756.912109375;
16, -3797.9270019531;
17, -3829.7568359375;
18, -3938.2482910156;
19, -3884.8190917969;
20, -3890.1320800781;
21, -3793.2536621094;
22, -3707.0771484375;
23, -3754.9416503906;
24, -3465.6591796875;
25, -3647.7094726562;
26, -3658.5075683594;
27, -3669.0568847656;
28, -3653.58984375;
29, -3565.3137207031;
30, -3201.5769042969;
31, -3191.5971679688;
32, -3292.6455078125;
33, -3151.599609375;
34, -3162.7727050781;
35, -3371.185546875;
36, -3493.849609375;
37, -3654.8742675781;
38, -3623.4477539062;
39, -3627.953125;
40, -3621.2319335938;
41, -3655.9614257812;
42, -3672.3435058594;
43, -3657.8713378906;
44, -3642.2109375;
45, -3602.2524414062;
46, -3558.7370605469;
47, -3572.3969726562;
48, -3578.7890625;
49, -3557.0532226562;
50, -3575.0048828125;
51, -3572.7272949219;
52, -3566.3630371094;
53, -3527.2663574219;
54, -3571.9538574219;
55, -3570.03515625;
56, -3564.4523925781;
57, -3577.9987792969;
58, -3652.9177246094;
59, -3612.7006835938;
60, -3607.8967285156;
61, -3686.2438964844;
62, -3655.169921875;
63, -3551.5737304688;
64, -3515.5385742188;
65, -3556.0817871094;
66, -3551.8671875;
67, -3456.4545898438;
68, -3392.4675292969;
69, -3343.3820800781;
70, -3292.2319335938;
71, -3379.7177734375;
72, -3451.6413574219;
73, -3364.9428710938;
74, -3274.4755859375;
75, -3348.6826171875;
76, -3357.1892089844;
77, -3372.0473632812;
78, -3543.9987792969;
79, -3607.4975585938;
80, -3637.1733398438;
81, -3697.7395019531;
82, -3818.6267089844;
83, -3819.5927734375;
84, -3787.0134277344;
85, -3821.5908203125;
86, -4000.4260253906;
87, -4005.4926757812;
88, -3985.6396484375;
89, -3877.1372070312;
90, -3820.5087890625;
91, -4061.3666992188;
92, -3967.5617675781;
93, -3917.3269042969;
94, -4053.5493164062;
95, -4184.3911132812;
96, -4285.220703125;
97, -4331.6547851562;
98, -4365.7485351562;
99, -4435.8481445312;
100, -4465.8984375;
101, -4315.2705078125;
102, -4387.0361328125;
103, -4308.9384765625;
104, -4335.798828125;
105, -4466.11328125;
106, -4447.2749023438;
107, -4590.0375976562;
108, -4654.001953125;
109, -4712.3740234375;
110, -4777.3950195312;
111, -4754.5004882812;
112, -4860.2138671875;
113, -4888.4091796875;
114, -4910.400390625;
115, -4954.578125;
116, -4919.064453125;
117, -4920.8349609375;
118, -4938.3818359375;
119, -4969.1889648438;
120, -4967.7080078125;
121, -4915.2807617188;
122, -4898.2573242188;
123, -4884.0791015625;
124, -4911.0463867188;
125, -4951.8442382812;
126, -4961.5888671875;
127, -4959.62890625;
128, -4975.2749023438;
129, -4964.2397460938;
130, -4990.7924804688;
131, -5006.8139648438;
132, -5008.07421875;
133, -5015.1137695312;
134, -5021.3129882812;
135, -4990.435546875;
136, -5025.8432617188;
137, -4989.7250976562;
138, -4958.5346679688;
139, -4943.380859375;
140, -4960.1318359375;
141, -4997.3325195312;
142, -5085.3754882812;
143, -5061.873046875;
144, -5087.9228515625;
145, -5077.4252929688;
146, -5096.4028320312;
147, -5117.3793945312;
148, -5110.5546875;
149, -5162.46484375;
150, -5181.7377929688;
151, -5190.0122070312;
152, -5213.4536132812;
153, -5239.7685546875;
154, -5264.6137695312;
155, -5271.6264648438;
156, -5272.11328125;
157, -5271.92578125;
158, -5277.91796875;
159, -5271.4545898438;
160, -5290.5693359375;
161, -5281.5771484375;
162, -5297.8764648438;
163, -5298.7924804688;
164, -5288.6572265625;
165, -5283.8422851562;
166, -5290.6103515625;
167, -5296.4086914062;
168, -5297.013671875;
169, -5292.3247070312;
170, -5305.501953125;
171, -5314.30859375;
172, -5333.90234375;
173, -5296.8603515625;
174, -5325.9340820312;
175, -5310.01953125;
176, -5325.2470703125;
177, -5317.171875;
178, -5301.6337890625;
179, -5342.517578125;
180, -5380.5805664062;
181, -5372.1254882812;
182, -5398.9790039062;
183, -5408.3139648438;
184, -5364.1586914062;
185, -5373.0576171875;
186, -5388.7705078125;
187, -5386.0434570312;
188, -5365.4790039062;
189, -5352.658203125;
190, -5327.2319335938;
191, -5348.498046875;
192, -5375.2221679688;
193, -5396.7836914062;
194, -5417.9448242188;
195, -5441.458984375;
196, -5435.2475585938;
197, -5461.6044921875;
198, -5481.1245117188;
199, -5467.0966796875;
200, -5474.861328125;
201, -5474.0498046875;
202, -5482.3305664062;
203, -5467.0375976562;
204, -5461.5322265625;
205, -5462.5883789062;
206, -5445.5737304688;
207, -5433.4951171875;
208, -5460.8901367188;
209, -5440.6196289062;
210, -5457.8061523438;
211, -5467.3515625;
212, -5450.6713867188;
213, -5429.0922851562;
214, -5477.8950195312;
215, -5485.837890625;
216, -5505.5522460938;
217, -5428.2612304688;
218, -5238.998046875;
219, -4735.8813476562;
220, -5338.9873046875;
221, -5170.88671875;
222, -4823.1728515625;
223, -4157.1689453125;
224, -5326.0703125;
225, -5447.9838867188;
226, -5615.2143554688;
227, -4741.8330078125;
228, -4623.4716796875;
229, -4726.1455078125;
230, -4212.3618164062;
231, -3737.9538574219;
232, -3926.9033203125;
233, -5102.5600585938;
234, -4332.2221679688;
235, -4334.5190429688;
236, -3571.2895507812;
237, -3512.3205566406;
238, -3858.1157226562;
239, -3664.1489257812;
240, -3591.9479980469;
241, -3088.607421875;
242, -3159.6706542969;
243, -3126.5068359375;
244, -2614.9013671875;
245, -3185.1452636719;
246, -3414.6208496094;
247, -3394.587890625;
248, -2491.1472167969;
249, -3239.7233886719;
250, -3074.5180664062;
251, -4067.2900390625;
252, -3595.6940917969;
253, -2498.9262695312;
254, -2945.23828125;
255, -3208.8107910156;
256, -2695.3513183594;
257, -2980.9526367188;
258, -3251.5129394531;
259, -3288.6931152344;
260, -3644.4787597656;
261, -3617.3923339844;
262, -3438.3591308594;
263, -3398.259765625;
264, -3315.2868652344;
265, -3607.1071777344;
266, -3890.8420410156;
267, -3920.9697265625;
268, -3591.0678710938;
269, -3662.7490234375;
270, -3707.0981445312;
271, -4150.3657226562;
272, -3854.91796875;
273, -4095.4501953125;
274, -4420.9658203125;
275, -4113.890625;
276, -4087.53515625;
277, -4045.8212890625;
278, -4300.3178710938;
279, -4554.7290039062;
280, -4570.322265625;
281, -4626.2602539062;
282, -3965.1159667969;
283, -4868.9580078125;
284, -4544.556640625;
285, -4425.7001953125;
286, -4807.154296875;
287, -4426.2104492188;
288, -4199.2890625;
289, -4352.4365234375;
290, -4717.17578125;
291, -4194.80859375;
292, -4136.8798828125;
293, -4586.380859375;
294, -4438.1274414062;
295, -4587.46484375;
296, -4590.2314453125;
297, -4408.1416015625;
298, -4456.072265625;
299, -4580.0048828125;
300, -4562.9506835938;
301, -4605.5639648438;
302, -4803.6616210938;
303, -4673.8916015625;
304, -4466.8432617188;
305, -4668.1293945312;
306, -4770.59375;
307, -4812.3120117188;
308, -4685.791015625;
309, -4614.7705078125;
310, -4742.75;
311, -4442.1245117188;
312, -4678.5395507812;
313, -4687.0815429688;
314, -4813.5341796875;
315, -4925.7734375;
316, -4629.7802734375;
317, -4750.2216796875;
318, -4685.44140625;
319, -4575.5556640625;
320, -4675.5180664062;
321, -4563.3842773438;
322, -4671.9604492188;
323, -4635.3745117188;
324, -4709.921875;
325, -4653.4116210938;
326, -4612.3271484375;
327, -4645.6513671875;
328, -4573.6123046875;
329, -4538.9174804688;
330, -4427.51953125;
331, -4398.9033203125;
332, -4314.4614257812;
333, -4590.9560546875;
334, -3920.3210449219;
335, -2914.3259277344;
336, -3618.2346191406;
337, -2991.2250976562;
338, -4793.1459960938;
339, -4967.84765625;
340, -4737.6767578125;
341, -4732.2758789062;
342, -4654.4658203125;
343, -4758.3046875;
344, -4936.150390625;
345, -4816.7241210938;
346, -4872.484375;
347, -4787.7099609375;
348, -4742.685546875;
349, -4849.3681640625;
350, -4953.8159179688;
351, -4908.7075195312;
352, -5171.0747070312;
353, -5135.9936523438;
354, -5157.3037109375;
355, -5047.8056640625;
356, -5139.7309570312;
357, -5190.4711914062;
358, -5204.6596679688;
359, -5169.9580078125;
360, -5197.9853515625;
361, -5104.7021484375;
362, -5280.0498046875;
363, -5103.3627929688;
364, -4932.6181640625;
365, -5120.9951171875;
366, -5308.2416992188;
367, -5201.3012695312;
368, -5242.060546875;
369, -5147.7495117188;
370, -5126.2631835938;
371, -5083.861328125;
372, -5081.2890625;
373, -5065.5405273438;
374, -5132.5874023438;
375, -5034.7963867188;
376, -5187.2275390625;
377, -5039.0932617188;
378, -4987.798828125;
379, -5018.4213867188;
380, -5076.5678710938;
381, -5083.0078125;
382, -5056.291015625;
383, -5106.1630859375;
384, -5104.0463867188;
385, -5159.8515625;
386, -5082.8911132812;
387, -5006.6372070312;
388, -5045.203125;
389, -5019.328125;
390, -5033.6142578125;
391, -5003.9780273438;
392, -4887.380859375;
393, -4894.9692382812;
394, -4916.5263671875;
395, -4855.5473632812;
396, -4800.6625976562;
397, -4825.8139648438;
398, -4796.1499023438;
399, -4820.2607421875;
400, -4859.001953125;
401, -4801.5073242188;
402, -3860.7573242188;
403, -4601.9477539062;
404, -4741.1440429688;
405, -3988.2077636719;
406, -3555.3937988281;
407, -4493.8334960938;
408, -4542.8950195312;
409, -4587.4809570312;
410, -4531.6225585938;
411, -4387.4838867188;
412, -4395.85546875;
413, -4000.6203613281;
414, -2555.166015625;
415, -909.70874023438;
416, -2770.8781738281;
417, -3458.0078125;
418, -3080.76171875;
419, -3901.9279785156;
420, -3611.1896972656;
421, -3960.9035644531;
422, -4297.6640625;
423, -4108.2392578125;
424, -3321.1674804688;
425, -3326.748046875;
426, -3500.9301757812;
427, -3813.638671875;
428, -3526.4157714844;
429, -4656.451171875;
430, -4464.2568359375;
431, -4264.1323242188;
432, -4566.1357421875;
433, -4683.5219726562;
434, -4671.7670898438;
435, -4667.443359375;
436, -4714.36328125;
437, -4569.8393554688;
438, -4968.8159179688;
439, -4552.2275390625;
440, -4381.4809570312;
441, -4278.8862304688;
442, -4365.3583984375;
443, -4705.7197265625;
444, -4878.4482421875;
445, -4224.0576171875;
446, -4673.580078125;
447, -4666.3857421875;
448, -4544.4497070312;
449, -4416.4389648438;
450, -4529.6650390625;
451, -4437.1918945312;
452, -4458.6337890625;
453, -4619.96484375;
454, -4536.0908203125;
455, -4464.6245117188;
456, -4469.626953125;
457, -4354.5766601562;
458, -4526.1376953125;
459, -4561.5229492188;
460, -4534.2729492188;
461, -4211.3046875;
462, -4167.2348632812;
463, -4298.4438476562;
464, -4289.1665039062;
465, -4564.5463867188;
466, -4130.13671875;
467, -4377.4340820312;
468, -4606.7578125;
469, -4465.0869140625;
470, -4446.615234375;
471, -4594.1591796875;
472, -4514.3344726562;
473, -4537.3295898438;
474, -4664.6274414062;
475, -4610.7260742188;
476, -4599.443359375;
477, -4454.88671875;
478, -4625.0400390625;
479, -4384.5659179688;
480, -4740.650390625;
481, -4623.3125;
482, -4699.1791992188;
483, -4721.25390625;
484, -5176.8447265625;
485, -4695.76953125;
486, -4648.9814453125;
487, -5006.6459960938;
488, -4948.6259765625;
489, -5121.58984375;
490, -4735.5458984375;
491, -4549.1215820312;
492, -5126.6650390625;
493, -4922.330078125;
494, -4742.2104492188;
495, -4774.0639648438;
496, -5011.0581054688;
497, -4275.685546875;
498, -4267.5625;
499, -4623.349609375;
