0, -3557.3029785156;
1, -3601.1821289062;
2, -3678.9912109375;
3, -3601.5017089844;
4, -3560.9565429688;
5, -3479.169921875;
6, -3523.3176269531;
7, -3612.9216308594;
8, -3683.7690429688;
9, -3541.2685546875;
10, -2874.5842285156;
11, -3734.6330566406;
12, -3753.0844726562;
13, -3785.7390136719;
14, -3785.1137695312;
15, -3694.8686523438;
16, -3994.7526855469;
17, -4041.9016113281;
18, -4313.8979492188;
19, -4020.6486816406;
20, -3426.5649414062;
21, -2929.5517578125;
22, -3007.3959960938;
23, -3315.5729980469;
24, -3386.9802246094;
25, -3868.2109375;
26, -4413.0903320312;
27, -4294.9028320312;
28, -4224.0161132812;
29, -4108.0083007812;
30, -3877.8435058594;
31, -3723.4926757812;
32, -3805.4487304688;
33, -3885.4636230469;
34, -3818.755859375;
35, -3807.162109375;
36, -3749.5402832031;
37, -4093.9011230469;
38, -4376.3041992188;
39, -4744.5966796875;
40, -4744.9340820312;
41, -4794.0146484375;
42, -4664.2861328125;
43, -4338.841796875;
44, -4831.4443359375;
45, -4824.00390625;
46, -4813.25;
47, -4797.2241210938;
48, -4823.6953125;
49, -4864.2172851562;
50, -4848.1918945312;
51, -4830.9409179688;
52, -4876.8671875;
53, -4870.2934570312;
54, -4842.8696289062;
55, -4846.548828125;
56, -4836.2387695312;
57, -4774.1689453125;
58, -4825.2504882812;
59, -4801.7802734375;
60, -4827.3383789062;
61, -4803.2548828125;
62, -4888.1186523438;
63, -4901.7138671875;
64, -4815.1352539062;
65, -4655.9111328125;
66, -4327.7416992188;
67, -4790.3720703125;
68, -4678.638671875;
69, -4540.6328125;
70, -4731.5493164062;
71, -4670.4365234375;
72, -4726.0727539062;
73, -4690.62109375;
74, -4616.93359375;
75, -4649.0903320312;
76, -4729.9750976562;
77, -4627.7348632812;
78, -4780.5961914062;
79, -4794.8935546875;
80, -4806.7036132812;
81, -4811.0756835938;
82, -4814.310546875;
83, -4812.6499023438;
84, -4806.8247070312;
85, -4840.3344726562;
86, -4822.7485351562;
87, -4816.3842773438;
88, -4818.265625;
89, -4363.9311523438;
90, -2937.2360839844;
91, -3440.4255371094;
92, -3656.9611816406;
93, -3807.2412109375;
94, -4903.2641601562;
95, -4924.6958007812;
96, -4916.7041015625;
97, -4926.701171875;
98, -4935.4580078125;
99, -4928.7978515625;
100, -4876.2353515625;
101, -3417.1555175781;
102, -2718.5732421875;
103, -576.45806884766;
104, -339.51937866211;
105, -205.5570526123;
106, -138.94862365723;
107, -20.112468719482;
108, 48.007057189941;
109, 408.24676513672;
110, 757.27197265625;
111, 465.90975952148;
112, 488.04470825195;
113, 673.61474609375;
114, 858.17468261719;
115, 909.82330322266;
116, 1331.1147460938;
117, 746.43475341797;
118, 679.0888671875;
119, 1328.166015625;
120, 1170.9270019531;
121, 1051.4246826172;
122, 825.93176269531;
123, 751.21209716797;
124, 700.70874023438;
125, 704.41680908203;
126, 672.12341308594;
127, 733.78558349609;
128, 696.91619873047;
129, 720.81927490234;
130, 741.99359130859;
131, 760.92572021484;
132, 856.78033447266;
133, 886.17626953125;
134, 1064.1604003906;
135, 1348.7214355469;
136, 1383.8737792969;
137, 891.66448974609;
138, 620.1337890625;
139, 630.02490234375;
140, 603.73693847656;
141, 533.89984130859;
142, 693.62567138672;
143, 717.61151123047;
144, 701.95568847656;
145, 677.40954589844;
146, 674.27124023438;
147, 665.51959228516;
148, 670.88098144531;
149, 736.67150878906;
150, 858.90399169922;
151, 1060.3226318359;
152, 982.65673828125;
153, 1060.1397705078;
154, 1064.2171630859;
155, 820.02294921875;
156, 456.44683837891;
157, 346.49667358398;
158, 361.41296386719;
159, 433.05685424805;
160, 346.08511352539;
161, 833.72283935547;
162, 135.03329467773;
163, 118.61260986328;
164, -126.98881530762;
165, -1888.6574707031;
166, -2368.669921875;
167, -2590.1066894531;
168, -2680.1213378906;
169, -2662.9948730469;
170, -2696.7106933594;
171, -2711.9858398438;
172, -2662.9565429688;
173, -2632.6201171875;
174, -1810.607421875;
175, -401.55111694336;
176, 220.65296936035;
177, 212.18672180176;
178, 45.954975128174;
179, 147.78828430176;
180, 479.55908203125;
181, 627.07623291016;
182, 685.89562988281;
183, 707.99755859375;
184, 1003.2238769531;
185, 1182.1118164062;
186, 1194.8258056641;
187, 1122.30859375;
188, 1053.2229003906;
189, 1028.6708984375;
190, 1067.4151611328;
191, 1127.7119140625;
192, 1252.5079345703;
193, 1434.8386230469;
194, 1184.7880859375;
195, 977.36199951172;
196, 896.47241210938;
197, 862.7890625;
198, 841.81585693359;
199, 884.48974609375;
200, 831.66125488281;
201, 794.79638671875;
202, 743.88049316406;
203, 754.22918701172;
204, 772.47973632812;
205, 719.34521484375;
206, 656.99890136719;
207, 534.01678466797;
208, 504.49026489258;
209, 456.07150268555;
210, 395.77651977539;
211, 394.5046081543;
212, 335.08456420898;
213, 319.61703491211;
214, 291.21655273438;
215, 263.35482788086;
216, 248.61883544922;
217, 231.34150695801;
218, 197.31253051758;
219, 201.91937255859;
220, 173.51197814941;
221, 173.015625;
222, 175.24006652832;
223, 204.32006835938;
224, 208.19361877441;
225, 212.72499084473;
226, 216.41076660156;
227, 267.4228515625;
228, 242.58041381836;
229, 306.30908203125;
230, 265.96148681641;
231, 256.30130004883;
232, 266.58605957031;
233, 282.43798828125;
234, 284.99456787109;
235, 290.34817504883;
236, 301.50112915039;
237, 320.75329589844;
238, 406.72079467773;
239, 326.06573486328;
240, 340.30218505859;
241, 379.27346801758;
242, 458.23931884766;
243, 460.80981445312;
244, 429.53186035156;
245, 440.74957275391;
246, 473.34887695312;
247, 474.9098815918;
248, 444.39907836914;
249, 506.05535888672;
250, 489.10012817383;
251, 474.3720703125;
252, 473.1819152832;
253, 481.37588500977;
254, 497.1907043457;
255, 579.70703125;
256, 565.13580322266;
257, 550.79461669922;
258, 554.91955566406;
259, 680.89556884766;
260, 873.99011230469;
261, 1025.6470947266;
262, 669.36218261719;
263, 981.33361816406;
264, 809.11419677734;
265, 962.47229003906;
266, 1039.0474853516;
267, 1122.9952392578;
268, 1227.6359863281;
269, 1343.7275390625;
270, 1342.7447509766;
271, 1508.2237548828;
272, 1468.9083251953;
273, 1459.6978759766;
274, 1486.4254150391;
275, 1491.6029052734;
276, 1548.900390625;
277, 1395.5235595703;
278, 1266.2709960938;
279, 1233.6610107422;
280, 1105.4802246094;
281, 1026.1687011719;
282, 942.35815429688;
283, 878.96087646484;
284, 917.67163085938;
285, 916.67993164062;
286, 874.38006591797;
287, 826.81756591797;
288, 918.56121826172;
289, 793.56439208984;
290, 746.08709716797;
291, 712.24102783203;
292, 646.20123291016;
293, 620.65472412109;
294, 697.13897705078;
295, 628.05523681641;
296, 582.97698974609;
297, 556.30285644531;
298, 560.28302001953;
299, 598.24523925781;
300, 551.71496582031;
301, 482.73281860352;
302, 479.82107543945;
303, 453.38580322266;
304, 459.97549438477;
305, 457.35668945312;
306, 482.68771362305;
307, 472.51300048828;
308, 461.13162231445;
309, 453.76858520508;
310, 459.47866821289;
311, 517.6484375;
312, 501.39608764648;
313, 472.86071777344;
314, 459.4592590332;
315, 456.45391845703;
316, 451.96655273438;
317, 435.19836425781;
318, 421.82818603516;
319, 447.40621948242;
320, 460.2131652832;
321, 469.94030761719;
322, 476.89590454102;
323, 489.28234863281;
324, 465.61172485352;
325, 478.98065185547;
326, 490.14758300781;
327, 480.55999755859;
328, 476.42819213867;
329, 465.24822998047;
330, 461.35592651367;
331, 448.82562255859;
332, 434.06973266602;
333, 399.24453735352;
334, 371.36016845703;
335, 356.03369140625;
336, 337.85327148438;
337, 317.92202758789;
338, 315.61935424805;
339, 314.89074707031;
340, 301.76330566406;
341, 299.63256835938;
342, 287.0798034668;
343, 282.32485961914;
344, 281.93951416016;
345, 302.39529418945;
346, 307.11639404297;
347, 315.69525146484;
348, 320.81546020508;
349, 322.00561523438;
350, 323.70574951172;
351, 325;
352, 321.23168945312;
353, 313.94946289062;
354, 307.17193603516;
355, 299.93081665039;
356, 293.27444458008;
357, 287.33172607422;
358, 285.42776489258;
359, 292.35366821289;
360, 299.61868286133;
361, 295.73065185547;
362, 291.95388793945;
363, 303.37170410156;
364, 304.09713745117;
365, 289.64144897461;
366, 295.45141601562;
367, 291.17910766602;
368, 288.58905029297;
369, 286.25296020508;
370, 287.54861450195;
371, 304.67864990234;
372, 315.9538269043;
373, 370.31024169922;
374, 365.25765991211;
375, 368.76809692383;
376, 374.88827514648;
377, 396.24844360352;
378, 437.59829711914;
379, 501.85916137695;
380, 506.29565429688;
381, 512.32708740234;
382, 692.82635498047;
383, 451.37142944336;
384, 476.03897094727;
385, 509.97119140625;
386, 433.02792358398;
387, 411.62506103516;
388, 431.62020874023;
389, 434.07266235352;
390, 408.74252319336;
391, 388.70355224609;
392, 386.21179199219;
393, 388.31240844727;
394, 407.00180053711;
395, 387.95706176758;
396, 385.8684387207;
397, 383.79052734375;
398, 389.61749267578;
399, 386.86990356445;
400, 388.73825073242;
401, 392.74496459961;
402, 406.04495239258;
403, 430.46401977539;
404, 420.63815307617;
405, 405.45974731445;
406, 415.32696533203;
407, 439.28717041016;
408, 452.91000366211;
409, 460.7350769043;
410, 485.51083374023;
411, 446.94329833984;
412, 515.56018066406;
413, 556.19952392578;
414, 511.42538452148;
415, 565.20056152344;
416, 535.16839599609;
417, 595.7783203125;
418, 704.01147460938;
419, 664.40887451172;
420, 664.47937011719;
421, 604.09887695312;
422, 544.25219726562;
423, 572.4521484375;
424, 531.67669677734;
425, 553.61114501953;
426, 562.91955566406;
427, 556.87060546875;
428, 529.03607177734;
429, 562.65289306641;
430, 540.91137695312;
431, 548.28485107422;
432, 642.85028076172;
433, 470.21520996094;
434, 479.40496826172;
435, 491.03353881836;
436, 474.63296508789;
437, 461.91116333008;
438, 412.67861938477;
439, 449.60382080078;
440, 443.56942749023;
441, 437.95843505859;
442, 478.8664855957;
443, 548.00671386719;
444, 542.75268554688;
445, 474.92886352539;
446, 507.40631103516;
447, 548.91955566406;
448, 518.94091796875;
449, 534.69024658203;
450, 394.00262451172;
451, 392.1257019043;
452, 498.06796264648;
453, 503.77255249023;
454, 418.12838745117;
455, 489.51748657227;
456, 471.60739135742;
457, 426.07699584961;
458, 478.48016357422;
459, 432.77716064453;
460, 405.85604858398;
461, 387.46640014648;
462, 423.91888427734;
463, 482.17684936523;
464, 431.85333251953;
465, 426.99935913086;
466, 401.69680786133;
467, 442.88528442383;
468, 483.70123291016;
469, 473.84393310547;
470, 443.90756225586;
471, 452.63995361328;
472, 463.93185424805;
473, 452.69879150391;
474, 450.2548828125;
475, 451.23419189453;
476, 459.29330444336;
477, 471.63665771484;
478, 463.16598510742;
479, 469.18551635742;
480, 475.16632080078;
481, 482.00885009766;
482, 483.61566162109;
483, 497.97616577148;
484, 463.0315246582;
485, 496.54217529297;
486, 502.62512207031;
487, 525.82049560547;
488, 550.76531982422;
489, 529.47058105469;
490, 605.45672607422;
491, 548.8759765625;
492, 601.02502441406;
493, 570.29547119141;
494, 622.67584228516;
495, 541.33190917969;
496, 538.61309814453;
497, 586.80029296875;
498, 741.78350830078;
499, 818.79541015625;
