0, -1310.4373779297;
1, -1564.0487060547;
2, -1599.9577636719;
3, -1820.3983154297;
4, -2047.2663574219;
5, -2123.7521972656;
6, -2715.4975585938;
7, -2921.07421875;
8, -2805.4936523438;
9, -3206.6799316406;
10, -3403.5563964844;
11, -3439.787109375;
12, -3446.2880859375;
13, -3320.6652832031;
14, -3360.7004394531;
15, -3350.9128417969;
16, -3053.6643066406;
17, -2652.3461914062;
18, -3077.1223144531;
19, -3021.9462890625;
20, -3478.4462890625;
21, -3675.5893554688;
22, -3810.4411621094;
23, -3803.6726074219;
24, -3804.7836914062;
25, -3815.8210449219;
26, -3814.5095214844;
27, -3762.3742675781;
28, -3688.0610351562;
29, -3327.1142578125;
30, -3075.2380371094;
31, -2560.5947265625;
32, -985.07012939453;
33, -883.02679443359;
34, -2097.2189941406;
35, -2180.9157714844;
36, -428.63403320312;
37, -334.75045776367;
38, -385.26345825195;
39, -400.2919921875;
40, -1069.4617919922;
41, -1066.1435546875;
42, -328.44430541992;
43, -286.71597290039;
44, -199.2532043457;
45, -165.98931884766;
46, -169.65382385254;
47, -208.70886230469;
48, -189.55987548828;
49, -183.41610717773;
50, -163.37628173828;
51, -131.7495880127;
52, -115.35067749023;
53, -65.447685241699;
54, -63.003192901611;
55, -70.347648620605;
56, -68.852531433105;
57, -54.719470977783;
58, -54.161670684814;
59, -49.203147888184;
60, -41.715682983398;
61, -35.588703155518;
62, -48.009498596191;
63, -50.928260803223;
64, -53.15340423584;
65, -53.470573425293;
66, -51.621925354004;
67, -50.490280151367;
68, -51.051761627197;
69, -50.463081359863;
70, -44.371910095215;
71, -26.359607696533;
72, 6.8620266914368;
73, 73.976448059082;
74, 86.056983947754;
75, 177.91770935059;
76, 320.41207885742;
77, 300.65640258789;
78, 245.72633361816;
79, 199.23530578613;
80, -6.3279061317444;
81, -39.764240264893;
82, -59.075801849365;
83, -70.642135620117;
84, -74.886207580566;
85, -85.725761413574;
86, -68.526245117188;
87, -85.9375;
88, -90.40495300293;
89, -92.752304077148;
90, -123.88787841797;
91, -112.42584228516;
92, -89.569290161133;
93, -206.39120483398;
94, -184.30215454102;
95, -143.60673522949;
96, -574.4921875;
97, -849.83856201172;
98, -2265.1989746094;
99, -2783.2858886719;
100, -3139.8620605469;
101, -3404.5280761719;
102, -3705.0895996094;
103, -3740.1477050781;
104, -3736.4975585938;
105, -3796.3447265625;
106, -3778.7631835938;
107, -3803.6247558594;
108, -3822.4565429688;
109, -3817.0895996094;
110, -3829.2260742188;
111, -3832.4523925781;
112, -3839.705078125;
113, -3856.2045898438;
114, -3835.8195800781;
115, -2453.0185546875;
116, -1543.0697021484;
117, -2125.1618652344;
118, -3593.447265625;
119, -3912.9763183594;
120, -3916.8540039062;
121, -3947.0620117188;
122, -3956.119140625;
123, -3901.5847167969;
124, -3884.0183105469;
125, -1478.7020263672;
126, -377.98233032227;
127, -1654.0184326172;
128, -4590.5317382812;
129, -5309.8432617188;
130, -7205.736328125;
131, -5793.48046875;
132, -4889.3608398438;
133, -4675.2006835938;
134, -5090.0610351562;
135, -5336.6821289062;
136, -5015.09375;
137, -5121.6044921875;
138, -5284.72265625;
139, -4994.2719726562;
140, -5260.6274414062;
141, -5440.4077148438;
142, -5545.5971679688;
143, -5496.0737304688;
144, -5429.6357421875;
145, -5558.0859375;
146, -5578.0366210938;
147, -5735.0600585938;
148, -5602.7998046875;
149, -5687.9423828125;
150, -5662.6430664062;
151, -5656.1518554688;
152, -5409.1889648438;
153, -6062.5439453125;
154, -6373.6928710938;
155, -6066.1450195312;
156, -5736.0068359375;
157, -5458.6108398438;
158, -5653.2700195312;
159, -5822.6499023438;
160, -5626.048828125;
161, -5544.8046875;
162, -5506.1752929688;
163, -5422.943359375;
164, -5388.2661132812;
165, -5053.3315429688;
166, -4523.8364257812;
167, -3839.125;
168, -4530.2431640625;
169, -4703.9233398438;
170, -5457.7543945312;
171, -5601.0043945312;
172, -5508.626953125;
173, -5524.5390625;
174, -5427.7421875;
175, -5403.7436523438;
176, -5355.1625976562;
177, -5314.6977539062;
178, -5149.0263671875;
179, -5247.8173828125;
180, -5124.7407226562;
181, -5054.5249023438;
182, -4970.6513671875;
183, -4237.5620117188;
184, -3859.9235839844;
185, -3659.7219238281;
186, -2494.2192382812;
187, -4431.0346679688;
188, -4927.6264648438;
189, -5180.24609375;
190, -5183.2163085938;
191, -5069.0825195312;
192, -4692.1870117188;
193, -3513.4167480469;
194, -632.67956542969;
195, -5263.2758789062;
196, -5495.0913085938;
197, -5100.2319335938;
198, -5564.6440429688;
199, -4935.638671875;
200, -5533.3642578125;
201, -5576.0126953125;
202, -5324.3647460938;
203, -5630.7924804688;
204, -5635.9033203125;
205, -5626.1997070312;
206, -5945.6352539062;
207, -5893.9282226562;
208, -6031.0063476562;
209, -6093.3232421875;
210, -6084.0556640625;
211, -6100.4228515625;
212, -6085.794921875;
213, -6035.1611328125;
214, -5898.1806640625;
215, -6060.8618164062;
216, -5984.5395507812;
217, -5822.67578125;
218, -5807.6508789062;
219, -5818.5693359375;
220, -5814.0659179688;
221, -5850.7065429688;
222, -5767.4560546875;
223, -5742.4487304688;
224, -5676.55078125;
225, -5694.5473632812;
226, -5655.990234375;
227, -5450.0268554688;
228, -5267.78515625;
229, -5540.001953125;
230, -5506.7807617188;
231, -5543.5776367188;
232, -5556.5732421875;
233, -5149.6484375;
234, -5022.1025390625;
235, -5389.4028320312;
236, -5161.7338867188;
237, -3139.8662109375;
238, -1534.8565673828;
239, -1860.7036132812;
240, -1351.9700927734;
241, -2252.515625;
242, -3132.0737304688;
243, -3879.1872558594;
244, -4261.5415039062;
245, -5252.1142578125;
246, -5111.3022460938;
247, -5564.4399414062;
248, -4779.35546875;
249, -5374.4921875;
250, -5701.3774414062;
251, -5427.9799804688;
252, -5669.2978515625;
253, -5697.4760742188;
254, -5733.9956054688;
255, -5667.3779296875;
256, -5486.9155273438;
257, -5466.8818359375;
258, -5287.8569335938;
259, -5401.5815429688;
260, -5277.6508789062;
261, -5217.0014648438;
262, -4826.783203125;
263, -5007.6752929688;
264, -5094.1713867188;
265, -4731.6479492188;
266, -4395.3657226562;
267, -3975.6984863281;
268, -4366.9350585938;
269, -4315.9873046875;
270, -3875.6403808594;
271, -3581.7841796875;
272, -3779.0817871094;
273, -4533.0756835938;
274, -4645.5454101562;
275, -4256.3540039062;
276, -4067.3232421875;
277, -4174.443359375;
278, -4435.4194335938;
279, -4438.7568359375;
280, -4521.453125;
281, -4511.5981445312;
282, -4409.5200195312;
283, -4362.8603515625;
284, -4284.451171875;
285, -4321.9594726562;
286, -4382.052734375;
287, -4314.6064453125;
288, -4361.703125;
289, -4451.603515625;
290, -4349.2456054688;
291, -4355.2602539062;
292, -4345.0102539062;
293, -4225.3818359375;
294, -4332.037109375;
295, -4406.2709960938;
296, -4484.9096679688;
297, -4506.1616210938;
298, -4482.1650390625;
299, -4500.9306640625;
300, -4404.857421875;
301, -4366.7446289062;
302, -4442.498046875;
303, -4476.8227539062;
304, -4232.2490234375;
305, -3864.2668457031;
306, -4270.3662109375;
307, -4212.3852539062;
308, -4120.2978515625;
309, -3962.0827636719;
310, -3765.3708496094;
311, -3521.5363769531;
312, -3479.9331054688;
313, -3411.3874511719;
314, -3431.9133300781;
315, -3385.2634277344;
316, -3275.0139160156;
317, -3144.28125;
318, -3214.6645507812;
319, -3204.7824707031;
320, -3110.5720214844;
321, -2887.6164550781;
322, -2802.2707519531;
323, -3203.7045898438;
324, -3853.0798339844;
325, -4259.4633789062;
326, -4132.548828125;
327, -4553.3461914062;
328, -4224.7133789062;
329, -4225.6245117188;
330, -3948.2431640625;
331, -3376.7048339844;
332, -4745.9399414062;
333, -3920.4125976562;
334, -3711.291015625;
335, -3923.2482910156;
336, -3800.27734375;
337, -3674.9697265625;
338, -3606.1643066406;
339, -3426.0378417969;
340, -2613.3466796875;
341, -3292.076171875;
342, -3048.9106445312;
343, -2365.1857910156;
344, -2705.7551269531;
345, -2938.1999511719;
346, -2514.8435058594;
347, -1795.7081298828;
348, -1770.4954833984;
349, -1937.3522949219;
350, -1970.5397949219;
351, -1369.849609375;
352, -1146.1079101562;
353, -2467.5502929688;
354, -24.552352905273;
355, -2435.2788085938;
356, -1896.5615234375;
357, -411.77389526367;
358, -380.04293823242;
359, -2362.904296875;
360, -3961.5771484375;
361, -3793.69921875;
362, -3963.33203125;
363, -3979.6384277344;
364, -5289.0830078125;
365, -5960.8583984375;
366, -5400.0029296875;
367, -4960.7094726562;
368, -4654.294921875;
369, -4213.5454101562;
370, -3661.7126464844;
371, -3695.3566894531;
372, -970.91674804688;
373, 34.144512176514;
374, -2016.0687255859;
375, -2212.5087890625;
376, -1891.8548583984;
377, -286.32992553711;
378, -28.940967559814;
379, -78.05445098877;
380, -579.92126464844;
381, -1005.3720092773;
382, -1447.3510742188;
383, -2368.4956054688;
384, -1595.0667724609;
385, -2741.400390625;
386, -2826.3422851562;
387, -2800.0864257812;
388, -2349.4250488281;
389, -2817.1120605469;
390, -3235.7136230469;
391, -3470.0021972656;
392, -3474.3935546875;
393, -3578.470703125;
394, -3275.2238769531;
395, -3630.0727539062;
396, -3407.8552246094;
397, -3374.2331542969;
398, -3351.9270019531;
399, -2758.8947753906;
400, -3295.4475097656;
401, -3270.7702636719;
402, -3121.3347167969;
403, -2889.2202148438;
404, -2873.3781738281;
405, -2852.3054199219;
406, -2553.6550292969;
407, -2689.0119628906;
408, -2777.380859375;
409, -2864.2133789062;
410, -2854.2756347656;
411, -3061.5314941406;
412, -3053.0275878906;
413, -3035.1760253906;
414, -3085.9282226562;
415, -3045.3293457031;
416, -3117.6469726562;
417, -3046.453125;
418, -2930.9370117188;
419, -2103.15625;
420, -1456.1137695312;
421, -1155.6314697266;
422, -980.71673583984;
423, -976.14801025391;
424, -1002.5292358398;
425, -1049.1883544922;
426, -1181.9913330078;
427, -1426.4038085938;
428, -1454.9197998047;
429, -1297.8348388672;
430, -1411.4899902344;
431, -1491.2912597656;
432, -1716.92578125;
433, -1877.2359619141;
434, -2180.4858398438;
435, -2121.875;
436, -2035.2663574219;
437, -2747.1254882812;
438, -3239.7729492188;
439, -3475.5700683594;
440, -4415.8208007812;
441, -4646.8911132812;
442, -4633.9887695312;
443, -4649.3208007812;
444, -4198.33203125;
445, -3934.1096191406;
446, -3151.8615722656;
447, -2690.279296875;
448, -3679.7360839844;
449, -4742.263671875;
450, -4670.0024414062;
451, -4699.8413085938;
452, -4838.859375;
453, -4772.2783203125;
454, -4825.87890625;
455, -4690.7763671875;
456, -4508.6186523438;
457, -4461.4633789062;
458, -4331.248046875;
459, -4375.9438476562;
460, -4319.4165039062;
461, -4458.7133789062;
462, -4337.3774414062;
463, -4200.7280273438;
464, -4136.2670898438;
465, -4425.177734375;
466, -3659.4001464844;
467, -4240.837890625;
468, -4169.9765625;
469, -4391.6967773438;
470, -4156.404296875;
471, -4274.787109375;
472, -3308.2355957031;
473, -2412.5512695312;
474, -2819.3188476562;
475, -3681.3293457031;
476, -4653.3349609375;
477, -4478.0834960938;
478, -3812.8488769531;
479, -4204.5356445312;
480, -3525.5390625;
481, -3447.18359375;
482, -3650.8933105469;
483, -2534.1435546875;
484, -3707.2255859375;
485, -3906.3974609375;
486, -4601.630859375;
487, -4267.0825195312;
488, -4629.4462890625;
489, -4617.81640625;
490, -4702.7895507812;
491, -4639.3706054688;
492, -4424.1254882812;
493, -3934.6279296875;
494, -3841.6389160156;
495, -4166.1328125;
496, -3651.3486328125;
497, -3817.2849121094;
498, -3001.396484375;
499, -3871.3610839844;
