{
	"pattrstorage" : 	{
		"name" : "u801002984",
		"slots" : 		{
			"1" : 			{
				"id" : 1,
				"data" : 				{
					"Filter" : [ 1, 0, 1, 1, 0, 0, 3033.799316, 1.052274, 0.8 ],
					"Stutter Rate" : [ 1.0 ],
					"Stutter Speed" : [ 0.419621 ],
					"live.text[103]" : [ 1.0 ],
					"main_mixer::Mixer / Send UI" : [ -22.650793, -23.555555, -24.460318, -25.36508, -26.269842, -27.174603, -28.079365, -28.984127, -36.413273, -37.903469, -39.393665 ],
					"main_mixer::panning" : [ 0.5, 0.5, 0.5, 0.5, 0.5, 0.5, 0.5, 0.5, 0.5, 0.5, 0.5 ],
					"stutter_mixer::Mixer / Send UI" : [ -70.0, -27.701357, -2.941176, -70.0, -70.0, -70.0, -70.0, -30.108597, -70.0, -70.0, -70.0 ],
					"reverb_mixer::Mixer / Send UI" : [ -16.00905, 4.624434, -70.0, -70.0, -70.0, -70.0, -70.0, -70.0, -70.0, -70.0, -70.0 ],
					"filter_mixer::Mixer / Send UI" : [ -70.0, -70.0, -70.0, -70.0, -70.0, -70.0, -70.0, -70.0, -70.0, -70.0, -70.0 ],
					"stutter::Buffer Size" : [ 7.0 ],
					"stutter::Rate Multislider" : [ 0.1, 0.1, 0.248052, 0.248052, 0.248052, 0.248052, 0.248052, 0.248052, 0.248052, 0.272727, 0.322078, 0.371429, 0.371429, 0.371429, 0.371429, 0.1 ],
					"stutter::Rate quantize" : [ 1.0 ],
					"stutter::Repeat Rate Adjust" : [ 0.371429 ],
					"stutter::Repeat Rate Toggle" : [ 1.0 ],
					"stutter::Sample Playback Pitch" : [ 0.419621 ],
					"stutter::Speed Multislider" : [ 0.719048, 0.842857, 1.028571, 0.842857, 1.307143, 3.752381, 3.752381, 3.009524, 3.009524, 2.978571, 2.947619, 2.82381, 2.7, 2.483333, 2.266667, 1.957143 ],
					"stutter::Speed quantize" : [ 1.0 ],
					"stutter::live.text" : [ 1.0 ],
					"stutter::live.text[1]" : [ 1.0 ],
					"stutter::_subdivide::Gen New Bars Button" : [ 0.0 ],
					"stutter::_subdivide::Jam Bars" : [ 1.0 ],
					"stutter::_subdivide::Jam Bars Button" : [ 0.0 ],
					"stutter::_subdivide::Jam Bars On/Off" : [ 0.0 ],
					"stutter::_subdivide::Loop Controller" : [ 0.0, 16.0 ],
					"stutter::_subdivide::Loop Jam Bars" : [ 1.0 ],
					"stutter::_subdivide::Loop Jam Bars Button" : [ 0.0 ],
					"stutter::_subdivide::Loop Jam On/Off" : [ 0.0 ],
					"stutter::_subdivide::Loop On/Off" : [ 1.0 ],
					"stutter::_subdivide::Number of Bars" : [ 1.0 ],
					"stutter::_subdivide::Range Control" : [ 0.0, 127.0 ],
					"stutter::_subdivide::Smooth Output" : [ 1.0 ],
					"stutter::_subdivide::Values" : [ 6.0, 0.0, 0.0, 30.0, 13.0, 93.0, 115.0, 22.0, 71.0, 46.0, 54.0, 106.0 ],
					"speed::Auto Mode" : [ 0.0 ],
					"speed::Range Slider" : [ 0.0, 1.387755 ],
					"speed::Rate Limit Mode" : [ 0.0 ],
					"speed::Rate Speed" : [ 0 ],
					"stutter rate::Auto Mode" : [ 0.0 ],
					"stutter rate::Range Slider" : [ 0.0, 2.0 ],
					"stutter rate::Rate Limit Mode" : [ 0.0 ],
					"stutter rate::Rate Speed" : [ 0 ],
					"dihedral_mixer::Mixer / Send UI" : [ -50.054298, 6.0, -70.0, -70.0, -70.0, -70.0, -70.0, -70.0, -70.0, -70.0, -70.0 ],
					"Filter Freq::Auto Mode" : [ 0.0 ],
					"Filter Freq::Range Slider" : [ 0.0, 2.0 ],
					"Filter Freq::Rate Limit Mode" : [ 0.0 ],
					"Filter Freq::Rate Speed" : [ 0 ],
					"Filter Q::Auto Mode" : [ 0.0 ],
					"Filter Q::Range Slider" : [ 0.0, 2.0 ],
					"Filter Q::Rate Limit Mode" : [ 0.0 ],
					"Filter Q::Rate Speed" : [ 0 ],
					"Filter Gain::Auto Mode" : [ 0.0 ],
					"Filter Gain::Range Slider" : [ 0.0, 2.0 ],
					"Filter Gain::Rate Limit Mode" : [ 0.0 ],
					"Filter Gain::Rate Speed" : [ 0 ],
					"stepper_mixer::Mixer / Send UI" : [ -70.0, -70.0, -70.0, -70.0, -70.0, -70.0, -70.0, -70.0, -70.0, -70.0, -70.0 ],
					"_dihedral2::16th Note Playback Speed[1]" : [ 1.0 ],
					"_dihedral2::2nd Note Playback Speed" : [ 0.5 ],
					"_dihedral2::32nd Note Playback Speed[1]" : [ 1.0 ],
					"_dihedral2::4th Note Playback Speed[1]" : [ 0.333 ],
					"_dihedral2::8th Note Playback Speed[1]" : [ 0.75 ],
					"_dihedral2::Complete speed control" : [ 1.0 ],
					"_dihedral2::DH1" : [ 0 ],
					"_dihedral2::DH16" : [ 0, 0, 1, 1, 2, 1, 2, 2, 1, 0, 2, 1, 2, 2, 0, 2 ],
					"_dihedral2::DH2" : [ 1, 2 ],
					"_dihedral2::DH32" : [ 1, 2, 1, 0, 0, 0, 1, 1, 0, 1, 1, 0, 1, 2, 2, 0, 1, 0, 1, 1, 0, 0, 2, 2, 0, 0, 1, 2, 1, 1, 1, 2 ],
					"_dihedral2::DH4" : [ 0, 2, 0, 1 ],
					"_dihedral2::DH8" : [ 0, 1, 1, 2, 2, 1, 1, 0 ],
					"_dihedral2::DHLoop" : [ 1, 1, 1, 1, 1, 1 ],
					"_dihedral2::DHNotes16" : [ 2.0, 6.0, 7.0, 4.0, 15.0, 3.0, 2.0, 2.0, 9.0, 4.0, 13.0, 15.0, 6.0, 3.0, 12.0, 8.0 ],
					"_dihedral2::DHNotes32" : [ 8.0, 23.0, 23.0, 26.0, 29.0, 28.0, 8.0, 3.0, 18.0, 30.0, 18.0, 8.0, 20.0, 28.0, 31.0, 15.0, 8.0, 1.0, 21.0, 29.0, 21.0, 12.0, 11.0, 14.0, 16.0, 25.0, 11.0, 17.0, 2.0, 19.0, 16.0, 2.0 ],
					"_dihedral2::DHNotes4" : [ 3.0, 1.0, 2.0, 3.0 ],
					"_dihedral2::DHNotes8" : [ 7.0, 2.0, 6.0, 1.0, 6.0, 1.0, 1.0, 7.0 ],
					"_dihedral2::Full Note Playback Speed[1]" : [ 1.0 ],
					"_dihedral2::Manual Sample Duration[1]" : [ 2891.566265 ],
					"_dihedral2::Quantized Sample Duration[1]" : [ 3.0 ],
					"_dihedral2::live.gain~" : [ 0.0 ],
					"_dihedral2::live.gain~[1]" : [ 0.0 ],
					"_dihedral2::live.gain~[2]" : [ -70.0 ],
					"_dihedral2::live.gain~[3]" : [ -70.0 ],
					"_dihedral2::live.gain~[4]" : [ -70.0 ],
					"_dihedral2::live.gain~[5]" : [ -70.0 ],
					"_dihedral2::live.gain~[6]" : [ -70.0 ],
					"_dihedral2::live.gain~[7]" : [ -7.818182 ],
					"_dihedral2::live.gain~[8]" : [ -70.0 ],
					"_dihedral2::live.text" : [ 0.0 ],
					"_dihedral2::live.toggle" : [ 1.0 ],
					"_dihedral2::multislider" : [ -70.0, -70.0, -70.0, -70.0, -7.818182, -70.0 ],
					"_dihedral2::toggle" : [ 0 ],
					"_stepper::Manual Sample Duration[2]" : [ 3000.0 ],
					"_stepper::Master" : [ 0.0 ],
					"_stepper::MetroSpeed" : [ 3, 3, 3, 3, 3, 3, 3, 3, 3, 3, 3, 3, 3, 3, 3, 3 ],
					"_stepper::NoteAmp" : [ 93.75, 0.0, 1.0, 0.0, 0.0, 0, 14.024445, 0.939462, 0, 88.302511, 0.947199, 0, 90.716902, 0.0, 0, "linear" ],
					"_stepper::NoteLocation" : [ 0.740157, 0.477273, 0.477273, 0.477273, 0.477273, 0.477273, 0.477273, 0.477273, 0.477273, 0.363636, 0.128788, 0.515152, 0.666667, 0.681818, 0.19685, 0.897638 ],
					"_stepper::Quantized Sample Duration[2]" : [ 3.0 ],
					"_stepper::live.menu" : [ 3.0 ],
					"_stepper::number" : [ 1 ],
					"_stepper::number[1]" : [ 1 ],
					"_stepper::playback speed" : [ 1.0 ],
					"_stepper::rslider" : [ 0.0, 15.0 ],
					"Metro Speed::Auto Mode" : [ 0.0 ],
					"Metro Speed::Range Slider" : [ 0.0, 2.0 ],
					"Metro Speed::Rate Limit Mode" : [ 0.0 ],
					"Metro Speed::Rate Speed" : [ 0 ],
					"Playback Speed::Auto Mode" : [ 0.0 ],
					"Playback Speed::Range Slider" : [ 0.0, 2.0 ],
					"Playback Speed::Rate Limit Mode" : [ 0.0 ],
					"Playback Speed::Rate Speed" : [ 0 ],
					"Dihedral Speed::Auto Mode" : [ 0.0 ],
					"Dihedral Speed::Range Slider" : [ 0.0, 2.0 ],
					"Dihedral Speed::Rate Limit Mode" : [ 0.0 ],
					"Dihedral Speed::Rate Speed" : [ 0 ],
					"midiverb_mixer::Mixer / Send UI" : [ -70.0, -1.565611, -24.460318, -25.36508, 4.624434, -27.174603, -2.597285, -28.984127, -36.413273, -37.903469, -39.393665 ],
					"midiverb_mixer::panning" : [ 0.5, 0.5, 0.5, 0.5, 0.5, 0.5, 0.5, 0.5, 0.5, 0.5, 0.5 ]
				}

			}
,
			"2" : 			{
				"id" : 2,
				"data" : 				{
					"Filter" : [ 1, 0, 1, 1, 0, 0, 1318.455688, 1.283128, 0.8 ],
					"Stutter Rate" : [ 1.0 ],
					"Stutter Speed" : [ 1.122786 ],
					"live.text[103]" : [ 1.0 ],
					"main_mixer::Mixer / Send UI" : [ -6.723982, -46.959274, -24.460318, -25.36508, -26.269842, 3.248869, -70.0, -28.984127, -36.413273, -37.903469, -39.393665 ],
					"main_mixer::panning" : [ 0.5, 0.5, 0.5, 0.5, 0.5, 0.5, 0.5, 0.5, 0.5, 0.5, 0.5 ],
					"stutter_mixer::Mixer / Send UI" : [ -70.0, -27.701357, -2.941176, -70.0, -70.0, -70.0, -70.0, -30.108597, -70.0, -70.0, -70.0 ],
					"reverb_mixer::Mixer / Send UI" : [ -16.00905, 4.624434, -70.0, -70.0, -70.0, -70.0, -70.0, -70.0, -70.0, -70.0, -70.0 ],
					"filter_mixer::Mixer / Send UI" : [ -70.0, -70.0, -70.0, -70.0, -70.0, -70.0, -13.257918, -70.0, -70.0, -70.0, -70.0 ],
					"stutter::Buffer Size" : [ 7.0 ],
					"stutter::Rate Multislider" : [ 0.1, 0.1, 0.248052, 0.248052, 0.248052, 0.248052, 0.248052, 0.248052, 0.248052, 0.272727, 0.322078, 0.371429, 0.371429, 0.371429, 0.371429, 0.1 ],
					"stutter::Rate quantize" : [ 1.0 ],
					"stutter::Repeat Rate Adjust" : [ 0.1 ],
					"stutter::Repeat Rate Toggle" : [ 1.0 ],
					"stutter::Sample Playback Pitch" : [ 1.122786 ],
					"stutter::Speed Multislider" : [ 0.719048, 0.842857, 1.028571, 0.842857, 1.307143, 3.752381, 3.752381, 3.009524, 3.009524, 2.978571, 2.947619, 2.82381, 2.7, 2.483333, 2.266667, 1.957143 ],
					"stutter::Speed quantize" : [ 1.0 ],
					"stutter::live.text" : [ 1.0 ],
					"stutter::live.text[1]" : [ 1.0 ],
					"stutter::_subdivide::Gen New Bars Button" : [ 0.0 ],
					"stutter::_subdivide::Jam Bars" : [ 1.0 ],
					"stutter::_subdivide::Jam Bars Button" : [ 0.0 ],
					"stutter::_subdivide::Jam Bars On/Off" : [ 0.0 ],
					"stutter::_subdivide::Loop Controller" : [ 0.0, 16.0 ],
					"stutter::_subdivide::Loop Jam Bars" : [ 1.0 ],
					"stutter::_subdivide::Loop Jam Bars Button" : [ 0.0 ],
					"stutter::_subdivide::Loop Jam On/Off" : [ 0.0 ],
					"stutter::_subdivide::Loop On/Off" : [ 1.0 ],
					"stutter::_subdivide::Number of Bars" : [ 1.0 ],
					"stutter::_subdivide::Range Control" : [ 0.0, 127.0 ],
					"stutter::_subdivide::Smooth Output" : [ 1.0 ],
					"stutter::_subdivide::Values" : [ 6.0, 0.0, 0.0, 30.0, 13.0, 93.0, 115.0, 22.0, 71.0, 46.0, 54.0, 106.0 ],
					"speed::Auto Mode" : [ 0.0 ],
					"speed::Range Slider" : [ 0.0, 1.387755 ],
					"speed::Rate Limit Mode" : [ 0.0 ],
					"speed::Rate Speed" : [ 0 ],
					"stutter rate::Auto Mode" : [ 0.0 ],
					"stutter rate::Range Slider" : [ 0.0, 2.0 ],
					"stutter rate::Rate Limit Mode" : [ 0.0 ],
					"stutter rate::Rate Speed" : [ 0 ],
					"dihedral_mixer::Mixer / Send UI" : [ -50.054298, 6.0, -70.0, -70.0, -70.0, -70.0, -70.0, -70.0, -70.0, -70.0, -70.0 ],
					"Filter Freq::Auto Mode" : [ 0.0 ],
					"Filter Freq::Range Slider" : [ 0.0, 0.44898 ],
					"Filter Freq::Rate Limit Mode" : [ 0.0 ],
					"Filter Freq::Rate Speed" : [ 0 ],
					"Filter Q::Auto Mode" : [ 0.0 ],
					"Filter Q::Range Slider" : [ 0.0, 2.0 ],
					"Filter Q::Rate Limit Mode" : [ 0.0 ],
					"Filter Q::Rate Speed" : [ 0 ],
					"Filter Gain::Auto Mode" : [ 0.0 ],
					"Filter Gain::Range Slider" : [ 0.0, 2.0 ],
					"Filter Gain::Rate Limit Mode" : [ 0.0 ],
					"Filter Gain::Rate Speed" : [ 0 ],
					"stepper_mixer::Mixer / Send UI" : [ -70.0, -70.0, -70.0, -70.0, -70.0, -70.0, -70.0, -70.0, -70.0, -70.0, -70.0 ],
					"_dihedral2::16th Note Playback Speed[1]" : [ 1.0 ],
					"_dihedral2::2nd Note Playback Speed" : [ 0.5 ],
					"_dihedral2::32nd Note Playback Speed[1]" : [ 1.0 ],
					"_dihedral2::4th Note Playback Speed[1]" : [ 0.333 ],
					"_dihedral2::8th Note Playback Speed[1]" : [ 0.75 ],
					"_dihedral2::Complete speed control" : [ 1.0 ],
					"_dihedral2::DH1" : [ 0 ],
					"_dihedral2::DH16" : [ 0, 0, 1, 1, 2, 1, 2, 2, 1, 0, 2, 1, 2, 2, 0, 2 ],
					"_dihedral2::DH2" : [ 1, 2 ],
					"_dihedral2::DH32" : [ 1, 2, 1, 0, 0, 0, 1, 1, 0, 1, 1, 0, 1, 2, 2, 0, 1, 0, 1, 1, 0, 0, 2, 2, 0, 0, 1, 2, 1, 1, 1, 2 ],
					"_dihedral2::DH4" : [ 0, 2, 0, 1 ],
					"_dihedral2::DH8" : [ 0, 1, 1, 2, 2, 1, 1, 0 ],
					"_dihedral2::DHLoop" : [ 1, 1, 1, 1, 1, 1 ],
					"_dihedral2::DHNotes16" : [ 2.0, 6.0, 7.0, 4.0, 15.0, 3.0, 2.0, 2.0, 9.0, 4.0, 13.0, 15.0, 6.0, 3.0, 12.0, 8.0 ],
					"_dihedral2::DHNotes32" : [ 8.0, 23.0, 23.0, 26.0, 29.0, 28.0, 8.0, 3.0, 18.0, 30.0, 18.0, 8.0, 20.0, 28.0, 31.0, 15.0, 8.0, 1.0, 21.0, 29.0, 21.0, 12.0, 11.0, 14.0, 16.0, 25.0, 11.0, 17.0, 2.0, 19.0, 16.0, 2.0 ],
					"_dihedral2::DHNotes4" : [ 3.0, 1.0, 2.0, 3.0 ],
					"_dihedral2::DHNotes8" : [ 7.0, 2.0, 6.0, 1.0, 6.0, 1.0, 1.0, 7.0 ],
					"_dihedral2::Full Note Playback Speed[1]" : [ 1.0 ],
					"_dihedral2::Manual Sample Duration[1]" : [ 2891.566265 ],
					"_dihedral2::Quantized Sample Duration[1]" : [ 3.0 ],
					"_dihedral2::live.gain~" : [ 0.0 ],
					"_dihedral2::live.gain~[1]" : [ 0.0 ],
					"_dihedral2::live.gain~[2]" : [ -70.0 ],
					"_dihedral2::live.gain~[3]" : [ -70.0 ],
					"_dihedral2::live.gain~[4]" : [ -70.0 ],
					"_dihedral2::live.gain~[5]" : [ -70.0 ],
					"_dihedral2::live.gain~[6]" : [ -70.0 ],
					"_dihedral2::live.gain~[7]" : [ -7.818182 ],
					"_dihedral2::live.gain~[8]" : [ -70.0 ],
					"_dihedral2::live.text" : [ 0.0 ],
					"_dihedral2::live.toggle" : [ 1.0 ],
					"_dihedral2::multislider" : [ -70.0, -70.0, -70.0, -70.0, -7.818182, -70.0 ],
					"_dihedral2::toggle" : [ 0 ],
					"_stepper::Manual Sample Duration[2]" : [ 3000.0 ],
					"_stepper::Master" : [ 0.0 ],
					"_stepper::MetroSpeed" : [ 3, 3, 3, 3, 3, 3, 3, 3, 3, 3, 3, 3, 3, 3, 3, 3 ],
					"_stepper::NoteAmp" : [ 93.75, 0.0, 1.0, 0.0, 0.0, 0, 14.024445, 0.939462, 0, 88.302511, 0.947199, 0, 90.716902, 0.0, 0, "linear" ],
					"_stepper::NoteLocation" : [ 0.740157, 0.477273, 0.477273, 0.477273, 0.477273, 0.477273, 0.477273, 0.477273, 0.477273, 0.363636, 0.128788, 0.515152, 0.666667, 0.681818, 0.19685, 0.897638 ],
					"_stepper::Quantized Sample Duration[2]" : [ 3.0 ],
					"_stepper::live.menu" : [ 3.0 ],
					"_stepper::number" : [ 1 ],
					"_stepper::number[1]" : [ 1 ],
					"_stepper::playback speed" : [ 1.0 ],
					"_stepper::rslider" : [ 0.0, 15.0 ],
					"Metro Speed::Auto Mode" : [ 0.0 ],
					"Metro Speed::Range Slider" : [ 0.0, 2.0 ],
					"Metro Speed::Rate Limit Mode" : [ 0.0 ],
					"Metro Speed::Rate Speed" : [ 0 ],
					"Playback Speed::Auto Mode" : [ 0.0 ],
					"Playback Speed::Range Slider" : [ 0.0, 2.0 ],
					"Playback Speed::Rate Limit Mode" : [ 0.0 ],
					"Playback Speed::Rate Speed" : [ 0 ],
					"Dihedral Speed::Auto Mode" : [ 0.0 ],
					"Dihedral Speed::Range Slider" : [ 0.0, 2.0 ],
					"Dihedral Speed::Rate Limit Mode" : [ 0.0 ],
					"Dihedral Speed::Rate Speed" : [ 0 ],
					"midiverb_mixer::Mixer / Send UI" : [ -42.832581, 3.248869, -24.460318, -25.36508, 4.624434, -27.174603, -45.927601, -28.984127, -36.413273, -37.903469, -39.393665 ],
					"midiverb_mixer::panning" : [ 0.5, 0.5, 0.5, 0.5, 0.5, 0.5, 0.5, 0.5, 0.5, 0.5, 0.5 ]
				}

			}
,
			"3" : 			{
				"id" : 3,
				"data" : 				{
					"Filter" : [ 1, 0, 1, 1, 0, 0, 2228.428467, 0.945726, 1.385425 ],
					"Stutter Rate" : [ 1.0 ],
					"Stutter Speed" : [ 1.335867 ],
					"live.text[103]" : [ 1.0 ],
					"main_mixer::Mixer / Send UI" : [ -8.666272, -44.105167, -24.460318, -25.36508, -26.269842, -0.461304, -64.887741, -28.984127, -36.413273, -37.903469, -39.393665 ],
					"main_mixer::panning" : [ 0.5, 0.5, 0.5, 0.5, 0.5, 0.5, 0.5, 0.5, 0.5, 0.5, 0.5 ],
					"stutter_mixer::Mixer / Send UI" : [ -70.0, -27.701357, -2.941176, -70.0, -70.0, -70.0, -70.0, -30.108597, -70.0, -70.0, -70.0 ],
					"reverb_mixer::Mixer / Send UI" : [ -16.00905, 4.624434, -70.0, -70.0, -70.0, -70.0, -70.0, -70.0, -70.0, -70.0, -70.0 ],
					"filter_mixer::Mixer / Send UI" : [ -14.289593, -14.977376, -70.0, -70.0, -70.0, -70.0, -20.177673, -7.411765, -70.0, -70.0, -70.0 ],
					"stutter::Buffer Size" : [ 7.0 ],
					"stutter::Rate Multislider" : [ 0.1, 0.1, 0.248052, 0.248052, 0.248052, 0.248052, 0.248052, 0.248052, 0.248052, 0.272727, 0.322078, 0.371429, 0.371429, 0.371429, 0.371429, 0.1 ],
					"stutter::Rate quantize" : [ 1.0 ],
					"stutter::Repeat Rate Adjust" : [ 0.371429 ],
					"stutter::Repeat Rate Toggle" : [ 1.0 ],
					"stutter::Sample Playback Pitch" : [ 1.335867 ],
					"stutter::Speed Multislider" : [ 0.719048, 0.842857, 1.028571, 0.842857, 1.307143, 3.752381, 3.752381, 3.009524, 3.009524, 2.978571, 2.947619, 2.82381, 2.7, 2.483333, 2.266667, 1.957143 ],
					"stutter::Speed quantize" : [ 1.0 ],
					"stutter::live.text" : [ 1.0 ],
					"stutter::live.text[1]" : [ 1.0 ],
					"stutter::_subdivide::Gen New Bars Button" : [ 0.0 ],
					"stutter::_subdivide::Jam Bars" : [ 1.0 ],
					"stutter::_subdivide::Jam Bars Button" : [ 0.0 ],
					"stutter::_subdivide::Jam Bars On/Off" : [ 0.0 ],
					"stutter::_subdivide::Loop Controller" : [ 0.0, 12.0 ],
					"stutter::_subdivide::Loop Jam Bars" : [ 1.0 ],
					"stutter::_subdivide::Loop Jam Bars Button" : [ 0.0 ],
					"stutter::_subdivide::Loop Jam On/Off" : [ 0.0 ],
					"stutter::_subdivide::Loop On/Off" : [ 1.0 ],
					"stutter::_subdivide::Number of Bars" : [ 1.0 ],
					"stutter::_subdivide::Range Control" : [ 0.0, 127.0 ],
					"stutter::_subdivide::Smooth Output" : [ 1.0 ],
					"stutter::_subdivide::Values" : [ 6.0, 0.0, 0.0, 30.0, 13.0, 93.0, 115.0, 22.0, 71.0, 46.0, 54.0, 106.0 ],
					"speed::Auto Mode" : [ 0.0 ],
					"speed::Range Slider" : [ 0.0, 1.387755 ],
					"speed::Rate Limit Mode" : [ 0.0 ],
					"speed::Rate Speed" : [ 0 ],
					"stutter rate::Auto Mode" : [ 0.0 ],
					"stutter rate::Range Slider" : [ 0.0, 2.0 ],
					"stutter rate::Rate Limit Mode" : [ 0.0 ],
					"stutter rate::Rate Speed" : [ 0 ],
					"dihedral_mixer::Mixer / Send UI" : [ -50.054298, 6.0, -70.0, -70.0, -70.0, -70.0, -70.0, -70.0, -70.0, -70.0, -70.0 ],
					"Filter Freq::Auto Mode" : [ 0.0 ],
					"Filter Freq::Range Slider" : [ 0.0, 0.638128 ],
					"Filter Freq::Rate Limit Mode" : [ 0.0 ],
					"Filter Freq::Rate Speed" : [ 0 ],
					"Filter Q::Auto Mode" : [ 0.0 ],
					"Filter Q::Range Slider" : [ 0.0, 0.408163 ],
					"Filter Q::Rate Limit Mode" : [ 0.0 ],
					"Filter Q::Rate Speed" : [ 0 ],
					"Filter Gain::Auto Mode" : [ 0.0 ],
					"Filter Gain::Range Slider" : [ 0.0, 0.163265 ],
					"Filter Gain::Rate Limit Mode" : [ 0.0 ],
					"Filter Gain::Rate Speed" : [ 0 ],
					"stepper_mixer::Mixer / Send UI" : [ -70.0, -70.0, -70.0, -70.0, -70.0, -70.0, -70.0, -70.0, -70.0, -70.0, -70.0 ],
					"_dihedral2::16th Note Playback Speed[1]" : [ 1.0 ],
					"_dihedral2::2nd Note Playback Speed" : [ 0.5 ],
					"_dihedral2::32nd Note Playback Speed[1]" : [ 1.0 ],
					"_dihedral2::4th Note Playback Speed[1]" : [ 0.333 ],
					"_dihedral2::8th Note Playback Speed[1]" : [ 0.75 ],
					"_dihedral2::Complete speed control" : [ 1.0 ],
					"_dihedral2::DH1" : [ 0 ],
					"_dihedral2::DH16" : [ 0, 0, 1, 1, 2, 1, 2, 2, 1, 0, 2, 1, 2, 2, 0, 2 ],
					"_dihedral2::DH2" : [ 1, 2 ],
					"_dihedral2::DH32" : [ 1, 2, 1, 0, 0, 0, 1, 1, 0, 1, 1, 0, 1, 2, 2, 0, 1, 0, 1, 1, 0, 0, 2, 2, 0, 0, 1, 2, 1, 1, 1, 2 ],
					"_dihedral2::DH4" : [ 0, 2, 0, 1 ],
					"_dihedral2::DH8" : [ 0, 1, 1, 2, 2, 1, 1, 0 ],
					"_dihedral2::DHLoop" : [ 1, 1, 1, 1, 1, 1 ],
					"_dihedral2::DHNotes16" : [ 2.0, 6.0, 7.0, 4.0, 15.0, 3.0, 2.0, 2.0, 9.0, 4.0, 13.0, 15.0, 6.0, 3.0, 12.0, 8.0 ],
					"_dihedral2::DHNotes32" : [ 8.0, 23.0, 23.0, 26.0, 29.0, 28.0, 8.0, 3.0, 18.0, 30.0, 18.0, 8.0, 20.0, 28.0, 31.0, 15.0, 8.0, 1.0, 21.0, 29.0, 21.0, 12.0, 11.0, 14.0, 16.0, 25.0, 11.0, 17.0, 2.0, 19.0, 16.0, 2.0 ],
					"_dihedral2::DHNotes4" : [ 3.0, 1.0, 2.0, 3.0 ],
					"_dihedral2::DHNotes8" : [ 7.0, 2.0, 6.0, 1.0, 6.0, 1.0, 1.0, 7.0 ],
					"_dihedral2::Full Note Playback Speed[1]" : [ 1.0 ],
					"_dihedral2::Manual Sample Duration[1]" : [ 2891.566162 ],
					"_dihedral2::Quantized Sample Duration[1]" : [ 3.0 ],
					"_dihedral2::live.gain~" : [ 0.0 ],
					"_dihedral2::live.gain~[1]" : [ 0.0 ],
					"_dihedral2::live.gain~[2]" : [ -70.0 ],
					"_dihedral2::live.gain~[3]" : [ -70.0 ],
					"_dihedral2::live.gain~[4]" : [ -70.0 ],
					"_dihedral2::live.gain~[5]" : [ -70.0 ],
					"_dihedral2::live.gain~[6]" : [ -70.0 ],
					"_dihedral2::live.gain~[7]" : [ -7.818182 ],
					"_dihedral2::live.gain~[8]" : [ -70.0 ],
					"_dihedral2::live.text" : [ 0.0 ],
					"_dihedral2::live.toggle" : [ 1.0 ],
					"_dihedral2::multislider" : [ -70.0, -70.0, -70.0, -70.0, -7.818182, -70.0 ],
					"_dihedral2::toggle" : [ 0 ],
					"_stepper::Manual Sample Duration[2]" : [ 3000.0 ],
					"_stepper::Master" : [ 0.0 ],
					"_stepper::MetroSpeed" : [ 3, 3, 3, 3, 3, 3, 3, 3, 3, 3, 3, 3, 3, 3, 3, 3 ],
					"_stepper::NoteAmp" : [ 93.75, 0.0, 1.0, 0.0, 0.0, 0, 14.024446, 0.939462, 0, 88.302513, 0.947199, 0, 90.716904, 0.0, 0, "linear" ],
					"_stepper::NoteLocation" : [ 0.740157, 0.477273, 0.477273, 0.477273, 0.477273, 0.477273, 0.477273, 0.477273, 0.477273, 0.363636, 0.128788, 0.515152, 0.666667, 0.681818, 0.19685, 0.897638 ],
					"_stepper::Quantized Sample Duration[2]" : [ 3.0 ],
					"_stepper::live.menu" : [ 3.0 ],
					"_stepper::number" : [ 1 ],
					"_stepper::number[1]" : [ 1 ],
					"_stepper::playback speed" : [ 1.0 ],
					"_stepper::rslider" : [ 0.0, 15.0 ],
					"Metro Speed::Auto Mode" : [ 0.0 ],
					"Metro Speed::Range Slider" : [ 0.0, 2.0 ],
					"Metro Speed::Rate Limit Mode" : [ 0.0 ],
					"Metro Speed::Rate Speed" : [ 0 ],
					"Playback Speed::Auto Mode" : [ 0.0 ],
					"Playback Speed::Range Slider" : [ 0.0, 2.0 ],
					"Playback Speed::Rate Limit Mode" : [ 0.0 ],
					"Playback Speed::Rate Speed" : [ 0 ],
					"Dihedral Speed::Auto Mode" : [ 0.0 ],
					"Dihedral Speed::Range Slider" : [ 0.0, 2.0 ],
					"Dihedral Speed::Rate Limit Mode" : [ 0.0 ],
					"Dihedral Speed::Rate Speed" : [ 0 ],
					"midiverb_mixer::Mixer / Send UI" : [ -9.131222, -70.0, -70.0, -70.0, -70.0, -5.348416, -40.643425, -28.984127, -36.413273, -37.903469, -39.393665 ],
					"midiverb_mixer::panning" : [ 0.5, 0.5, 0.5, 0.5, 0.5, 0.5, 0.5, 0.5, 0.5, 0.5, 0.5 ]
				}

			}
,
			"4" : 			{
				"id" : 4,
				"data" : 				{
					"Filter" : [ 1, 0, 1, 1, 0, 0, 4406.856934, 1.141451, 2.27085 ],
					"Stutter Rate" : [ 1.0 ],
					"Stutter Speed" : [ 2.571734 ],
					"live.text[103]" : [ 1.0 ],
					"main_mixer::Mixer / Send UI" : [ -8.666272, -44.105167, -24.460318, -25.36508, -26.269842, -0.461304, -64.887741, -28.984127, -36.413273, -37.903469, -39.393665 ],
					"main_mixer::panning" : [ 0.5, 0.5, 0.5, 0.5, 0.5, 0.5, 0.5, 0.5, 0.5, 0.5, 0.5 ],
					"stutter_mixer::Mixer / Send UI" : [ -70.0, -27.701357, -2.941176, -70.0, -70.0, -70.0, -70.0, -30.108597, -70.0, -70.0, -70.0 ],
					"reverb_mixer::Mixer / Send UI" : [ -16.00905, 4.624434, -70.0, -70.0, -70.0, -70.0, -70.0, -70.0, -70.0, -70.0, -70.0 ],
					"filter_mixer::Mixer / Send UI" : [ -14.289593, -14.977376, -70.0, -70.0, -70.0, -70.0, -20.177673, -7.411765, -70.0, -70.0, -70.0 ],
					"stutter::Buffer Size" : [ 7.0 ],
					"stutter::Rate Multislider" : [ 0.1, 0.1, 0.248052, 0.248052, 0.248052, 0.248052, 0.248052, 0.248052, 0.248052, 0.272727, 0.322078, 0.371429, 0.371429, 0.371429, 0.371429, 0.1 ],
					"stutter::Rate quantize" : [ 1.0 ],
					"stutter::Repeat Rate Adjust" : [ 0.1 ],
					"stutter::Repeat Rate Toggle" : [ 1.0 ],
					"stutter::Sample Playback Pitch" : [ 2.571734 ],
					"stutter::Speed Multislider" : [ 0.719048, 0.842857, 1.028571, 0.842857, 1.307143, 3.752381, 3.752381, 3.009524, 3.009524, 2.978571, 2.947619, 2.82381, 2.7, 2.483333, 2.266667, 1.957143 ],
					"stutter::Speed quantize" : [ 1.0 ],
					"stutter::live.text" : [ 1.0 ],
					"stutter::live.text[1]" : [ 1.0 ],
					"stutter::_subdivide::Gen New Bars Button" : [ 0.0 ],
					"stutter::_subdivide::Jam Bars" : [ 1.0 ],
					"stutter::_subdivide::Jam Bars Button" : [ 0.0 ],
					"stutter::_subdivide::Jam Bars On/Off" : [ 0.0 ],
					"stutter::_subdivide::Loop Controller" : [ 0.0, 12.0 ],
					"stutter::_subdivide::Loop Jam Bars" : [ 1.0 ],
					"stutter::_subdivide::Loop Jam Bars Button" : [ 0.0 ],
					"stutter::_subdivide::Loop Jam On/Off" : [ 0.0 ],
					"stutter::_subdivide::Loop On/Off" : [ 1.0 ],
					"stutter::_subdivide::Number of Bars" : [ 1.0 ],
					"stutter::_subdivide::Range Control" : [ 0.0, 127.0 ],
					"stutter::_subdivide::Smooth Output" : [ 1.0 ],
					"stutter::_subdivide::Values" : [ 6.0, 0.0, 0.0, 30.0, 13.0, 93.0, 115.0, 22.0, 71.0, 46.0, 54.0, 106.0 ],
					"speed::Auto Mode" : [ 0.0 ],
					"speed::Range Slider" : [ 0.0, 1.387755 ],
					"speed::Rate Limit Mode" : [ 0.0 ],
					"speed::Rate Speed" : [ 0 ],
					"stutter rate::Auto Mode" : [ 0.0 ],
					"stutter rate::Range Slider" : [ 0.0, 2.0 ],
					"stutter rate::Rate Limit Mode" : [ 0.0 ],
					"stutter rate::Rate Speed" : [ 0 ],
					"dihedral_mixer::Mixer / Send UI" : [ -29.764706, 6.0, -70.0, -70.0, -70.0, -70.0, -70.0, -70.0, -70.0, -70.0, -70.0 ],
					"Filter Freq::Auto Mode" : [ 0.0 ],
					"Filter Freq::Range Slider" : [ 0.0, 0.638128 ],
					"Filter Freq::Rate Limit Mode" : [ 0.0 ],
					"Filter Freq::Rate Speed" : [ 0 ],
					"Filter Q::Auto Mode" : [ 0.0 ],
					"Filter Q::Range Slider" : [ 0.0, 0.408163 ],
					"Filter Q::Rate Limit Mode" : [ 0.0 ],
					"Filter Q::Rate Speed" : [ 0 ],
					"Filter Gain::Auto Mode" : [ 0.0 ],
					"Filter Gain::Range Slider" : [ 0.0, 0.163265 ],
					"Filter Gain::Rate Limit Mode" : [ 0.0 ],
					"Filter Gain::Rate Speed" : [ 0 ],
					"stepper_mixer::Mixer / Send UI" : [ -70.0, -70.0, -70.0, -70.0, -70.0, -70.0, -70.0, -70.0, -70.0, -70.0, -70.0 ],
					"_dihedral2::16th Note Playback Speed[1]" : [ 2.0 ],
					"_dihedral2::2nd Note Playback Speed" : [ 0.5 ],
					"_dihedral2::32nd Note Playback Speed[1]" : [ 1.0 ],
					"_dihedral2::4th Note Playback Speed[1]" : [ 0.333 ],
					"_dihedral2::8th Note Playback Speed[1]" : [ 0.75 ],
					"_dihedral2::Complete speed control" : [ 1.0 ],
					"_dihedral2::DH1" : [ 0 ],
					"_dihedral2::DH16" : [ 0, 0, 1, 1, 2, 1, 2, 2, 1, 0, 2, 1, 2, 2, 0, 2 ],
					"_dihedral2::DH2" : [ 1, 2 ],
					"_dihedral2::DH32" : [ 1, 2, 1, 0, 0, 0, 1, 1, 0, 1, 1, 0, 1, 2, 2, 0, 1, 0, 1, 1, 0, 0, 2, 2, 0, 0, 1, 2, 1, 1, 1, 2 ],
					"_dihedral2::DH4" : [ 0, 2, 0, 1 ],
					"_dihedral2::DH8" : [ 0, 1, 1, 2, 2, 1, 1, 0 ],
					"_dihedral2::DHLoop" : [ 1, 1, 1, 1, 1, 1 ],
					"_dihedral2::DHNotes16" : [ 12.73913, 11.652174, 10.565217, 9.478261, 8.391304, 7.304348, 6.217391, 5.130435, 4.043478, 2.956522, 2.467391, 1.978261, 1.48913, 1.0, 1.0, 1.0 ],
					"_dihedral2::DHNotes32" : [ 8.0, 23.0, 23.0, 26.0, 29.0, 28.0, 8.0, 3.0, 18.0, 30.0, 18.0, 8.0, 20.0, 28.0, 31.0, 15.0, 8.0, 1.0, 21.0, 29.0, 21.0, 12.0, 11.0, 14.0, 16.0, 25.0, 11.0, 17.0, 2.0, 19.0, 16.0, 2.0 ],
					"_dihedral2::DHNotes4" : [ 3.0, 1.0, 2.0, 3.0 ],
					"_dihedral2::DHNotes8" : [ 7.0, 2.0, 6.0, 1.0, 6.0, 1.0, 1.0, 7.0 ],
					"_dihedral2::Full Note Playback Speed[1]" : [ 1.0 ],
					"_dihedral2::Manual Sample Duration[1]" : [ 2891.566162 ],
					"_dihedral2::Quantized Sample Duration[1]" : [ 3.0 ],
					"_dihedral2::live.gain~" : [ 0.0 ],
					"_dihedral2::live.gain~[1]" : [ 0.0 ],
					"_dihedral2::live.gain~[2]" : [ -70.0 ],
					"_dihedral2::live.gain~[3]" : [ -70.0 ],
					"_dihedral2::live.gain~[4]" : [ -70.0 ],
					"_dihedral2::live.gain~[5]" : [ -70.0 ],
					"_dihedral2::live.gain~[6]" : [ -70.0 ],
					"_dihedral2::live.gain~[7]" : [ -7.818182 ],
					"_dihedral2::live.gain~[8]" : [ -70.0 ],
					"_dihedral2::live.text" : [ 0.0 ],
					"_dihedral2::live.toggle" : [ 1.0 ],
					"_dihedral2::multislider" : [ -70.0, -70.0, -70.0, -70.0, -7.818182, -70.0 ],
					"_dihedral2::toggle" : [ 0 ],
					"_stepper::Manual Sample Duration[2]" : [ 3000.0 ],
					"_stepper::Master" : [ 0.0 ],
					"_stepper::MetroSpeed" : [ 3, 3, 3, 3, 3, 3, 3, 3, 3, 3, 3, 3, 3, 3, 3, 3 ],
					"_stepper::NoteAmp" : [ 93.75, 0.0, 1.0, 0.0, 0.0, 0, 14.024446, 0.939462, 0, 88.302513, 0.947199, 0, 90.716904, 0.0, 0, "linear" ],
					"_stepper::NoteLocation" : [ 0.740157, 0.477273, 0.477273, 0.477273, 0.477273, 0.477273, 0.477273, 0.477273, 0.477273, 0.363636, 0.128788, 0.515152, 0.666667, 0.681818, 0.19685, 0.897638 ],
					"_stepper::Quantized Sample Duration[2]" : [ 3.0 ],
					"_stepper::live.menu" : [ 3.0 ],
					"_stepper::number" : [ 1 ],
					"_stepper::number[1]" : [ 1 ],
					"_stepper::playback speed" : [ 1.0 ],
					"_stepper::rslider" : [ 0.0, 15.0 ],
					"Metro Speed::Auto Mode" : [ 0.0 ],
					"Metro Speed::Range Slider" : [ 0.0, 2.0 ],
					"Metro Speed::Rate Limit Mode" : [ 0.0 ],
					"Metro Speed::Rate Speed" : [ 0 ],
					"Playback Speed::Auto Mode" : [ 0.0 ],
					"Playback Speed::Range Slider" : [ 0.0, 2.0 ],
					"Playback Speed::Rate Limit Mode" : [ 0.0 ],
					"Playback Speed::Rate Speed" : [ 0 ],
					"Dihedral Speed::Auto Mode" : [ 0.0 ],
					"Dihedral Speed::Range Slider" : [ 0.0, 2.0 ],
					"Dihedral Speed::Rate Limit Mode" : [ 0.0 ],
					"Dihedral Speed::Rate Speed" : [ 0 ],
					"midiverb_mixer::Mixer / Send UI" : [ -9.131222, -70.0, -70.0, -70.0, -70.0, -5.348416, -40.643425, -28.984127, -36.413273, -37.903469, -39.393665 ],
					"midiverb_mixer::panning" : [ 0.5, 0.5, 0.5, 0.5, 0.5, 0.5, 0.5, 0.5, 0.5, 0.5, 0.5 ]
				}

			}
,
			"5" : 			{
				"id" : 5,
				"data" : 				{
					"Filter" : [ 1, 0, 1, 1, 0, 0, 653.884094, 0.925427, 0.944668 ],
					"Stutter Rate" : [ 1.0 ],
					"Stutter Speed" : [ 0.462237 ],
					"live.text[103]" : [ 1.0 ],
					"main_mixer::Mixer / Send UI" : [ -8.310975, -44.627262, -24.460318, -25.36508, -26.269842, 0.217387, -65.822914, -28.984127, -36.413273, -37.903469, -39.393665 ],
					"main_mixer::panning" : [ 0.5, 0.5, 0.5, 0.5, 0.5, 0.5, 0.5, 0.5, 0.5, 0.5, 0.5 ],
					"stutter_mixer::Mixer / Send UI" : [ -70.0, -27.701357, -2.941176, -70.0, -70.0, -70.0, -70.0, -30.108597, -70.0, -70.0, -70.0 ],
					"reverb_mixer::Mixer / Send UI" : [ -16.00905, 4.624434, -70.0, -70.0, -70.0, -70.0, -70.0, -70.0, -70.0, -70.0, -70.0 ],
					"filter_mixer::Mixer / Send UI" : [ -24.48053, -25.0425, -70.0, -70.0, -70.0, -70.0, -18.911863, -18.860842, -70.0, -70.0, -70.0 ],
					"stutter::Buffer Size" : [ 7.0 ],
					"stutter::Rate Multislider" : [ 0.1, 0.1, 0.248052, 0.248052, 0.248052, 0.248052, 0.248052, 0.248052, 0.248052, 0.272727, 0.322078, 0.371429, 0.371429, 0.371429, 0.371429, 0.1 ],
					"stutter::Rate quantize" : [ 1.0 ],
					"stutter::Repeat Rate Adjust" : [ 0.248052 ],
					"stutter::Repeat Rate Toggle" : [ 1.0 ],
					"stutter::Sample Playback Pitch" : [ 0.462237 ],
					"stutter::Speed Multislider" : [ 0.719048, 0.842857, 1.028571, 0.842857, 1.307143, 3.752381, 3.752381, 3.009524, 3.009524, 2.978571, 2.947619, 2.82381, 2.7, 2.483333, 2.266667, 1.957143 ],
					"stutter::Speed quantize" : [ 1.0 ],
					"stutter::live.text" : [ 1.0 ],
					"stutter::live.text[1]" : [ 1.0 ],
					"stutter::_subdivide::Gen New Bars Button" : [ 0.0 ],
					"stutter::_subdivide::Jam Bars" : [ 1.0 ],
					"stutter::_subdivide::Jam Bars Button" : [ 0.0 ],
					"stutter::_subdivide::Jam Bars On/Off" : [ 0.0 ],
					"stutter::_subdivide::Loop Controller" : [ 0.0, 12.0 ],
					"stutter::_subdivide::Loop Jam Bars" : [ 1.0 ],
					"stutter::_subdivide::Loop Jam Bars Button" : [ 0.0 ],
					"stutter::_subdivide::Loop Jam On/Off" : [ 0.0 ],
					"stutter::_subdivide::Loop On/Off" : [ 1.0 ],
					"stutter::_subdivide::Number of Bars" : [ 1.0 ],
					"stutter::_subdivide::Range Control" : [ 0.0, 127.0 ],
					"stutter::_subdivide::Smooth Output" : [ 1.0 ],
					"stutter::_subdivide::Values" : [ 6.0, 0.0, 0.0, 30.0, 13.0, 93.0, 115.0, 22.0, 71.0, 46.0, 54.0, 106.0 ],
					"speed::Auto Mode" : [ 0.0 ],
					"speed::Range Slider" : [ 0.0, 1.387755 ],
					"speed::Rate Limit Mode" : [ 0.0 ],
					"speed::Rate Speed" : [ 0 ],
					"stutter rate::Auto Mode" : [ 0.0 ],
					"stutter rate::Range Slider" : [ 0.0, 2.0 ],
					"stutter rate::Rate Limit Mode" : [ 0.0 ],
					"stutter rate::Rate Speed" : [ 0 ],
					"dihedral_mixer::Mixer / Send UI" : [ -33.476219, -70.0, -65.529411, -70.0, -70.0, -70.0, -70.0, -70.0, -70.0, -70.0, -70.0 ],
					"Filter Freq::Auto Mode" : [ 0.0 ],
					"Filter Freq::Range Slider" : [ 0.0, 0.603528 ],
					"Filter Freq::Rate Limit Mode" : [ 0.0 ],
					"Filter Freq::Rate Speed" : [ 0 ],
					"Filter Q::Auto Mode" : [ 0.0 ],
					"Filter Q::Range Slider" : [ 0.0, 0.699353 ],
					"Filter Q::Rate Limit Mode" : [ 0.0 ],
					"Filter Q::Rate Speed" : [ 0 ],
					"Filter Gain::Auto Mode" : [ 0.0 ],
					"Filter Gain::Range Slider" : [ 0.0, 0.499254 ],
					"Filter Gain::Rate Limit Mode" : [ 0.0 ],
					"Filter Gain::Rate Speed" : [ 0 ],
					"stepper_mixer::Mixer / Send UI" : [ -70.0, -70.0, -70.0, -70.0, -70.0, -70.0, -70.0, -70.0, -70.0, -70.0, -70.0 ],
					"_dihedral2::16th Note Playback Speed[1]" : [ 1.817073 ],
					"_dihedral2::2nd Note Playback Speed" : [ 0.5 ],
					"_dihedral2::32nd Note Playback Speed[1]" : [ 1.0 ],
					"_dihedral2::4th Note Playback Speed[1]" : [ 0.333 ],
					"_dihedral2::8th Note Playback Speed[1]" : [ 0.75 ],
					"_dihedral2::Complete speed control" : [ 1.0 ],
					"_dihedral2::DH1" : [ 0 ],
					"_dihedral2::DH16" : [ 0, 0, 1, 1, 2, 1, 2, 2, 1, 0, 2, 1, 2, 2, 0, 2 ],
					"_dihedral2::DH2" : [ 1, 2 ],
					"_dihedral2::DH32" : [ 1, 2, 1, 0, 0, 0, 1, 1, 0, 1, 1, 0, 1, 2, 2, 0, 1, 0, 1, 1, 0, 0, 2, 2, 0, 0, 1, 2, 1, 1, 1, 2 ],
					"_dihedral2::DH4" : [ 0, 2, 0, 1 ],
					"_dihedral2::DH8" : [ 0, 1, 1, 2, 2, 1, 1, 0 ],
					"_dihedral2::DHLoop" : [ 1, 1, 1, 1, 1, 1 ],
					"_dihedral2::DHNotes16" : [ 10.774653, 10.618238, 9.913042, 8.476139, 9.600213, 6.516966, 5.445917, 4.557794, 4.95016, 3.147402, 4.39409, 4.360289, 2.31429, 1.365854, 3.012197, 2.280489 ],
					"_dihedral2::DHNotes32" : [ 8.0, 23.0, 23.0, 26.0, 29.0, 28.0, 8.0, 3.0, 18.0, 30.0, 18.0, 8.0, 20.0, 28.0, 31.0, 15.0, 8.0, 1.0, 21.0, 29.0, 21.0, 12.0, 11.0, 14.0, 16.0, 25.0, 11.0, 17.0, 2.0, 19.0, 16.0, 2.0 ],
					"_dihedral2::DHNotes4" : [ 3.0, 1.0, 2.0, 3.0 ],
					"_dihedral2::DHNotes8" : [ 7.0, 2.0, 6.0, 1.0, 6.0, 1.0, 1.0, 7.0 ],
					"_dihedral2::Full Note Playback Speed[1]" : [ 1.0 ],
					"_dihedral2::Manual Sample Duration[1]" : [ 2891.566162 ],
					"_dihedral2::Quantized Sample Duration[1]" : [ 3.0 ],
					"_dihedral2::live.gain~" : [ 0.0 ],
					"_dihedral2::live.gain~[1]" : [ 0.0 ],
					"_dihedral2::live.gain~[2]" : [ -70.0 ],
					"_dihedral2::live.gain~[3]" : [ -70.0 ],
					"_dihedral2::live.gain~[4]" : [ -70.0 ],
					"_dihedral2::live.gain~[5]" : [ -70.0 ],
					"_dihedral2::live.gain~[6]" : [ -70.0 ],
					"_dihedral2::live.gain~[7]" : [ -7.818182 ],
					"_dihedral2::live.gain~[8]" : [ -70.0 ],
					"_dihedral2::live.text" : [ 0.0 ],
					"_dihedral2::live.toggle" : [ 1.0 ],
					"_dihedral2::multislider" : [ -70.0, -70.0, -70.0, -70.0, -7.818182, -70.0 ],
					"_dihedral2::toggle" : [ 0 ],
					"_stepper::Manual Sample Duration[2]" : [ 3000.0 ],
					"_stepper::Master" : [ 0.0 ],
					"_stepper::MetroSpeed" : [ 3, 3, 3, 3, 3, 3, 3, 3, 3, 3, 3, 3, 3, 3, 3, 3 ],
					"_stepper::NoteAmp" : [ 93.75, 0.0, 1.0, 0.0, 0.0, 0, 14.024446, 0.939462, 0, 88.302513, 0.947199, 0, 90.716904, 0.0, 0, "linear" ],
					"_stepper::NoteLocation" : [ 0.740157, 0.477273, 0.477273, 0.477273, 0.477273, 0.477273, 0.477273, 0.477273, 0.477273, 0.363636, 0.128788, 0.515152, 0.666667, 0.681818, 0.19685, 0.897638 ],
					"_stepper::Quantized Sample Duration[2]" : [ 3.0 ],
					"_stepper::live.menu" : [ 3.0 ],
					"_stepper::number" : [ 1 ],
					"_stepper::number[1]" : [ 1 ],
					"_stepper::playback speed" : [ 1.0 ],
					"_stepper::rslider" : [ 0.0, 15.0 ],
					"Metro Speed::Auto Mode" : [ 0.0 ],
					"Metro Speed::Range Slider" : [ 0.0, 2.0 ],
					"Metro Speed::Rate Limit Mode" : [ 0.0 ],
					"Metro Speed::Rate Speed" : [ 0 ],
					"Playback Speed::Auto Mode" : [ 0.0 ],
					"Playback Speed::Range Slider" : [ 0.0, 2.0 ],
					"Playback Speed::Rate Limit Mode" : [ 0.0 ],
					"Playback Speed::Rate Speed" : [ 0 ],
					"Dihedral Speed::Auto Mode" : [ 0.0 ],
					"Dihedral Speed::Range Slider" : [ 0.0, 2.0 ],
					"Dihedral Speed::Rate Limit Mode" : [ 0.0 ],
					"Dihedral Speed::Rate Speed" : [ 0 ],
					"midiverb_mixer::Mixer / Send UI" : [ -15.29611, -56.600803, -61.669563, -61.835068, -56.349174, -9.341015, -41.610043, -28.984127, -36.413273, -37.903469, -39.393665 ],
					"midiverb_mixer::panning" : [ 0.5, 0.5, 0.5, 0.5, 0.5, 0.5, 0.5, 0.5, 0.5, 0.5, 0.5 ]
				}

			}

		}

	}

}
