{
	"pattrstorage" : 	{
		"name" : "preset_scripting",
		"slots" : 		{
			"1" : 			{
				"id" : 1,
				"data" : 				{
					"auto preset movement mode" : [ 1.0 ],
					"interp_every_n_bars" : [ 1.0 ],
					"scripting_ui_patcher::textedit" : [ 1, 2, 0, 4, "\u002c", "this", 2, 0.1, 1, "\u002c", "this", 2, 0.2, 1, "\u002c", "this", 2, 0.3, 1, "\u002c", "this", 2, 0.4, 1, "\u002c", "this", 2, 0.5, 1, "\u002c", "this", 2, 0.6, 1, "\u002c", "this", 2, 0.7, 1, "\u002c", "this", 2, 0.8, 1, "\u002c", "this", 2, 0.9, 1, "\u002c", "this", 2, 1.0, 1, "\u002c", 2, 1, 0.9, 1, "\u002c", 2, 1, 0.8, 1, "\u002c", 2, 1, 0.7, 1, "\u002c", 2, 1, 0.6, 1, "\u002c", 2, 1, 0.5, 1, "\u002c", 2, 1, 0.4, 1, "\u002c", 2, 1, 0.3, 1, "\u002c", 2, 1, 0.2, 1, "\u002c", 2, 1, 0.1, 1 ]
				}

			}

		}

	}

}
